%TF.GenerationSoftware,KiCad,Pcbnew,5.1.9-73d0e3b20d~88~ubuntu18.04.1*%
%TF.CreationDate,2021-03-03T18:00:00+01:00*%
%TF.ProjectId,TigerBuffer,54696765-7242-4756-9666-65722e6b6963,1.0*%
%TF.SameCoordinates,Original*%
%TF.FileFunction,Soldermask,Bot*%
%TF.FilePolarity,Negative*%
%FSLAX46Y46*%
G04 Gerber Fmt 4.6, Leading zero omitted, Abs format (unit mm)*
G04 Created by KiCad (PCBNEW 5.1.9-73d0e3b20d~88~ubuntu18.04.1) date 2021-03-03 18:00:00*
%MOMM*%
%LPD*%
G01*
G04 APERTURE LIST*
%ADD10C,2.100000*%
%ADD11R,2.100000X2.100000*%
%ADD12C,2.000000*%
G04 APERTURE END LIST*
D10*
%TO.C,C1*%
X106360600Y-85039200D03*
X103860600Y-85039200D03*
%TD*%
D11*
%TO.C,C2*%
X132486400Y-81305400D03*
D10*
X134986400Y-81305400D03*
%TD*%
%TO.C,C3*%
X129590800Y-82891000D03*
X129590800Y-80391000D03*
%TD*%
D11*
%TO.C,IC1*%
X119380000Y-81229200D03*
D10*
X127000000Y-88849200D03*
X119380000Y-83769200D03*
X127000000Y-86309200D03*
X119380000Y-86309200D03*
X127000000Y-83769200D03*
X119380000Y-88849200D03*
X127000000Y-81229200D03*
%TD*%
D11*
%TO.C,J1*%
X105308400Y-88925400D03*
%TD*%
%TO.C,J2*%
X103505000Y-81584800D03*
D10*
X106045000Y-81584800D03*
%TD*%
D11*
%TO.C,J3*%
X138404600Y-81076800D03*
%TD*%
D12*
%TO.C,R1*%
X109194600Y-88849200D03*
X116814600Y-88849200D03*
%TD*%
%TO.C,R2*%
X116789200Y-81915000D03*
X109169200Y-81915000D03*
%TD*%
%TO.C,R3*%
X116789200Y-85166200D03*
X109169200Y-85166200D03*
%TD*%
%TO.C,R4*%
X137337800Y-88874600D03*
X129717800Y-88874600D03*
%TD*%
%TO.C,R5*%
X130733800Y-85750400D03*
X138353800Y-85750400D03*
%TD*%
M02*
