%TF.GenerationSoftware,KiCad,Pcbnew,5.1.9-73d0e3b20d~88~ubuntu18.04.1*%
%TF.CreationDate,2021-03-03T18:00:00+01:00*%
%TF.ProjectId,TigerBuffer,54696765-7242-4756-9666-65722e6b6963,1.0*%
%TF.SameCoordinates,Original*%
%TF.FileFunction,Profile,NP*%
%FSLAX46Y46*%
G04 Gerber Fmt 4.6, Leading zero omitted, Abs format (unit mm)*
G04 Created by KiCad (PCBNEW 5.1.9-73d0e3b20d~88~ubuntu18.04.1) date 2021-03-03 18:00:00*
%MOMM*%
%LPD*%
G01*
G04 APERTURE LIST*
%TA.AperFunction,Profile*%
%ADD10C,0.150000*%
%TD*%
G04 APERTURE END LIST*
D10*
X140208000Y-77673200D02*
X140208000Y-91414600D01*
X101676200Y-77673200D02*
X140208000Y-77673200D01*
X101676200Y-91414600D02*
X101676200Y-77673200D01*
X140208000Y-91414600D02*
X101676200Y-91414600D01*
M02*
