%TF.GenerationSoftware,KiCad,Pcbnew,5.1.9-73d0e3b20d~88~ubuntu18.04.1*%
%TF.CreationDate,2021-03-03T18:00:00+01:00*%
%TF.ProjectId,TigerBuffer,54696765-7242-4756-9666-65722e6b6963,1.0*%
%TF.SameCoordinates,Original*%
%TF.FileFunction,Copper,L2,Bot*%
%TF.FilePolarity,Positive*%
%FSLAX46Y46*%
G04 Gerber Fmt 4.6, Leading zero omitted, Abs format (unit mm)*
G04 Created by KiCad (PCBNEW 5.1.9-73d0e3b20d~88~ubuntu18.04.1) date 2021-03-03 18:00:00*
%MOMM*%
%LPD*%
G01*
G04 APERTURE LIST*
%TA.AperFunction,ComponentPad*%
%ADD10C,2.100000*%
%TD*%
%TA.AperFunction,ComponentPad*%
%ADD11R,2.100000X2.100000*%
%TD*%
%TA.AperFunction,ComponentPad*%
%ADD12C,2.000000*%
%TD*%
%TA.AperFunction,Conductor*%
%ADD13C,0.254000*%
%TD*%
%TA.AperFunction,Conductor*%
%ADD14C,0.050000*%
%TD*%
G04 APERTURE END LIST*
D10*
%TO.P,C1,1*%
%TO.N,Net-(C1-Pad1)*%
X106360600Y-85039200D03*
%TO.P,C1,2*%
%TO.N,/Input_Signal*%
X103860600Y-85039200D03*
%TD*%
D11*
%TO.P,C2,1*%
%TO.N,Net-(C2-Pad1)*%
X132486400Y-81305400D03*
D10*
%TO.P,C2,2*%
%TO.N,/Output_Signal*%
X134986400Y-81305400D03*
%TD*%
%TO.P,C3,2*%
%TO.N,+9V*%
X129590800Y-82891000D03*
%TO.P,C3,1*%
%TO.N,GND*%
X129590800Y-80391000D03*
%TD*%
D11*
%TO.P,IC1,1*%
%TO.N,N/C*%
X119380000Y-81229200D03*
D10*
%TO.P,IC1,5*%
X127000000Y-88849200D03*
%TO.P,IC1,2*%
%TO.N,Net-(IC1-Pad2)*%
X119380000Y-83769200D03*
%TO.P,IC1,6*%
X127000000Y-86309200D03*
%TO.P,IC1,3*%
%TO.N,Net-(IC1-Pad3)*%
X119380000Y-86309200D03*
%TO.P,IC1,7*%
%TO.N,+9V*%
X127000000Y-83769200D03*
%TO.P,IC1,4*%
%TO.N,GND*%
X119380000Y-88849200D03*
%TO.P,IC1,8*%
%TO.N,N/C*%
X127000000Y-81229200D03*
%TD*%
D11*
%TO.P,J1,1*%
%TO.N,/Input_Signal*%
X105308400Y-88925400D03*
%TD*%
%TO.P,J2,1*%
%TO.N,GND*%
X103505000Y-81584800D03*
D10*
%TO.P,J2,2*%
%TO.N,+9V*%
X106045000Y-81584800D03*
%TD*%
D11*
%TO.P,J3,1*%
%TO.N,/Output_Signal*%
X138404600Y-81076800D03*
%TD*%
D12*
%TO.P,R1,2*%
%TO.N,Net-(C1-Pad1)*%
X109194600Y-88849200D03*
%TO.P,R1,1*%
%TO.N,Net-(IC1-Pad3)*%
X116814600Y-88849200D03*
%TD*%
%TO.P,R2,2*%
%TO.N,Net-(IC1-Pad3)*%
X116789200Y-81915000D03*
%TO.P,R2,1*%
%TO.N,+9V*%
X109169200Y-81915000D03*
%TD*%
%TO.P,R3,1*%
%TO.N,Net-(IC1-Pad3)*%
X116789200Y-85166200D03*
%TO.P,R3,2*%
%TO.N,GND*%
X109169200Y-85166200D03*
%TD*%
%TO.P,R4,2*%
%TO.N,Net-(C2-Pad1)*%
X137337800Y-88874600D03*
%TO.P,R4,1*%
%TO.N,Net-(IC1-Pad2)*%
X129717800Y-88874600D03*
%TD*%
%TO.P,R5,1*%
%TO.N,GND*%
X130733800Y-85750400D03*
%TO.P,R5,2*%
%TO.N,/Output_Signal*%
X138353800Y-85750400D03*
%TD*%
D13*
%TO.N,GND*%
X139498000Y-79393002D02*
X139454600Y-79388728D01*
X137354600Y-79388728D01*
X137230118Y-79400988D01*
X137110420Y-79437298D01*
X137000106Y-79496263D01*
X136903415Y-79575615D01*
X136824063Y-79672306D01*
X136765098Y-79782620D01*
X136728788Y-79902318D01*
X136716528Y-80026800D01*
X136716528Y-82126800D01*
X136728788Y-82251282D01*
X136765098Y-82370980D01*
X136824063Y-82481294D01*
X136903415Y-82577985D01*
X137000106Y-82657337D01*
X137110420Y-82716302D01*
X137230118Y-82752612D01*
X137354600Y-82764872D01*
X139454600Y-82764872D01*
X139498000Y-82760598D01*
X139498001Y-84582362D01*
X139396052Y-84480413D01*
X139128263Y-84301482D01*
X138830712Y-84178232D01*
X138514833Y-84115400D01*
X138192767Y-84115400D01*
X137876888Y-84178232D01*
X137579337Y-84301482D01*
X137311548Y-84480413D01*
X137083813Y-84708148D01*
X136904882Y-84975937D01*
X136781632Y-85273488D01*
X136718800Y-85589367D01*
X136718800Y-85911433D01*
X136781632Y-86227312D01*
X136904882Y-86524863D01*
X137083813Y-86792652D01*
X137311548Y-87020387D01*
X137579337Y-87199318D01*
X137876888Y-87322568D01*
X138192767Y-87385400D01*
X138514833Y-87385400D01*
X138830712Y-87322568D01*
X139128263Y-87199318D01*
X139396052Y-87020387D01*
X139498001Y-86918438D01*
X139498001Y-90704600D01*
X102386200Y-90704600D01*
X102386200Y-87875400D01*
X103620328Y-87875400D01*
X103620328Y-89975400D01*
X103632588Y-90099882D01*
X103668898Y-90219580D01*
X103727863Y-90329894D01*
X103807215Y-90426585D01*
X103903906Y-90505937D01*
X104014220Y-90564902D01*
X104133918Y-90601212D01*
X104258400Y-90613472D01*
X106358400Y-90613472D01*
X106482882Y-90601212D01*
X106602580Y-90564902D01*
X106712894Y-90505937D01*
X106809585Y-90426585D01*
X106888937Y-90329894D01*
X106947902Y-90219580D01*
X106984212Y-90099882D01*
X106996472Y-89975400D01*
X106996472Y-88688167D01*
X107559600Y-88688167D01*
X107559600Y-89010233D01*
X107622432Y-89326112D01*
X107745682Y-89623663D01*
X107924613Y-89891452D01*
X108152348Y-90119187D01*
X108420137Y-90298118D01*
X108717688Y-90421368D01*
X109033567Y-90484200D01*
X109355633Y-90484200D01*
X109671512Y-90421368D01*
X109969063Y-90298118D01*
X110236852Y-90119187D01*
X110464587Y-89891452D01*
X110643518Y-89623663D01*
X110766768Y-89326112D01*
X110829600Y-89010233D01*
X110829600Y-88688167D01*
X115179600Y-88688167D01*
X115179600Y-89010233D01*
X115242432Y-89326112D01*
X115365682Y-89623663D01*
X115544613Y-89891452D01*
X115772348Y-90119187D01*
X116040137Y-90298118D01*
X116337688Y-90421368D01*
X116653567Y-90484200D01*
X116975633Y-90484200D01*
X117291512Y-90421368D01*
X117589063Y-90298118D01*
X117856852Y-90119187D01*
X117955773Y-90020266D01*
X118388539Y-90020266D01*
X118490339Y-90289779D01*
X118788477Y-90435663D01*
X119109346Y-90520580D01*
X119440617Y-90541266D01*
X119769557Y-90496928D01*
X120083527Y-90389269D01*
X120269661Y-90289779D01*
X120371461Y-90020266D01*
X119380000Y-89028805D01*
X118388539Y-90020266D01*
X117955773Y-90020266D01*
X118084587Y-89891452D01*
X118136744Y-89813394D01*
X118208934Y-89840661D01*
X119200395Y-88849200D01*
X119559605Y-88849200D01*
X120551066Y-89840661D01*
X120820579Y-89738861D01*
X120966463Y-89440723D01*
X121051380Y-89119854D01*
X121072066Y-88788583D01*
X121027728Y-88459643D01*
X120920069Y-88145673D01*
X120820579Y-87959539D01*
X120551066Y-87857739D01*
X119559605Y-88849200D01*
X119200395Y-88849200D01*
X118208934Y-87857739D01*
X118136744Y-87885006D01*
X118084587Y-87806948D01*
X117856852Y-87579213D01*
X117589063Y-87400282D01*
X117291512Y-87277032D01*
X116975633Y-87214200D01*
X116653567Y-87214200D01*
X116337688Y-87277032D01*
X116040137Y-87400282D01*
X115772348Y-87579213D01*
X115544613Y-87806948D01*
X115365682Y-88074737D01*
X115242432Y-88372288D01*
X115179600Y-88688167D01*
X110829600Y-88688167D01*
X110766768Y-88372288D01*
X110643518Y-88074737D01*
X110464587Y-87806948D01*
X110236852Y-87579213D01*
X109969063Y-87400282D01*
X109671512Y-87277032D01*
X109355633Y-87214200D01*
X109033567Y-87214200D01*
X108717688Y-87277032D01*
X108420137Y-87400282D01*
X108152348Y-87579213D01*
X107924613Y-87806948D01*
X107745682Y-88074737D01*
X107622432Y-88372288D01*
X107559600Y-88688167D01*
X106996472Y-88688167D01*
X106996472Y-87875400D01*
X106984212Y-87750918D01*
X106947902Y-87631220D01*
X106888937Y-87520906D01*
X106809585Y-87424215D01*
X106712894Y-87344863D01*
X106602580Y-87285898D01*
X106482882Y-87249588D01*
X106358400Y-87237328D01*
X104258400Y-87237328D01*
X104133918Y-87249588D01*
X104014220Y-87285898D01*
X103903906Y-87344863D01*
X103807215Y-87424215D01*
X103727863Y-87520906D01*
X103668898Y-87631220D01*
X103632588Y-87750918D01*
X103620328Y-87875400D01*
X102386200Y-87875400D01*
X102386200Y-85865525D01*
X102551775Y-86113325D01*
X102786475Y-86348025D01*
X103062453Y-86532428D01*
X103369104Y-86659446D01*
X103694642Y-86724200D01*
X104026558Y-86724200D01*
X104352096Y-86659446D01*
X104658747Y-86532428D01*
X104934725Y-86348025D01*
X105110600Y-86172150D01*
X105286475Y-86348025D01*
X105562453Y-86532428D01*
X105869104Y-86659446D01*
X106194642Y-86724200D01*
X106526558Y-86724200D01*
X106852096Y-86659446D01*
X107158747Y-86532428D01*
X107434725Y-86348025D01*
X107481137Y-86301613D01*
X108213392Y-86301613D01*
X108309156Y-86566014D01*
X108598771Y-86706904D01*
X108910308Y-86788584D01*
X109231795Y-86807918D01*
X109550875Y-86764161D01*
X109855288Y-86658995D01*
X110029244Y-86566014D01*
X110125008Y-86301613D01*
X109169200Y-85345805D01*
X108213392Y-86301613D01*
X107481137Y-86301613D01*
X107669425Y-86113325D01*
X107750820Y-85991509D01*
X107769386Y-86026244D01*
X108033787Y-86122008D01*
X108989595Y-85166200D01*
X109348805Y-85166200D01*
X110304613Y-86122008D01*
X110569014Y-86026244D01*
X110709904Y-85736629D01*
X110791584Y-85425092D01*
X110810918Y-85103605D01*
X110767161Y-84784525D01*
X110661995Y-84480112D01*
X110569014Y-84306156D01*
X110304613Y-84210392D01*
X109348805Y-85166200D01*
X108989595Y-85166200D01*
X108033787Y-84210392D01*
X107866261Y-84271069D01*
X107853828Y-84241053D01*
X107669425Y-83965075D01*
X107434725Y-83730375D01*
X107158747Y-83545972D01*
X106852096Y-83418954D01*
X106526558Y-83354200D01*
X106194642Y-83354200D01*
X105869104Y-83418954D01*
X105562453Y-83545972D01*
X105286475Y-83730375D01*
X105110600Y-83906250D01*
X104934725Y-83730375D01*
X104658747Y-83545972D01*
X104352096Y-83418954D01*
X104026558Y-83354200D01*
X103694642Y-83354200D01*
X103369104Y-83418954D01*
X103062453Y-83545972D01*
X102786475Y-83730375D01*
X102551775Y-83965075D01*
X102386200Y-84212875D01*
X102386200Y-83266096D01*
X102455000Y-83272872D01*
X103219250Y-83269800D01*
X103378000Y-83111050D01*
X103378000Y-81711800D01*
X103358000Y-81711800D01*
X103358000Y-81457800D01*
X103378000Y-81457800D01*
X103378000Y-80058550D01*
X103632000Y-80058550D01*
X103632000Y-81457800D01*
X103652000Y-81457800D01*
X103652000Y-81711800D01*
X103632000Y-81711800D01*
X103632000Y-83111050D01*
X103790750Y-83269800D01*
X104555000Y-83272872D01*
X104679482Y-83260612D01*
X104799180Y-83224302D01*
X104909494Y-83165337D01*
X105006185Y-83085985D01*
X105085537Y-82989294D01*
X105093042Y-82975254D01*
X105246853Y-83078028D01*
X105553504Y-83205046D01*
X105879042Y-83269800D01*
X106210958Y-83269800D01*
X106536496Y-83205046D01*
X106843147Y-83078028D01*
X107119125Y-82893625D01*
X107353825Y-82658925D01*
X107538228Y-82382947D01*
X107576750Y-82289946D01*
X107597032Y-82391912D01*
X107720282Y-82689463D01*
X107899213Y-82957252D01*
X108126948Y-83184987D01*
X108394737Y-83363918D01*
X108692288Y-83487168D01*
X108972402Y-83542886D01*
X108787525Y-83568239D01*
X108483112Y-83673405D01*
X108309156Y-83766386D01*
X108213392Y-84030787D01*
X109169200Y-84986595D01*
X110125008Y-84030787D01*
X110029244Y-83766386D01*
X109739629Y-83625496D01*
X109428092Y-83543816D01*
X109376823Y-83540733D01*
X109646112Y-83487168D01*
X109943663Y-83363918D01*
X110211452Y-83184987D01*
X110439187Y-82957252D01*
X110618118Y-82689463D01*
X110741368Y-82391912D01*
X110804200Y-82076033D01*
X110804200Y-81753967D01*
X115154200Y-81753967D01*
X115154200Y-82076033D01*
X115217032Y-82391912D01*
X115340282Y-82689463D01*
X115519213Y-82957252D01*
X115746948Y-83184987D01*
X116014737Y-83363918D01*
X116312288Y-83487168D01*
X116580910Y-83540600D01*
X116312288Y-83594032D01*
X116014737Y-83717282D01*
X115746948Y-83896213D01*
X115519213Y-84123948D01*
X115340282Y-84391737D01*
X115217032Y-84689288D01*
X115154200Y-85005167D01*
X115154200Y-85327233D01*
X115217032Y-85643112D01*
X115340282Y-85940663D01*
X115519213Y-86208452D01*
X115746948Y-86436187D01*
X116014737Y-86615118D01*
X116312288Y-86738368D01*
X116628167Y-86801200D01*
X116950233Y-86801200D01*
X117266112Y-86738368D01*
X117563663Y-86615118D01*
X117704166Y-86521237D01*
X117759754Y-86800696D01*
X117886772Y-87107347D01*
X118071175Y-87383325D01*
X118305875Y-87618025D01*
X118390009Y-87674242D01*
X118388539Y-87678134D01*
X119380000Y-88669595D01*
X120371461Y-87678134D01*
X120369991Y-87674242D01*
X120454125Y-87618025D01*
X120688825Y-87383325D01*
X120873228Y-87107347D01*
X121000246Y-86800696D01*
X121065000Y-86475158D01*
X121065000Y-86143242D01*
X121000246Y-85817704D01*
X120873228Y-85511053D01*
X120688825Y-85235075D01*
X120492950Y-85039200D01*
X120688825Y-84843325D01*
X120873228Y-84567347D01*
X121000246Y-84260696D01*
X121065000Y-83935158D01*
X121065000Y-83603242D01*
X121000246Y-83277704D01*
X120873228Y-82971053D01*
X120770454Y-82817242D01*
X120784494Y-82809737D01*
X120881185Y-82730385D01*
X120960537Y-82633694D01*
X121019502Y-82523380D01*
X121055812Y-82403682D01*
X121068072Y-82279200D01*
X121068072Y-81063242D01*
X125315000Y-81063242D01*
X125315000Y-81395158D01*
X125379754Y-81720696D01*
X125506772Y-82027347D01*
X125691175Y-82303325D01*
X125887050Y-82499200D01*
X125691175Y-82695075D01*
X125506772Y-82971053D01*
X125379754Y-83277704D01*
X125315000Y-83603242D01*
X125315000Y-83935158D01*
X125379754Y-84260696D01*
X125506772Y-84567347D01*
X125691175Y-84843325D01*
X125887050Y-85039200D01*
X125691175Y-85235075D01*
X125506772Y-85511053D01*
X125379754Y-85817704D01*
X125315000Y-86143242D01*
X125315000Y-86475158D01*
X125379754Y-86800696D01*
X125506772Y-87107347D01*
X125691175Y-87383325D01*
X125887050Y-87579200D01*
X125691175Y-87775075D01*
X125506772Y-88051053D01*
X125379754Y-88357704D01*
X125315000Y-88683242D01*
X125315000Y-89015158D01*
X125379754Y-89340696D01*
X125506772Y-89647347D01*
X125691175Y-89923325D01*
X125925875Y-90158025D01*
X126201853Y-90342428D01*
X126508504Y-90469446D01*
X126834042Y-90534200D01*
X127165958Y-90534200D01*
X127491496Y-90469446D01*
X127798147Y-90342428D01*
X128074125Y-90158025D01*
X128308825Y-89923325D01*
X128380482Y-89816084D01*
X128447813Y-89916852D01*
X128675548Y-90144587D01*
X128943337Y-90323518D01*
X129240888Y-90446768D01*
X129556767Y-90509600D01*
X129878833Y-90509600D01*
X130194712Y-90446768D01*
X130492263Y-90323518D01*
X130760052Y-90144587D01*
X130987787Y-89916852D01*
X131166718Y-89649063D01*
X131289968Y-89351512D01*
X131352800Y-89035633D01*
X131352800Y-88713567D01*
X135702800Y-88713567D01*
X135702800Y-89035633D01*
X135765632Y-89351512D01*
X135888882Y-89649063D01*
X136067813Y-89916852D01*
X136295548Y-90144587D01*
X136563337Y-90323518D01*
X136860888Y-90446768D01*
X137176767Y-90509600D01*
X137498833Y-90509600D01*
X137814712Y-90446768D01*
X138112263Y-90323518D01*
X138380052Y-90144587D01*
X138607787Y-89916852D01*
X138786718Y-89649063D01*
X138909968Y-89351512D01*
X138972800Y-89035633D01*
X138972800Y-88713567D01*
X138909968Y-88397688D01*
X138786718Y-88100137D01*
X138607787Y-87832348D01*
X138380052Y-87604613D01*
X138112263Y-87425682D01*
X137814712Y-87302432D01*
X137498833Y-87239600D01*
X137176767Y-87239600D01*
X136860888Y-87302432D01*
X136563337Y-87425682D01*
X136295548Y-87604613D01*
X136067813Y-87832348D01*
X135888882Y-88100137D01*
X135765632Y-88397688D01*
X135702800Y-88713567D01*
X131352800Y-88713567D01*
X131289968Y-88397688D01*
X131166718Y-88100137D01*
X130987787Y-87832348D01*
X130760052Y-87604613D01*
X130492263Y-87425682D01*
X130194712Y-87302432D01*
X129878833Y-87239600D01*
X129556767Y-87239600D01*
X129240888Y-87302432D01*
X128943337Y-87425682D01*
X128675548Y-87604613D01*
X128447813Y-87832348D01*
X128397453Y-87907716D01*
X128308825Y-87775075D01*
X128112950Y-87579200D01*
X128308825Y-87383325D01*
X128493228Y-87107347D01*
X128584989Y-86885813D01*
X129777992Y-86885813D01*
X129873756Y-87150214D01*
X130163371Y-87291104D01*
X130474908Y-87372784D01*
X130796395Y-87392118D01*
X131115475Y-87348361D01*
X131419888Y-87243195D01*
X131593844Y-87150214D01*
X131689608Y-86885813D01*
X130733800Y-85930005D01*
X129777992Y-86885813D01*
X128584989Y-86885813D01*
X128620246Y-86800696D01*
X128685000Y-86475158D01*
X128685000Y-86143242D01*
X128620246Y-85817704D01*
X128618296Y-85812995D01*
X129092082Y-85812995D01*
X129135839Y-86132075D01*
X129241005Y-86436488D01*
X129333986Y-86610444D01*
X129598387Y-86706208D01*
X130554195Y-85750400D01*
X130913405Y-85750400D01*
X131869213Y-86706208D01*
X132133614Y-86610444D01*
X132274504Y-86320829D01*
X132356184Y-86009292D01*
X132375518Y-85687805D01*
X132331761Y-85368725D01*
X132226595Y-85064312D01*
X132133614Y-84890356D01*
X131869213Y-84794592D01*
X130913405Y-85750400D01*
X130554195Y-85750400D01*
X129598387Y-84794592D01*
X129333986Y-84890356D01*
X129193096Y-85179971D01*
X129111416Y-85491508D01*
X129092082Y-85812995D01*
X128618296Y-85812995D01*
X128493228Y-85511053D01*
X128308825Y-85235075D01*
X128112950Y-85039200D01*
X128308825Y-84843325D01*
X128493228Y-84567347D01*
X128617543Y-84267223D01*
X128792653Y-84384228D01*
X129099304Y-84511246D01*
X129424842Y-84576000D01*
X129756758Y-84576000D01*
X129794858Y-84568421D01*
X129777992Y-84614987D01*
X130733800Y-85570795D01*
X131689608Y-84614987D01*
X131593844Y-84350586D01*
X131304229Y-84209696D01*
X130992692Y-84128016D01*
X130751254Y-84113496D01*
X130899625Y-83965125D01*
X131084028Y-83689147D01*
X131211046Y-83382496D01*
X131275800Y-83056958D01*
X131275800Y-82970256D01*
X131311918Y-82981212D01*
X131436400Y-82993472D01*
X133536400Y-82993472D01*
X133660882Y-82981212D01*
X133780580Y-82944902D01*
X133890894Y-82885937D01*
X133987585Y-82806585D01*
X134062870Y-82714850D01*
X134188253Y-82798628D01*
X134494904Y-82925646D01*
X134820442Y-82990400D01*
X135152358Y-82990400D01*
X135477896Y-82925646D01*
X135784547Y-82798628D01*
X136060525Y-82614225D01*
X136295225Y-82379525D01*
X136479628Y-82103547D01*
X136606646Y-81796896D01*
X136671400Y-81471358D01*
X136671400Y-81139442D01*
X136606646Y-80813904D01*
X136479628Y-80507253D01*
X136295225Y-80231275D01*
X136060525Y-79996575D01*
X135784547Y-79812172D01*
X135477896Y-79685154D01*
X135152358Y-79620400D01*
X134820442Y-79620400D01*
X134494904Y-79685154D01*
X134188253Y-79812172D01*
X134062870Y-79895950D01*
X133987585Y-79804215D01*
X133890894Y-79724863D01*
X133780580Y-79665898D01*
X133660882Y-79629588D01*
X133536400Y-79617328D01*
X131436400Y-79617328D01*
X131311918Y-79629588D01*
X131192220Y-79665898D01*
X131134120Y-79696954D01*
X131130869Y-79687473D01*
X131031379Y-79501339D01*
X130761866Y-79399539D01*
X129770405Y-80391000D01*
X130761866Y-81382461D01*
X130798328Y-81368689D01*
X130798328Y-81715578D01*
X130664925Y-81582175D01*
X130476404Y-81456209D01*
X129590800Y-80570605D01*
X129576658Y-80584748D01*
X129397053Y-80405143D01*
X129411195Y-80391000D01*
X128419734Y-79399539D01*
X128150221Y-79501339D01*
X128004337Y-79799477D01*
X127987636Y-79862585D01*
X127798147Y-79735972D01*
X127491496Y-79608954D01*
X127165958Y-79544200D01*
X126834042Y-79544200D01*
X126508504Y-79608954D01*
X126201853Y-79735972D01*
X125925875Y-79920375D01*
X125691175Y-80155075D01*
X125506772Y-80431053D01*
X125379754Y-80737704D01*
X125315000Y-81063242D01*
X121068072Y-81063242D01*
X121068072Y-80179200D01*
X121055812Y-80054718D01*
X121019502Y-79935020D01*
X120960537Y-79824706D01*
X120881185Y-79728015D01*
X120784494Y-79648663D01*
X120674180Y-79589698D01*
X120554482Y-79553388D01*
X120430000Y-79541128D01*
X118330000Y-79541128D01*
X118205518Y-79553388D01*
X118085820Y-79589698D01*
X117975506Y-79648663D01*
X117878815Y-79728015D01*
X117799463Y-79824706D01*
X117740498Y-79935020D01*
X117704188Y-80054718D01*
X117691928Y-80179200D01*
X117691928Y-80551786D01*
X117563663Y-80466082D01*
X117266112Y-80342832D01*
X116950233Y-80280000D01*
X116628167Y-80280000D01*
X116312288Y-80342832D01*
X116014737Y-80466082D01*
X115746948Y-80645013D01*
X115519213Y-80872748D01*
X115340282Y-81140537D01*
X115217032Y-81438088D01*
X115154200Y-81753967D01*
X110804200Y-81753967D01*
X110741368Y-81438088D01*
X110618118Y-81140537D01*
X110439187Y-80872748D01*
X110211452Y-80645013D01*
X109943663Y-80466082D01*
X109646112Y-80342832D01*
X109330233Y-80280000D01*
X109008167Y-80280000D01*
X108692288Y-80342832D01*
X108394737Y-80466082D01*
X108126948Y-80645013D01*
X107899213Y-80872748D01*
X107720282Y-81140537D01*
X107689448Y-81214976D01*
X107665246Y-81093304D01*
X107538228Y-80786653D01*
X107353825Y-80510675D01*
X107119125Y-80275975D01*
X106843147Y-80091572D01*
X106536496Y-79964554D01*
X106210958Y-79899800D01*
X105879042Y-79899800D01*
X105553504Y-79964554D01*
X105246853Y-80091572D01*
X105093042Y-80194346D01*
X105085537Y-80180306D01*
X105006185Y-80083615D01*
X104909494Y-80004263D01*
X104799180Y-79945298D01*
X104679482Y-79908988D01*
X104555000Y-79896728D01*
X103790750Y-79899800D01*
X103632000Y-80058550D01*
X103378000Y-80058550D01*
X103219250Y-79899800D01*
X102455000Y-79896728D01*
X102386200Y-79903504D01*
X102386200Y-79219934D01*
X128599339Y-79219934D01*
X129590800Y-80211395D01*
X130582261Y-79219934D01*
X130480461Y-78950421D01*
X130182323Y-78804537D01*
X129861454Y-78719620D01*
X129530183Y-78698934D01*
X129201243Y-78743272D01*
X128887273Y-78850931D01*
X128701139Y-78950421D01*
X128599339Y-79219934D01*
X102386200Y-79219934D01*
X102386200Y-78383200D01*
X139498000Y-78383200D01*
X139498000Y-79393002D01*
%TA.AperFunction,Conductor*%
D14*
G36*
X139498000Y-79393002D02*
G01*
X139454600Y-79388728D01*
X137354600Y-79388728D01*
X137230118Y-79400988D01*
X137110420Y-79437298D01*
X137000106Y-79496263D01*
X136903415Y-79575615D01*
X136824063Y-79672306D01*
X136765098Y-79782620D01*
X136728788Y-79902318D01*
X136716528Y-80026800D01*
X136716528Y-82126800D01*
X136728788Y-82251282D01*
X136765098Y-82370980D01*
X136824063Y-82481294D01*
X136903415Y-82577985D01*
X137000106Y-82657337D01*
X137110420Y-82716302D01*
X137230118Y-82752612D01*
X137354600Y-82764872D01*
X139454600Y-82764872D01*
X139498000Y-82760598D01*
X139498001Y-84582362D01*
X139396052Y-84480413D01*
X139128263Y-84301482D01*
X138830712Y-84178232D01*
X138514833Y-84115400D01*
X138192767Y-84115400D01*
X137876888Y-84178232D01*
X137579337Y-84301482D01*
X137311548Y-84480413D01*
X137083813Y-84708148D01*
X136904882Y-84975937D01*
X136781632Y-85273488D01*
X136718800Y-85589367D01*
X136718800Y-85911433D01*
X136781632Y-86227312D01*
X136904882Y-86524863D01*
X137083813Y-86792652D01*
X137311548Y-87020387D01*
X137579337Y-87199318D01*
X137876888Y-87322568D01*
X138192767Y-87385400D01*
X138514833Y-87385400D01*
X138830712Y-87322568D01*
X139128263Y-87199318D01*
X139396052Y-87020387D01*
X139498001Y-86918438D01*
X139498001Y-90704600D01*
X102386200Y-90704600D01*
X102386200Y-87875400D01*
X103620328Y-87875400D01*
X103620328Y-89975400D01*
X103632588Y-90099882D01*
X103668898Y-90219580D01*
X103727863Y-90329894D01*
X103807215Y-90426585D01*
X103903906Y-90505937D01*
X104014220Y-90564902D01*
X104133918Y-90601212D01*
X104258400Y-90613472D01*
X106358400Y-90613472D01*
X106482882Y-90601212D01*
X106602580Y-90564902D01*
X106712894Y-90505937D01*
X106809585Y-90426585D01*
X106888937Y-90329894D01*
X106947902Y-90219580D01*
X106984212Y-90099882D01*
X106996472Y-89975400D01*
X106996472Y-88688167D01*
X107559600Y-88688167D01*
X107559600Y-89010233D01*
X107622432Y-89326112D01*
X107745682Y-89623663D01*
X107924613Y-89891452D01*
X108152348Y-90119187D01*
X108420137Y-90298118D01*
X108717688Y-90421368D01*
X109033567Y-90484200D01*
X109355633Y-90484200D01*
X109671512Y-90421368D01*
X109969063Y-90298118D01*
X110236852Y-90119187D01*
X110464587Y-89891452D01*
X110643518Y-89623663D01*
X110766768Y-89326112D01*
X110829600Y-89010233D01*
X110829600Y-88688167D01*
X115179600Y-88688167D01*
X115179600Y-89010233D01*
X115242432Y-89326112D01*
X115365682Y-89623663D01*
X115544613Y-89891452D01*
X115772348Y-90119187D01*
X116040137Y-90298118D01*
X116337688Y-90421368D01*
X116653567Y-90484200D01*
X116975633Y-90484200D01*
X117291512Y-90421368D01*
X117589063Y-90298118D01*
X117856852Y-90119187D01*
X117955773Y-90020266D01*
X118388539Y-90020266D01*
X118490339Y-90289779D01*
X118788477Y-90435663D01*
X119109346Y-90520580D01*
X119440617Y-90541266D01*
X119769557Y-90496928D01*
X120083527Y-90389269D01*
X120269661Y-90289779D01*
X120371461Y-90020266D01*
X119380000Y-89028805D01*
X118388539Y-90020266D01*
X117955773Y-90020266D01*
X118084587Y-89891452D01*
X118136744Y-89813394D01*
X118208934Y-89840661D01*
X119200395Y-88849200D01*
X119559605Y-88849200D01*
X120551066Y-89840661D01*
X120820579Y-89738861D01*
X120966463Y-89440723D01*
X121051380Y-89119854D01*
X121072066Y-88788583D01*
X121027728Y-88459643D01*
X120920069Y-88145673D01*
X120820579Y-87959539D01*
X120551066Y-87857739D01*
X119559605Y-88849200D01*
X119200395Y-88849200D01*
X118208934Y-87857739D01*
X118136744Y-87885006D01*
X118084587Y-87806948D01*
X117856852Y-87579213D01*
X117589063Y-87400282D01*
X117291512Y-87277032D01*
X116975633Y-87214200D01*
X116653567Y-87214200D01*
X116337688Y-87277032D01*
X116040137Y-87400282D01*
X115772348Y-87579213D01*
X115544613Y-87806948D01*
X115365682Y-88074737D01*
X115242432Y-88372288D01*
X115179600Y-88688167D01*
X110829600Y-88688167D01*
X110766768Y-88372288D01*
X110643518Y-88074737D01*
X110464587Y-87806948D01*
X110236852Y-87579213D01*
X109969063Y-87400282D01*
X109671512Y-87277032D01*
X109355633Y-87214200D01*
X109033567Y-87214200D01*
X108717688Y-87277032D01*
X108420137Y-87400282D01*
X108152348Y-87579213D01*
X107924613Y-87806948D01*
X107745682Y-88074737D01*
X107622432Y-88372288D01*
X107559600Y-88688167D01*
X106996472Y-88688167D01*
X106996472Y-87875400D01*
X106984212Y-87750918D01*
X106947902Y-87631220D01*
X106888937Y-87520906D01*
X106809585Y-87424215D01*
X106712894Y-87344863D01*
X106602580Y-87285898D01*
X106482882Y-87249588D01*
X106358400Y-87237328D01*
X104258400Y-87237328D01*
X104133918Y-87249588D01*
X104014220Y-87285898D01*
X103903906Y-87344863D01*
X103807215Y-87424215D01*
X103727863Y-87520906D01*
X103668898Y-87631220D01*
X103632588Y-87750918D01*
X103620328Y-87875400D01*
X102386200Y-87875400D01*
X102386200Y-85865525D01*
X102551775Y-86113325D01*
X102786475Y-86348025D01*
X103062453Y-86532428D01*
X103369104Y-86659446D01*
X103694642Y-86724200D01*
X104026558Y-86724200D01*
X104352096Y-86659446D01*
X104658747Y-86532428D01*
X104934725Y-86348025D01*
X105110600Y-86172150D01*
X105286475Y-86348025D01*
X105562453Y-86532428D01*
X105869104Y-86659446D01*
X106194642Y-86724200D01*
X106526558Y-86724200D01*
X106852096Y-86659446D01*
X107158747Y-86532428D01*
X107434725Y-86348025D01*
X107481137Y-86301613D01*
X108213392Y-86301613D01*
X108309156Y-86566014D01*
X108598771Y-86706904D01*
X108910308Y-86788584D01*
X109231795Y-86807918D01*
X109550875Y-86764161D01*
X109855288Y-86658995D01*
X110029244Y-86566014D01*
X110125008Y-86301613D01*
X109169200Y-85345805D01*
X108213392Y-86301613D01*
X107481137Y-86301613D01*
X107669425Y-86113325D01*
X107750820Y-85991509D01*
X107769386Y-86026244D01*
X108033787Y-86122008D01*
X108989595Y-85166200D01*
X109348805Y-85166200D01*
X110304613Y-86122008D01*
X110569014Y-86026244D01*
X110709904Y-85736629D01*
X110791584Y-85425092D01*
X110810918Y-85103605D01*
X110767161Y-84784525D01*
X110661995Y-84480112D01*
X110569014Y-84306156D01*
X110304613Y-84210392D01*
X109348805Y-85166200D01*
X108989595Y-85166200D01*
X108033787Y-84210392D01*
X107866261Y-84271069D01*
X107853828Y-84241053D01*
X107669425Y-83965075D01*
X107434725Y-83730375D01*
X107158747Y-83545972D01*
X106852096Y-83418954D01*
X106526558Y-83354200D01*
X106194642Y-83354200D01*
X105869104Y-83418954D01*
X105562453Y-83545972D01*
X105286475Y-83730375D01*
X105110600Y-83906250D01*
X104934725Y-83730375D01*
X104658747Y-83545972D01*
X104352096Y-83418954D01*
X104026558Y-83354200D01*
X103694642Y-83354200D01*
X103369104Y-83418954D01*
X103062453Y-83545972D01*
X102786475Y-83730375D01*
X102551775Y-83965075D01*
X102386200Y-84212875D01*
X102386200Y-83266096D01*
X102455000Y-83272872D01*
X103219250Y-83269800D01*
X103378000Y-83111050D01*
X103378000Y-81711800D01*
X103358000Y-81711800D01*
X103358000Y-81457800D01*
X103378000Y-81457800D01*
X103378000Y-80058550D01*
X103632000Y-80058550D01*
X103632000Y-81457800D01*
X103652000Y-81457800D01*
X103652000Y-81711800D01*
X103632000Y-81711800D01*
X103632000Y-83111050D01*
X103790750Y-83269800D01*
X104555000Y-83272872D01*
X104679482Y-83260612D01*
X104799180Y-83224302D01*
X104909494Y-83165337D01*
X105006185Y-83085985D01*
X105085537Y-82989294D01*
X105093042Y-82975254D01*
X105246853Y-83078028D01*
X105553504Y-83205046D01*
X105879042Y-83269800D01*
X106210958Y-83269800D01*
X106536496Y-83205046D01*
X106843147Y-83078028D01*
X107119125Y-82893625D01*
X107353825Y-82658925D01*
X107538228Y-82382947D01*
X107576750Y-82289946D01*
X107597032Y-82391912D01*
X107720282Y-82689463D01*
X107899213Y-82957252D01*
X108126948Y-83184987D01*
X108394737Y-83363918D01*
X108692288Y-83487168D01*
X108972402Y-83542886D01*
X108787525Y-83568239D01*
X108483112Y-83673405D01*
X108309156Y-83766386D01*
X108213392Y-84030787D01*
X109169200Y-84986595D01*
X110125008Y-84030787D01*
X110029244Y-83766386D01*
X109739629Y-83625496D01*
X109428092Y-83543816D01*
X109376823Y-83540733D01*
X109646112Y-83487168D01*
X109943663Y-83363918D01*
X110211452Y-83184987D01*
X110439187Y-82957252D01*
X110618118Y-82689463D01*
X110741368Y-82391912D01*
X110804200Y-82076033D01*
X110804200Y-81753967D01*
X115154200Y-81753967D01*
X115154200Y-82076033D01*
X115217032Y-82391912D01*
X115340282Y-82689463D01*
X115519213Y-82957252D01*
X115746948Y-83184987D01*
X116014737Y-83363918D01*
X116312288Y-83487168D01*
X116580910Y-83540600D01*
X116312288Y-83594032D01*
X116014737Y-83717282D01*
X115746948Y-83896213D01*
X115519213Y-84123948D01*
X115340282Y-84391737D01*
X115217032Y-84689288D01*
X115154200Y-85005167D01*
X115154200Y-85327233D01*
X115217032Y-85643112D01*
X115340282Y-85940663D01*
X115519213Y-86208452D01*
X115746948Y-86436187D01*
X116014737Y-86615118D01*
X116312288Y-86738368D01*
X116628167Y-86801200D01*
X116950233Y-86801200D01*
X117266112Y-86738368D01*
X117563663Y-86615118D01*
X117704166Y-86521237D01*
X117759754Y-86800696D01*
X117886772Y-87107347D01*
X118071175Y-87383325D01*
X118305875Y-87618025D01*
X118390009Y-87674242D01*
X118388539Y-87678134D01*
X119380000Y-88669595D01*
X120371461Y-87678134D01*
X120369991Y-87674242D01*
X120454125Y-87618025D01*
X120688825Y-87383325D01*
X120873228Y-87107347D01*
X121000246Y-86800696D01*
X121065000Y-86475158D01*
X121065000Y-86143242D01*
X121000246Y-85817704D01*
X120873228Y-85511053D01*
X120688825Y-85235075D01*
X120492950Y-85039200D01*
X120688825Y-84843325D01*
X120873228Y-84567347D01*
X121000246Y-84260696D01*
X121065000Y-83935158D01*
X121065000Y-83603242D01*
X121000246Y-83277704D01*
X120873228Y-82971053D01*
X120770454Y-82817242D01*
X120784494Y-82809737D01*
X120881185Y-82730385D01*
X120960537Y-82633694D01*
X121019502Y-82523380D01*
X121055812Y-82403682D01*
X121068072Y-82279200D01*
X121068072Y-81063242D01*
X125315000Y-81063242D01*
X125315000Y-81395158D01*
X125379754Y-81720696D01*
X125506772Y-82027347D01*
X125691175Y-82303325D01*
X125887050Y-82499200D01*
X125691175Y-82695075D01*
X125506772Y-82971053D01*
X125379754Y-83277704D01*
X125315000Y-83603242D01*
X125315000Y-83935158D01*
X125379754Y-84260696D01*
X125506772Y-84567347D01*
X125691175Y-84843325D01*
X125887050Y-85039200D01*
X125691175Y-85235075D01*
X125506772Y-85511053D01*
X125379754Y-85817704D01*
X125315000Y-86143242D01*
X125315000Y-86475158D01*
X125379754Y-86800696D01*
X125506772Y-87107347D01*
X125691175Y-87383325D01*
X125887050Y-87579200D01*
X125691175Y-87775075D01*
X125506772Y-88051053D01*
X125379754Y-88357704D01*
X125315000Y-88683242D01*
X125315000Y-89015158D01*
X125379754Y-89340696D01*
X125506772Y-89647347D01*
X125691175Y-89923325D01*
X125925875Y-90158025D01*
X126201853Y-90342428D01*
X126508504Y-90469446D01*
X126834042Y-90534200D01*
X127165958Y-90534200D01*
X127491496Y-90469446D01*
X127798147Y-90342428D01*
X128074125Y-90158025D01*
X128308825Y-89923325D01*
X128380482Y-89816084D01*
X128447813Y-89916852D01*
X128675548Y-90144587D01*
X128943337Y-90323518D01*
X129240888Y-90446768D01*
X129556767Y-90509600D01*
X129878833Y-90509600D01*
X130194712Y-90446768D01*
X130492263Y-90323518D01*
X130760052Y-90144587D01*
X130987787Y-89916852D01*
X131166718Y-89649063D01*
X131289968Y-89351512D01*
X131352800Y-89035633D01*
X131352800Y-88713567D01*
X135702800Y-88713567D01*
X135702800Y-89035633D01*
X135765632Y-89351512D01*
X135888882Y-89649063D01*
X136067813Y-89916852D01*
X136295548Y-90144587D01*
X136563337Y-90323518D01*
X136860888Y-90446768D01*
X137176767Y-90509600D01*
X137498833Y-90509600D01*
X137814712Y-90446768D01*
X138112263Y-90323518D01*
X138380052Y-90144587D01*
X138607787Y-89916852D01*
X138786718Y-89649063D01*
X138909968Y-89351512D01*
X138972800Y-89035633D01*
X138972800Y-88713567D01*
X138909968Y-88397688D01*
X138786718Y-88100137D01*
X138607787Y-87832348D01*
X138380052Y-87604613D01*
X138112263Y-87425682D01*
X137814712Y-87302432D01*
X137498833Y-87239600D01*
X137176767Y-87239600D01*
X136860888Y-87302432D01*
X136563337Y-87425682D01*
X136295548Y-87604613D01*
X136067813Y-87832348D01*
X135888882Y-88100137D01*
X135765632Y-88397688D01*
X135702800Y-88713567D01*
X131352800Y-88713567D01*
X131289968Y-88397688D01*
X131166718Y-88100137D01*
X130987787Y-87832348D01*
X130760052Y-87604613D01*
X130492263Y-87425682D01*
X130194712Y-87302432D01*
X129878833Y-87239600D01*
X129556767Y-87239600D01*
X129240888Y-87302432D01*
X128943337Y-87425682D01*
X128675548Y-87604613D01*
X128447813Y-87832348D01*
X128397453Y-87907716D01*
X128308825Y-87775075D01*
X128112950Y-87579200D01*
X128308825Y-87383325D01*
X128493228Y-87107347D01*
X128584989Y-86885813D01*
X129777992Y-86885813D01*
X129873756Y-87150214D01*
X130163371Y-87291104D01*
X130474908Y-87372784D01*
X130796395Y-87392118D01*
X131115475Y-87348361D01*
X131419888Y-87243195D01*
X131593844Y-87150214D01*
X131689608Y-86885813D01*
X130733800Y-85930005D01*
X129777992Y-86885813D01*
X128584989Y-86885813D01*
X128620246Y-86800696D01*
X128685000Y-86475158D01*
X128685000Y-86143242D01*
X128620246Y-85817704D01*
X128618296Y-85812995D01*
X129092082Y-85812995D01*
X129135839Y-86132075D01*
X129241005Y-86436488D01*
X129333986Y-86610444D01*
X129598387Y-86706208D01*
X130554195Y-85750400D01*
X130913405Y-85750400D01*
X131869213Y-86706208D01*
X132133614Y-86610444D01*
X132274504Y-86320829D01*
X132356184Y-86009292D01*
X132375518Y-85687805D01*
X132331761Y-85368725D01*
X132226595Y-85064312D01*
X132133614Y-84890356D01*
X131869213Y-84794592D01*
X130913405Y-85750400D01*
X130554195Y-85750400D01*
X129598387Y-84794592D01*
X129333986Y-84890356D01*
X129193096Y-85179971D01*
X129111416Y-85491508D01*
X129092082Y-85812995D01*
X128618296Y-85812995D01*
X128493228Y-85511053D01*
X128308825Y-85235075D01*
X128112950Y-85039200D01*
X128308825Y-84843325D01*
X128493228Y-84567347D01*
X128617543Y-84267223D01*
X128792653Y-84384228D01*
X129099304Y-84511246D01*
X129424842Y-84576000D01*
X129756758Y-84576000D01*
X129794858Y-84568421D01*
X129777992Y-84614987D01*
X130733800Y-85570795D01*
X131689608Y-84614987D01*
X131593844Y-84350586D01*
X131304229Y-84209696D01*
X130992692Y-84128016D01*
X130751254Y-84113496D01*
X130899625Y-83965125D01*
X131084028Y-83689147D01*
X131211046Y-83382496D01*
X131275800Y-83056958D01*
X131275800Y-82970256D01*
X131311918Y-82981212D01*
X131436400Y-82993472D01*
X133536400Y-82993472D01*
X133660882Y-82981212D01*
X133780580Y-82944902D01*
X133890894Y-82885937D01*
X133987585Y-82806585D01*
X134062870Y-82714850D01*
X134188253Y-82798628D01*
X134494904Y-82925646D01*
X134820442Y-82990400D01*
X135152358Y-82990400D01*
X135477896Y-82925646D01*
X135784547Y-82798628D01*
X136060525Y-82614225D01*
X136295225Y-82379525D01*
X136479628Y-82103547D01*
X136606646Y-81796896D01*
X136671400Y-81471358D01*
X136671400Y-81139442D01*
X136606646Y-80813904D01*
X136479628Y-80507253D01*
X136295225Y-80231275D01*
X136060525Y-79996575D01*
X135784547Y-79812172D01*
X135477896Y-79685154D01*
X135152358Y-79620400D01*
X134820442Y-79620400D01*
X134494904Y-79685154D01*
X134188253Y-79812172D01*
X134062870Y-79895950D01*
X133987585Y-79804215D01*
X133890894Y-79724863D01*
X133780580Y-79665898D01*
X133660882Y-79629588D01*
X133536400Y-79617328D01*
X131436400Y-79617328D01*
X131311918Y-79629588D01*
X131192220Y-79665898D01*
X131134120Y-79696954D01*
X131130869Y-79687473D01*
X131031379Y-79501339D01*
X130761866Y-79399539D01*
X129770405Y-80391000D01*
X130761866Y-81382461D01*
X130798328Y-81368689D01*
X130798328Y-81715578D01*
X130664925Y-81582175D01*
X130476404Y-81456209D01*
X129590800Y-80570605D01*
X129576658Y-80584748D01*
X129397053Y-80405143D01*
X129411195Y-80391000D01*
X128419734Y-79399539D01*
X128150221Y-79501339D01*
X128004337Y-79799477D01*
X127987636Y-79862585D01*
X127798147Y-79735972D01*
X127491496Y-79608954D01*
X127165958Y-79544200D01*
X126834042Y-79544200D01*
X126508504Y-79608954D01*
X126201853Y-79735972D01*
X125925875Y-79920375D01*
X125691175Y-80155075D01*
X125506772Y-80431053D01*
X125379754Y-80737704D01*
X125315000Y-81063242D01*
X121068072Y-81063242D01*
X121068072Y-80179200D01*
X121055812Y-80054718D01*
X121019502Y-79935020D01*
X120960537Y-79824706D01*
X120881185Y-79728015D01*
X120784494Y-79648663D01*
X120674180Y-79589698D01*
X120554482Y-79553388D01*
X120430000Y-79541128D01*
X118330000Y-79541128D01*
X118205518Y-79553388D01*
X118085820Y-79589698D01*
X117975506Y-79648663D01*
X117878815Y-79728015D01*
X117799463Y-79824706D01*
X117740498Y-79935020D01*
X117704188Y-80054718D01*
X117691928Y-80179200D01*
X117691928Y-80551786D01*
X117563663Y-80466082D01*
X117266112Y-80342832D01*
X116950233Y-80280000D01*
X116628167Y-80280000D01*
X116312288Y-80342832D01*
X116014737Y-80466082D01*
X115746948Y-80645013D01*
X115519213Y-80872748D01*
X115340282Y-81140537D01*
X115217032Y-81438088D01*
X115154200Y-81753967D01*
X110804200Y-81753967D01*
X110741368Y-81438088D01*
X110618118Y-81140537D01*
X110439187Y-80872748D01*
X110211452Y-80645013D01*
X109943663Y-80466082D01*
X109646112Y-80342832D01*
X109330233Y-80280000D01*
X109008167Y-80280000D01*
X108692288Y-80342832D01*
X108394737Y-80466082D01*
X108126948Y-80645013D01*
X107899213Y-80872748D01*
X107720282Y-81140537D01*
X107689448Y-81214976D01*
X107665246Y-81093304D01*
X107538228Y-80786653D01*
X107353825Y-80510675D01*
X107119125Y-80275975D01*
X106843147Y-80091572D01*
X106536496Y-79964554D01*
X106210958Y-79899800D01*
X105879042Y-79899800D01*
X105553504Y-79964554D01*
X105246853Y-80091572D01*
X105093042Y-80194346D01*
X105085537Y-80180306D01*
X105006185Y-80083615D01*
X104909494Y-80004263D01*
X104799180Y-79945298D01*
X104679482Y-79908988D01*
X104555000Y-79896728D01*
X103790750Y-79899800D01*
X103632000Y-80058550D01*
X103378000Y-80058550D01*
X103219250Y-79899800D01*
X102455000Y-79896728D01*
X102386200Y-79903504D01*
X102386200Y-79219934D01*
X128599339Y-79219934D01*
X129590800Y-80211395D01*
X130582261Y-79219934D01*
X130480461Y-78950421D01*
X130182323Y-78804537D01*
X129861454Y-78719620D01*
X129530183Y-78698934D01*
X129201243Y-78743272D01*
X128887273Y-78850931D01*
X128701139Y-78950421D01*
X128599339Y-79219934D01*
X102386200Y-79219934D01*
X102386200Y-78383200D01*
X139498000Y-78383200D01*
X139498000Y-79393002D01*
G37*
%TD.AperFunction*%
%TD*%
M02*
