EESchema Schematic File Version 4
EELAYER 30 0
EELAYER END
$Descr A4 11693 8268
encoding utf-8
Sheet 1 1
Title "Jerry Garcia Tiger Buffer (?)"
Date "2021-04-05"
Rev "1"
Comp "gratefulfrog.org"
Comment1 "addeed 4PDT et al"
Comment2 ""
Comment3 ""
Comment4 ""
$EndDescr
$Comp
L Device:R R1
U 1 1 602A6A89
P 4710 2010
F 0 "R1" V 4500 2010 50  0000 C CNN
F 1 "100K" V 4593 2010 50  0000 C CNN
F 2 "misc:Resistor_Horizontal_RM7mm_Big_Pads" V 4640 2010 50  0001 C CNN
F 3 "~" H 4710 2010 50  0001 C CNN
	1    4710 2010
	0    1    1    0   
$EndComp
$Comp
L Device:R R5
U 1 1 602A6C4C
P 6480 2270
F 0 "R5" H 6410 2223 50  0000 R CNN
F 1 "10K" H 6410 2316 50  0000 R CNN
F 2 "misc:Resistor_Horizontal_RM7mm_Big_Pads" V 6410 2270 50  0001 C CNN
F 3 "~" H 6480 2270 50  0001 C CNN
	1    6480 2270
	-1   0    0    1   
$EndComp
$Comp
L Device:R R4
U 1 1 602A6F8B
P 6030 2120
F 0 "R4" H 6100 2167 50  0000 L CNN
F 1 "100R" H 6100 2074 50  0000 L CNN
F 2 "misc:Resistor_Horizontal_RM7mm_Big_Pads" V 5960 2120 50  0001 C CNN
F 3 "~" H 6030 2120 50  0001 C CNN
	1    6030 2120
	0    -1   -1   0   
$EndComp
$Comp
L Device:R R3
U 1 1 602A760D
P 4860 2160
F 0 "R3" H 4930 2207 50  0000 L CNN
F 1 "1M" H 4930 2114 50  0000 L CNN
F 2 "misc:Resistor_Horizontal_RM7mm_Big_Pads" V 4790 2160 50  0001 C CNN
F 3 "~" H 4860 2160 50  0001 C CNN
	1    4860 2160
	1    0    0    -1  
$EndComp
$Comp
L Device:R R2
U 1 1 602A7A41
P 4860 1860
F 0 "R2" H 4930 1907 50  0000 L CNN
F 1 "1M" H 4930 1814 50  0000 L CNN
F 2 "misc:Resistor_Horizontal_RM7mm_Big_Pads" V 4790 1860 50  0001 C CNN
F 3 "~" H 4860 1860 50  0001 C CNN
	1    4860 1860
	1    0    0    -1  
$EndComp
$Comp
L Device:C C1
U 1 1 602A814B
P 4410 2010
F 0 "C1" V 4155 2010 50  0000 C CNN
F 1 "22nF" V 4248 2010 50  0000 C CNN
F 2 "misc:C_Disc_D3.0mm_W1.6mm_P2.50mm_big_pads" H 4448 1860 50  0001 C CNN
F 3 "~" H 4410 2010 50  0001 C CNN
	1    4410 2010
	0    1    1    0   
$EndComp
$Comp
L Device:C C3
U 1 1 602A854D
P 5630 1650
F 0 "C3" V 5375 1650 50  0000 C CNN
F 1 "22nF" V 5500 1760 50  0000 C CNN
F 2 "misc:C_Disc_D3.0mm_W1.6mm_P2.50mm_big_pads" H 5668 1500 50  0001 C CNN
F 3 "~" H 5630 1650 50  0001 C CNN
	1    5630 1650
	0    1    1    0   
$EndComp
$Comp
L Device:CP1 C2
U 1 1 602A8AFB
P 6330 2120
F 0 "C2" H 6445 2167 50  0000 L CNN
F 1 "2.2µF" H 6445 2074 50  0000 L CNN
F 2 "misc:CP_Radial_D5.0mm_P2.50mm_big_pads" H 6330 2120 50  0001 C CNN
F 3 "~" H 6330 2120 50  0001 C CNN
	1    6330 2120
	0    -1   -1   0   
$EndComp
$Comp
L linear2:LF356N IC1
U 1 1 602A9F1C
P 5580 2120
F 0 "IC1" H 6120 1810 50  0000 L CNN
F 1 "LF356N" H 6050 1740 50  0000 L CNN
F 2 "misc:DIP-8_W7.62mm_big_pads" H 5580 2270 50  0001 C CNN
F 3 "" H 5580 2120 50  0001 C CNN
	1    5580 2120
	1    0    0    -1  
$EndComp
NoConn ~ 5580 2420
NoConn ~ 5880 2020
NoConn ~ 5580 1820
Wire Wire Line
	5280 2020 4860 2020
Wire Wire Line
	4860 2020 4860 2010
Connection ~ 4860 2010
Wire Wire Line
	5880 2120 5880 2560
Wire Wire Line
	5880 2560 5280 2560
Wire Wire Line
	5280 2560 5280 2220
Text Label 4260 2010 3    50   ~ 0
Input_Signal
Text Label 6480 2120 1    50   ~ 0
Output_Signal
Connection ~ 5880 2120
Wire Wire Line
	5480 1650 5480 1820
$Comp
L power:GND #PWR0101
U 1 1 6030F457
P 6120 2970
F 0 "#PWR0101" H 6120 2720 50  0001 C CNN
F 1 "GND" H 6125 2794 50  0000 C CNN
F 2 "" H 6120 2970 50  0001 C CNN
F 3 "" H 6120 2970 50  0001 C CNN
	1    6120 2970
	1    0    0    -1  
$EndComp
$Comp
L power:PWR_FLAG #FLG0102
U 1 1 60313221
P 2900 4120
F 0 "#FLG0102" H 2900 4195 50  0001 C CNN
F 1 "PWR_FLAG" V 2900 4249 50  0000 L CNN
F 2 "" H 2900 4120 50  0001 C CNN
F 3 "~" H 2900 4120 50  0001 C CNN
	1    2900 4120
	-1   0    0    1   
$EndComp
$Comp
L Connector:Conn_01x01_Male J1
U 1 1 60314253
P 4060 2010
F 0 "J1" H 4169 2196 50  0000 C CNN
F 1 "INPUT Signal Port" H 4169 2103 50  0000 C CNN
F 2 "misc:PinHeader_1x01_P1.00mm_Vertical_big_pads" H 4060 2010 50  0001 C CNN
F 3 "~" H 4060 2010 50  0001 C CNN
	1    4060 2010
	1    0    0    -1  
$EndComp
$Comp
L Connector:Conn_01x01_Male J3
U 1 1 6031BFDA
P 6680 2120
F 0 "J3" H 6652 2051 50  0000 R CNN
F 1 "OUTPUT Signal Port" H 6652 2144 50  0000 R CNN
F 2 "misc:PinHeader_1x01_P1.00mm_Vertical_big_pads" H 6680 2120 50  0001 C CNN
F 3 "~" H 6680 2120 50  0001 C CNN
	1    6680 2120
	-1   0    0    1   
$EndComp
Connection ~ 6480 2120
$Comp
L Connector_Generic:Conn_02x01 J2
U 1 1 60320311
P 6320 2970
F 0 "J2" H 6370 3190 50  0000 C CNN
F 1 "Battery Connector" H 6370 3097 50  0000 C CNN
F 2 "misc:PinHeader_1x02_P2.54mm_Vertical_big_pads" H 6320 2970 50  0001 C CNN
F 3 "~" H 6320 2970 50  0001 C CNN
	1    6320 2970
	1    0    0    -1  
$EndComp
$Comp
L power:PWR_FLAG #FLG0101
U 1 1 6030C086
P 2880 3920
F 0 "#FLG0101" H 2880 3995 50  0001 C CNN
F 1 "PWR_FLAG" V 2880 4050 50  0000 L CNN
F 2 "" H 2880 3920 50  0001 C CNN
F 3 "~" H 2880 3920 50  0001 C CNN
	1    2880 3920
	1    0    0    -1  
$EndComp
$Comp
L Switch_Bob:4PDT SW1
U 1 1 606A0D33
P 3960 3050
F 0 "SW1" H 3960 3540 50  0000 C CNN
F 1 "4PDT" H 3960 3447 50  0000 C CNN
F 2 "misc:4PDT_Slide_Switch_ON-ON" H 3960 3050 50  0001 C CNN
F 3 "" H 3960 3050 50  0001 C CNN
	1    3960 3050
	1    0    0    -1  
$EndComp
Text Label 4160 3800 0    50   ~ 0
Jack+
Text Label 3760 3700 2    50   ~ 0
GuitarOut+
Text Label 3760 2850 2    50   ~ 0
Output_Signal
Text Label 4160 2950 0    50   ~ 0
Jack+
NoConn ~ 4160 4200
NoConn ~ 4160 3150
NoConn ~ 4160 2750
Text Label 4160 3600 0    50   ~ 0
Input_Signal
Text Label 4160 3350 0    50   ~ 0
Vcc
$Comp
L power:+9V #PWR0103
U 1 1 606B8121
P 3760 3250
F 0 "#PWR0103" H 3760 3100 50  0001 C CNN
F 1 "+9V" H 3775 3426 50  0000 C CNN
F 2 "" H 3760 3250 50  0001 C CNN
F 3 "" H 3760 3250 50  0001 C CNN
	1    3760 3250
	0    -1   -1   0   
$EndComp
$Comp
L power:GND #PWR0104
U 1 1 606B9C3E
P 4160 4000
F 0 "#PWR0104" H 4160 3750 50  0001 C CNN
F 1 "GND" H 4165 3824 50  0000 C CNN
F 2 "" H 4160 4000 50  0001 C CNN
F 3 "" H 4160 4000 50  0001 C CNN
	1    4160 4000
	0    -1   -1   0   
$EndComp
Text Label 4860 1710 1    50   ~ 0
Vcc
Text Label 5480 1650 1    50   ~ 0
Vcc
$Comp
L power:GND #PWR0105
U 1 1 606D1917
P 4860 2310
F 0 "#PWR0105" H 4860 2060 50  0001 C CNN
F 1 "GND" H 4865 2134 50  0000 C CNN
F 2 "" H 4860 2310 50  0001 C CNN
F 3 "" H 4860 2310 50  0001 C CNN
	1    4860 2310
	1    0    0    -1  
$EndComp
$Comp
L power:GND #PWR0106
U 1 1 606D287E
P 5480 2420
F 0 "#PWR0106" H 5480 2170 50  0001 C CNN
F 1 "GND" H 5485 2244 50  0000 C CNN
F 2 "" H 5480 2420 50  0001 C CNN
F 3 "" H 5480 2420 50  0001 C CNN
	1    5480 2420
	1    0    0    -1  
$EndComp
$Comp
L power:GND #PWR0107
U 1 1 606D3D05
P 6480 2420
F 0 "#PWR0107" H 6480 2170 50  0001 C CNN
F 1 "GND" H 6485 2244 50  0000 C CNN
F 2 "" H 6480 2420 50  0001 C CNN
F 3 "" H 6480 2420 50  0001 C CNN
	1    6480 2420
	1    0    0    -1  
$EndComp
$Comp
L power:GND #PWR0108
U 1 1 606D4C4B
P 5780 1650
F 0 "#PWR0108" H 5780 1400 50  0001 C CNN
F 1 "GND" H 5785 1474 50  0000 C CNN
F 2 "" H 5780 1650 50  0001 C CNN
F 3 "" H 5780 1650 50  0001 C CNN
	1    5780 1650
	0    -1   -1   0   
$EndComp
Text Label 3760 4100 2    50   ~ 0
GuitarGND
$Comp
L power:+9V #PWR01
U 1 1 606DD5DC
P 2880 3920
F 0 "#PWR01" H 2880 3770 50  0001 C CNN
F 1 "+9V" V 2895 4096 50  0000 C CNN
F 2 "" H 2880 3920 50  0001 C CNN
F 3 "" H 2880 3920 50  0001 C CNN
	1    2880 3920
	0    1    1    0   
$EndComp
$Comp
L power:GND #PWR02
U 1 1 606DEBFD
P 2900 4120
F 0 "#PWR02" H 2900 3870 50  0001 C CNN
F 1 "GND" V 2905 3944 50  0000 C CNN
F 2 "" H 2900 4120 50  0001 C CNN
F 3 "" H 2900 4120 50  0001 C CNN
	1    2900 4120
	0    -1   -1   0   
$EndComp
Text Label 2930 4620 0    50   ~ 0
GuitarGND
Text Label 2910 4420 0    50   ~ 0
GuitarOut+
Text Label 2930 4890 0    50   ~ 0
Jack+
Text Label 2960 5390 0    50   ~ 0
Input_Signal
Text Label 2980 5590 0    50   ~ 0
Output_Signal
$Comp
L Device:LED D1
U 1 1 606EE4DF
P 5370 3920
F 0 "D1" H 5363 4140 50  0000 C CNN
F 1 "LED" H 5363 4047 50  0000 C CNN
F 2 "misc:LED_D1.8mm_W3.3mm_H2.4mm_big_pads" H 5370 3920 50  0001 C CNN
F 3 "~" H 5370 3920 50  0001 C CNN
	1    5370 3920
	1    0    0    -1  
$EndComp
$Comp
L Device:LED D2
U 1 1 606EEA15
P 5400 4220
F 0 "D2" H 5393 4440 50  0000 C CNN
F 1 "LED" H 5393 4347 50  0000 C CNN
F 2 "misc:LED_D1.8mm_W3.3mm_H2.4mm_big_pads" H 5400 4220 50  0001 C CNN
F 3 "~" H 5400 4220 50  0001 C CNN
	1    5400 4220
	1    0    0    -1  
$EndComp
$Comp
L Device:R R6
U 1 1 606EF44D
P 5070 3920
F 0 "R6" V 4860 3920 50  0000 C CNN
F 1 "1K" V 4953 3920 50  0000 C CNN
F 2 "misc:Resistor_Horizontal_RM7mm_Big_Pads" V 5000 3920 50  0001 C CNN
F 3 "~" H 5070 3920 50  0001 C CNN
	1    5070 3920
	0    1    1    0   
$EndComp
$Comp
L Device:R R7
U 1 1 606F06FA
P 5100 4220
F 0 "R7" V 4890 4220 50  0000 C CNN
F 1 "1K" V 4983 4220 50  0000 C CNN
F 2 "misc:Resistor_Horizontal_RM7mm_Big_Pads" V 5030 4220 50  0001 C CNN
F 3 "~" H 5100 4220 50  0001 C CNN
	1    5100 4220
	0    1    1    0   
$EndComp
$Comp
L power:GND #PWR04
U 1 1 606F1133
P 4950 4220
F 0 "#PWR04" H 4950 3970 50  0001 C CNN
F 1 "GND" H 4955 4044 50  0000 C CNN
F 2 "" H 4950 4220 50  0001 C CNN
F 3 "" H 4950 4220 50  0001 C CNN
	1    4950 4220
	0    1    1    0   
$EndComp
$Comp
L power:GND #PWR03
U 1 1 606F1D25
P 4920 3920
F 0 "#PWR03" H 4920 3670 50  0001 C CNN
F 1 "GND" H 4925 3744 50  0000 C CNN
F 2 "" H 4920 3920 50  0001 C CNN
F 3 "" H 4920 3920 50  0001 C CNN
	1    4920 3920
	0    1    1    0   
$EndComp
Text Label 5520 3920 0    50   ~ 0
Vcc
Text Label 5550 4220 0    50   ~ 0
Vcc
Text Label 2950 5090 0    50   ~ 0
Vcc
$Comp
L Connector:Conn_01x01_Male J4
U 1 1 6075097A
P 2680 3920
F 0 "J4" H 2789 4106 50  0000 C CNN
F 1 "Conn_01x01_Male" H 2340 3970 50  0000 C CNN
F 2 "misc:PinHeader_1x01_P1.00mm_Vertical_big_pads" H 2680 3920 50  0001 C CNN
F 3 "~" H 2680 3920 50  0001 C CNN
	1    2680 3920
	1    0    0    -1  
$EndComp
$Comp
L Connector:Conn_01x01_Male J5
U 1 1 607511B3
P 2700 4120
F 0 "J5" H 2809 4306 50  0000 C CNN
F 1 "Conn_01x01_Male" H 2360 4190 50  0000 C CNN
F 2 "misc:PinHeader_1x01_P1.00mm_Vertical_big_pads" H 2700 4120 50  0001 C CNN
F 3 "~" H 2700 4120 50  0001 C CNN
	1    2700 4120
	1    0    0    -1  
$EndComp
$Comp
L Connector:Conn_01x01_Male J6
U 1 1 6075E353
P 2710 4420
F 0 "J6" H 2819 4606 50  0000 C CNN
F 1 "Conn_01x01_Male" H 2370 4500 50  0000 C CNN
F 2 "misc:PinHeader_1x01_P1.00mm_Vertical_big_pads" H 2710 4420 50  0001 C CNN
F 3 "~" H 2710 4420 50  0001 C CNN
	1    2710 4420
	1    0    0    -1  
$EndComp
$Comp
L Connector:Conn_01x01_Male J7
U 1 1 6075E359
P 2730 4620
F 0 "J7" H 2839 4806 50  0000 C CNN
F 1 "Conn_01x01_Male" H 2390 4700 50  0000 C CNN
F 2 "misc:PinHeader_1x01_P1.00mm_Vertical_big_pads" H 2730 4620 50  0001 C CNN
F 3 "~" H 2730 4620 50  0001 C CNN
	1    2730 4620
	1    0    0    -1  
$EndComp
$Comp
L Connector:Conn_01x01_Male J8
U 1 1 607695D1
P 2730 4890
F 0 "J8" H 2839 5076 50  0000 C CNN
F 1 "Conn_01x01_Male" H 2420 4990 50  0000 C CNN
F 2 "misc:PinHeader_1x01_P1.00mm_Vertical_big_pads" H 2730 4890 50  0001 C CNN
F 3 "~" H 2730 4890 50  0001 C CNN
	1    2730 4890
	1    0    0    -1  
$EndComp
$Comp
L Connector:Conn_01x01_Male J9
U 1 1 607695D7
P 2750 5090
F 0 "J9" H 2859 5276 50  0000 C CNN
F 1 "Conn_01x01_Male" H 2430 5170 50  0000 C CNN
F 2 "misc:PinHeader_1x01_P1.00mm_Vertical_big_pads" H 2750 5090 50  0001 C CNN
F 3 "~" H 2750 5090 50  0001 C CNN
	1    2750 5090
	1    0    0    -1  
$EndComp
$Comp
L Connector:Conn_01x01_Male J10
U 1 1 607695DD
P 2760 5390
F 0 "J10" H 2869 5576 50  0000 C CNN
F 1 "Conn_01x01_Male" H 2470 5470 50  0000 C CNN
F 2 "misc:PinHeader_1x01_P1.00mm_Vertical_big_pads" H 2760 5390 50  0001 C CNN
F 3 "~" H 2760 5390 50  0001 C CNN
	1    2760 5390
	1    0    0    -1  
$EndComp
$Comp
L Connector:Conn_01x01_Male J11
U 1 1 607695E3
P 2780 5590
F 0 "J11" H 2889 5776 50  0000 C CNN
F 1 "Conn_01x01_Male" H 2470 5680 50  0000 C CNN
F 2 "misc:PinHeader_1x01_P1.00mm_Vertical_big_pads" H 2780 5590 50  0001 C CNN
F 3 "~" H 2780 5590 50  0001 C CNN
	1    2780 5590
	1    0    0    -1  
$EndComp
Connection ~ 2900 4120
Connection ~ 2880 3920
Text Label 6620 2970 0    50   ~ 0
Vcc
$EndSCHEMATC
