M48
; DRILL file {KiCad 5.1.9-73d0e3b20d~88~ubuntu18.04.1} date Sun Feb 14 15:58:35 2021
; FORMAT={3:3/ absolute / metric / suppress leading zeros}
; #@! TF.CreationDate,2021-02-14T15:58:35+01:00
; #@! TF.GenerationSoftware,Kicad,Pcbnew,5.1.9-73d0e3b20d~88~ubuntu18.04.1
; #@! TF.FileFunction,Plated,1,2,PTH
FMAT,2
METRIC,TZ
T1C0.700
T2C0.800
T3C1.000
%
G90
G05
T1
X107518Y-116230
X107518Y-123850
X110744Y-116307
X110744Y-123927
T2
X108447Y-127330
X110947Y-127330
X113894Y-119634
X113894Y-122174
X113894Y-124714
X113894Y-127254
X121514Y-119634
X121514Y-122174
X121514Y-124714
X121514Y-127254
X124104Y-119507
X124511Y-125501
X126604Y-119507
X127011Y-125501
T3
X102387Y-116256
X102387Y-127330
X118618Y-116180
X121158Y-116180
X131039Y-127127
T0
M30
