%TF.GenerationSoftware,KiCad,Pcbnew,5.1.9-73d0e3b20d~88~ubuntu18.04.1*%
%TF.CreationDate,2021-02-14T16:14:19+01:00*%
%TF.ProjectId,Cazorlita,43617a6f-726c-4697-9461-2e6b69636164,0*%
%TF.SameCoordinates,Original*%
%TF.FileFunction,Soldermask,Bot*%
%TF.FilePolarity,Negative*%
%FSLAX46Y46*%
G04 Gerber Fmt 4.6, Leading zero omitted, Abs format (unit mm)*
G04 Created by KiCad (PCBNEW 5.1.9-73d0e3b20d~88~ubuntu18.04.1) date 2021-02-14 16:14:19*
%MOMM*%
%LPD*%
G01*
G04 APERTURE LIST*
%ADD10C,2.100000*%
%ADD11R,2.100000X2.100000*%
%ADD12C,3.200000*%
%ADD13C,2.000000*%
G04 APERTURE END LIST*
D10*
%TO.C,C1*%
X108447200Y-127330200D03*
X110947200Y-127330200D03*
%TD*%
%TO.C,C2*%
X124104400Y-119507000D03*
X126604400Y-119507000D03*
%TD*%
D11*
%TO.C,C3*%
X124510800Y-125501400D03*
D10*
X127010800Y-125501400D03*
%TD*%
D12*
%TO.C,H1*%
X102311200Y-121615200D03*
%TD*%
%TO.C,H4*%
X131089400Y-121513600D03*
%TD*%
D11*
%TO.C,J1*%
X102387400Y-127330200D03*
%TD*%
%TO.C,J2*%
X102387400Y-116255800D03*
%TD*%
%TO.C,J4*%
X131038600Y-127127000D03*
%TD*%
D13*
%TO.C,R1*%
X110744000Y-116306600D03*
X110744000Y-123926600D03*
%TD*%
%TO.C,R2*%
X107518200Y-116230400D03*
X107518200Y-123850400D03*
%TD*%
D11*
%TO.C,J3*%
X118618000Y-116179600D03*
D10*
X121158000Y-116179600D03*
%TD*%
D11*
%TO.C,IC1*%
X113893600Y-119634000D03*
D10*
X121513600Y-127254000D03*
X113893600Y-122174000D03*
X121513600Y-124714000D03*
X113893600Y-124714000D03*
X121513600Y-122174000D03*
X113893600Y-127254000D03*
X121513600Y-119634000D03*
%TD*%
M02*
