(export (version D)
  (design
    (source "/home/bob/Desktop/temp/Seb Cazorla/CazorlitaBuffer/Cazorlita/Cazorlita.sch")
    (date "Sun 14 Feb 2021 03:39:00 PM CET")
    (tool "Eeschema 5.1.9-73d0e3b20d~88~ubuntu18.04.1")
    (sheet (number 1) (name /) (tstamps /)
      (title_block
        (title "Cazorlita Schematic")
        (company)
        (rev 0)
        (date 2021-02-14)
        (source Cazorlita.sch)
        (comment (number 1) (value ""))
        (comment (number 2) (value ""))
        (comment (number 3) (value ""))
        (comment (number 4) (value "")))))
  (components
    (comp (ref R2)
      (value 1M)
      (footprint misc:Resistor_Horizontal_RM7mm_Big_Pads)
      (datasheet ~)
      (libsource (lib Device) (part R) (description Resistor))
      (sheetpath (names /) (tstamps /))
      (tstamp 602940FC))
    (comp (ref R1)
      (value 1M)
      (footprint misc:Resistor_Horizontal_RM7mm_Big_Pads)
      (datasheet ~)
      (libsource (lib Device) (part R) (description Resistor))
      (sheetpath (names /) (tstamps /))
      (tstamp 6029437D))
    (comp (ref C2)
      (value 100nF)
      (footprint misc:C_Disc_D3.0mm_W1.6mm_P2.50mm_big_pads)
      (datasheet ~)
      (libsource (lib Device) (part C) (description "Unpolarized capacitor"))
      (sheetpath (names /) (tstamps /))
      (tstamp 6029478E))
    (comp (ref C1)
      (value 100nF)
      (footprint misc:C_Disc_D3.0mm_W1.6mm_P2.50mm_big_pads)
      (datasheet ~)
      (libsource (lib Device) (part C) (description "Unpolarized capacitor"))
      (sheetpath (names /) (tstamps /))
      (tstamp 60294A3E))
    (comp (ref J1)
      (value Entree_depuis_guitare_vol)
      (footprint misc:PinHeader_1x01_P1.00mm_Vertical_big_pads)
      (datasheet ~)
      (libsource (lib Connector) (part Conn_01x01_Male) (description "Generic connector, single row, 01x01, script generated (kicad-library-utils/schlib/autogen/connector/)"))
      (sheetpath (names /) (tstamps /))
      (tstamp 602956A7))
    (comp (ref J2)
      (value Masse_de_la_Guitare)
      (footprint misc:PinHeader_1x01_P1.00mm_Vertical_big_pads)
      (datasheet ~)
      (libsource (lib Connector) (part Conn_01x01_Male) (description "Generic connector, single row, 01x01, script generated (kicad-library-utils/schlib/autogen/connector/)"))
      (sheetpath (names /) (tstamps /))
      (tstamp 60295BD7))
    (comp (ref J4)
      (value Sortie_Vers_Jack)
      (footprint misc:PinHeader_1x01_P1.00mm_Vertical_big_pads)
      (datasheet ~)
      (libsource (lib Connector) (part Conn_01x01_Male) (description "Generic connector, single row, 01x01, script generated (kicad-library-utils/schlib/autogen/connector/)"))
      (sheetpath (names /) (tstamps /))
      (tstamp 60295E2B))
    (comp (ref J3)
      (value "Alimentation 9V")
      (footprint misc:PinHeader_1x02_P2.54mm_Vertical_big_pads)
      (datasheet ~)
      (libsource (lib Connector) (part Conn_01x02_Male) (description "Generic connector, single row, 01x02, script generated (kicad-library-utils/schlib/autogen/connector/)"))
      (sheetpath (names /) (tstamps /))
      (tstamp 6029641A))
    (comp (ref C3)
      (value 10µF)
      (footprint misc:CP_Radial_D5.0mm_P2.50mm_big_pads)
      (datasheet ~)
      (libsource (lib Device) (part CP1) (description "Polarized capacitor, US symbol"))
      (sheetpath (names /) (tstamps /))
      (tstamp 602A98FD))
    (comp (ref IC1)
      (value TL071P)
      (footprint misc:DIP-8_W7.62mm_big_pads)
      (libsource (lib linear2) (part TL071P) (description ""))
      (sheetpath (names /) (tstamps /))
      (tstamp 602CC85D))
    (comp (ref H4)
      (value MountingHole)
      (footprint MountingHole:MountingHole_3.2mm_M3)
      (datasheet ~)
      (libsource (lib Mechanical) (part MountingHole) (description "Mounting Hole without connection"))
      (sheetpath (names /) (tstamps /))
      (tstamp 602E7842))
    (comp (ref H1)
      (value MountingHole)
      (footprint MountingHole:MountingHole_3.2mm_M3)
      (datasheet ~)
      (libsource (lib Mechanical) (part MountingHole) (description "Mounting Hole without connection"))
      (sheetpath (names /) (tstamps /))
      (tstamp 602EA234)))
  (libparts
    (libpart (lib Connector) (part Conn_01x01_Male)
      (description "Generic connector, single row, 01x01, script generated (kicad-library-utils/schlib/autogen/connector/)")
      (docs ~)
      (footprints
        (fp Connector*:*))
      (fields
        (field (name Reference) J)
        (field (name Value) Conn_01x01_Male))
      (pins
        (pin (num 1) (name Pin_1) (type passive))))
    (libpart (lib Connector) (part Conn_01x02_Male)
      (description "Generic connector, single row, 01x02, script generated (kicad-library-utils/schlib/autogen/connector/)")
      (docs ~)
      (footprints
        (fp Connector*:*_1x??_*))
      (fields
        (field (name Reference) J)
        (field (name Value) Conn_01x02_Male))
      (pins
        (pin (num 1) (name Pin_1) (type passive))
        (pin (num 2) (name Pin_2) (type passive))))
    (libpart (lib Device) (part C)
      (description "Unpolarized capacitor")
      (docs ~)
      (footprints
        (fp C_*))
      (fields
        (field (name Reference) C)
        (field (name Value) C))
      (pins
        (pin (num 1) (name ~) (type passive))
        (pin (num 2) (name ~) (type passive))))
    (libpart (lib Device) (part CP1)
      (description "Polarized capacitor, US symbol")
      (docs ~)
      (footprints
        (fp CP_*))
      (fields
        (field (name Reference) C)
        (field (name Value) CP1))
      (pins
        (pin (num 1) (name ~) (type passive))
        (pin (num 2) (name ~) (type passive))))
    (libpart (lib Device) (part R)
      (description Resistor)
      (docs ~)
      (footprints
        (fp R_*))
      (fields
        (field (name Reference) R)
        (field (name Value) R))
      (pins
        (pin (num 1) (name ~) (type passive))
        (pin (num 2) (name ~) (type passive))))
    (libpart (lib Mechanical) (part MountingHole)
      (description "Mounting Hole without connection")
      (docs ~)
      (footprints
        (fp MountingHole*))
      (fields
        (field (name Reference) H)
        (field (name Value) MountingHole)))
    (libpart (lib linear2) (part TL071P)
      (fields
        (field (name Reference) IC)
        (field (name Value) TL071P)
        (field (name Footprint) linear2-DIL08))
      (pins
        (pin (num 1) (name ON1) (type passive))
        (pin (num 2) (name -IN) (type input))
        (pin (num 3) (name +IN) (type input))
        (pin (num 4) (name V-) (type power_in))
        (pin (num 5) (name ON2) (type passive))
        (pin (num 6) (name OUT) (type output))
        (pin (num 7) (name V+) (type power_in))
        (pin (num 8) (name OPT) (type passive)))))
  (libraries
    (library (logical Connector)
      (uri /usr/share/kicad/library//Connector.lib))
    (library (logical Device)
      (uri /usr/share/kicad/library//Device.lib))
    (library (logical Mechanical)
      (uri /usr/share/kicad/library//Mechanical.lib))
    (library (logical linear2)
      (uri /usr/share/kicad/library//linear2.lib)))
  (nets
    (net (code 1) (name GND)
      (node (ref J2) (pin 1))
      (node (ref C2) (pin 2))
      (node (ref R2) (pin 2))
      (node (ref J3) (pin 2))
      (node (ref IC1) (pin 4)))
    (net (code 2) (name "Net-(C3-Pad1)")
      (node (ref C3) (pin 1))
      (node (ref IC1) (pin 2))
      (node (ref IC1) (pin 6)))
    (net (code 3) (name "Net-(IC1-Pad1)")
      (node (ref IC1) (pin 1)))
    (net (code 4) (name "Net-(IC1-Pad5)")
      (node (ref IC1) (pin 5)))
    (net (code 5) (name "Net-(IC1-Pad8)")
      (node (ref IC1) (pin 8)))
    (net (code 6) (name "Net-(C3-Pad2)")
      (node (ref C3) (pin 2))
      (node (ref J4) (pin 1)))
    (net (code 7) (name "Net-(C1-Pad1)")
      (node (ref C1) (pin 1))
      (node (ref R2) (pin 1))
      (node (ref R1) (pin 2))
      (node (ref IC1) (pin 3)))
    (net (code 8) (name "Net-(C1-Pad2)")
      (node (ref J1) (pin 1))
      (node (ref C1) (pin 2)))
    (net (code 9) (name /9V+)
      (node (ref J3) (pin 1))
      (node (ref C2) (pin 1))
      (node (ref R1) (pin 1))
      (node (ref IC1) (pin 7)))))