EESchema Schematic File Version 4
EELAYER 30 0
EELAYER END
$Descr A4 11693 8268
encoding utf-8
Sheet 1 1
Title "Cazorlita Schematic"
Date "2021-02-14"
Rev "0"
Comp ""
Comment1 ""
Comment2 ""
Comment3 ""
Comment4 ""
$EndDescr
$Comp
L Device:R R2
U 1 1 602940FC
P 4290 3080
F 0 "R2" H 4360 3127 50  0000 L CNN
F 1 "1M" H 4360 3034 50  0000 L CNN
F 2 "misc:Resistor_Horizontal_RM7mm_Big_Pads" V 4220 3080 50  0001 C CNN
F 3 "~" H 4290 3080 50  0001 C CNN
	1    4290 3080
	1    0    0    -1  
$EndComp
$Comp
L Device:R R1
U 1 1 6029437D
P 4290 2780
F 0 "R1" H 4360 2827 50  0000 L CNN
F 1 "1M" H 4360 2734 50  0000 L CNN
F 2 "misc:Resistor_Horizontal_RM7mm_Big_Pads" V 4220 2780 50  0001 C CNN
F 3 "~" H 4290 2780 50  0001 C CNN
	1    4290 2780
	1    0    0    -1  
$EndComp
$Comp
L Device:C C2
U 1 1 6029478E
P 4910 2580
F 0 "C2" H 4795 2533 50  0000 R CNN
F 1 "100nF" H 4795 2626 50  0000 R CNN
F 2 "misc:C_Disc_D3.0mm_W1.6mm_P2.50mm_big_pads" H 4948 2430 50  0001 C CNN
F 3 "~" H 4910 2580 50  0001 C CNN
	1    4910 2580
	-1   0    0    1   
$EndComp
$Comp
L Device:C C1
U 1 1 60294A3E
P 4140 2930
F 0 "C1" V 3885 2930 50  0000 C CNN
F 1 "100nF" V 3978 2930 50  0000 C CNN
F 2 "misc:C_Disc_D3.0mm_W1.6mm_P2.50mm_big_pads" H 4178 2780 50  0001 C CNN
F 3 "~" H 4140 2930 50  0001 C CNN
	1    4140 2930
	0    1    1    0   
$EndComp
$Comp
L Connector:Conn_01x01_Male J1
U 1 1 602956A7
P 2980 3780
F 0 "J1" H 2860 3800 50  0000 C CNN
F 1 "Entree_depuis_guitare_vol" H 2580 3610 50  0000 C CNN
F 2 "misc:PinHeader_1x01_P1.00mm_Vertical_big_pads" H 2980 3780 50  0001 C CNN
F 3 "~" H 2980 3780 50  0001 C CNN
	1    2980 3780
	1    0    0    -1  
$EndComp
$Comp
L Connector:Conn_01x01_Male J2
U 1 1 60295BD7
P 4450 3980
F 0 "J2" H 4559 4166 50  0000 C CNN
F 1 "Masse_de_la_Guitare" H 4550 3900 50  0000 C CNN
F 2 "misc:PinHeader_1x01_P1.00mm_Vertical_big_pads" H 4450 3980 50  0001 C CNN
F 3 "~" H 4450 3980 50  0001 C CNN
	1    4450 3980
	1    0    0    -1  
$EndComp
$Comp
L Connector:Conn_01x01_Male J4
U 1 1 60295E2B
P 5810 3030
F 0 "J4" H 5782 2961 50  0000 R CNN
F 1 "Sortie_Vers_Jack" H 5782 3054 50  0000 R CNN
F 2 "misc:PinHeader_1x01_P1.00mm_Vertical_big_pads" H 5810 3030 50  0001 C CNN
F 3 "~" H 5810 3030 50  0001 C CNN
	1    5810 3030
	-1   0    0    1   
$EndComp
$Comp
L Connector:Conn_01x02_Male J3
U 1 1 6029641A
P 5780 3690
F 0 "J3" H 5520 3710 50  0000 C CNN
F 1 "Alimentation 9V" H 5560 3640 50  0000 C CNN
F 2 "misc:PinHeader_1x02_P2.54mm_Vertical_big_pads" H 5780 3690 50  0001 C CNN
F 3 "~" H 5780 3690 50  0001 C CNN
	1    5780 3690
	1    0    0    -1  
$EndComp
$Comp
L power:PWR_FLAG #FLG01
U 1 1 60296C9A
P 5980 3690
F 0 "#FLG01" H 5980 3765 50  0001 C CNN
F 1 "PWR_FLAG" H 5980 3860 50  0001 C CNN
F 2 "" H 5980 3690 50  0001 C CNN
F 3 "~" H 5980 3690 50  0001 C CNN
	1    5980 3690
	1    0    0    -1  
$EndComp
$Comp
L power:GND #PWR04
U 1 1 60297FF9
P 5980 3790
F 0 "#PWR04" H 5980 3540 50  0001 C CNN
F 1 "GND" H 5985 3614 50  0000 C CNN
F 2 "" H 5980 3790 50  0001 C CNN
F 3 "" H 5980 3790 50  0001 C CNN
	1    5980 3790
	1    0    0    -1  
$EndComp
Wire Wire Line
	4710 2930 4290 2930
Connection ~ 4290 2930
Wire Wire Line
	4710 3540 5310 3540
Wire Wire Line
	5310 3540 5310 3030
$Comp
L power:GND #PWR03
U 1 1 602A66AA
P 4910 3330
F 0 "#PWR03" H 4910 3080 50  0001 C CNN
F 1 "GND" H 4915 3154 50  0000 C CNN
F 2 "" H 4910 3330 50  0001 C CNN
F 3 "" H 4910 3330 50  0001 C CNN
	1    4910 3330
	1    0    0    -1  
$EndComp
$Comp
L Device:CP1 C3
U 1 1 602A98FD
P 5460 3030
F 0 "C3" V 5715 3030 50  0000 C CNN
F 1 "10µF" V 5622 3030 50  0000 C CNN
F 2 "misc:CP_Radial_D5.0mm_P2.50mm_big_pads" H 5460 3030 50  0001 C CNN
F 3 "~" H 5460 3030 50  0001 C CNN
	1    5460 3030
	0    -1   -1   0   
$EndComp
$Comp
L power:GND #PWR01
U 1 1 602B5B1C
P 4650 3980
F 0 "#PWR01" H 4650 3730 50  0001 C CNN
F 1 "GND" V 4655 3850 50  0000 R CNN
F 2 "" H 4650 3980 50  0001 C CNN
F 3 "" H 4650 3980 50  0001 C CNN
	1    4650 3980
	0    -1   -1   0   
$EndComp
$Comp
L power:GND #PWR02
U 1 1 602C6312
P 4910 2430
F 0 "#PWR02" H 4910 2180 50  0001 C CNN
F 1 "GND" H 4915 2254 50  0000 C CNN
F 2 "" H 4910 2430 50  0001 C CNN
F 3 "" H 4910 2430 50  0001 C CNN
	1    4910 2430
	-1   0    0    1   
$EndComp
Text Label 5980 3690 0    50   ~ 0
9V+
$Comp
L linear2:TL071P IC1
U 1 1 602CC85D
P 5010 3030
F 0 "IC1" H 5356 3077 50  0000 L CNN
F 1 "TL071P" H 4540 3040 50  0000 L CNN
F 2 "misc:DIP-8_W7.62mm_big_pads" H 5010 3180 50  0001 C CNN
F 3 "" H 5010 3030 50  0001 C CNN
	1    5010 3030
	1    0    0    -1  
$EndComp
NoConn ~ 5010 2730
NoConn ~ 5310 2930
NoConn ~ 5010 3330
Connection ~ 5310 3030
Wire Wire Line
	4710 3130 4710 3540
Text Label 4290 2630 0    50   ~ 0
9V+
$Comp
L power:GND #PWR0101
U 1 1 602D73C8
P 4290 3230
F 0 "#PWR0101" H 4290 2980 50  0001 C CNN
F 1 "GND" H 4295 3054 50  0000 C CNN
F 2 "" H 4290 3230 50  0001 C CNN
F 3 "" H 4290 3230 50  0001 C CNN
	1    4290 3230
	1    0    0    -1  
$EndComp
$Comp
L Mechanical:MountingHole H4
U 1 1 602E7842
P 5290 4380
F 0 "H4" V 5337 4280 50  0000 R CNN
F 1 "MountingHole" V 5244 4280 50  0000 R CNN
F 2 "MountingHole:MountingHole_3.2mm_M3" H 5290 4380 50  0001 C CNN
F 3 "~" H 5290 4380 50  0001 C CNN
	1    5290 4380
	0    -1   -1   0   
$EndComp
$Comp
L Mechanical:MountingHole H1
U 1 1 602EA234
P 5290 4190
F 0 "H1" H 5390 4237 50  0000 L CNN
F 1 "MountingHole" H 5390 4144 50  0000 L CNN
F 2 "MountingHole:MountingHole_3.2mm_M3" H 5290 4190 50  0001 C CNN
F 3 "~" H 5290 4190 50  0001 C CNN
	1    5290 4190
	1    0    0    -1  
$EndComp
$Comp
L switches:SW_DPDT_x2 SW1
U 1 1 60299A16
P 3380 3780
F 0 "SW1" H 3380 4070 50  0000 C CNN
F 1 "SW_DPDT_x2" H 3380 3977 50  0000 C CNN
F 2 "" H 3380 3780 50  0000 C CNN
F 3 "" H 3380 3780 50  0000 C CNN
	1    3380 3780
	1    0    0    -1  
$EndComp
$Comp
L switches:SW_DPDT_x2 SW1
U 2 1 6029B288
P 3380 4260
F 0 "SW1" H 3380 4550 50  0000 C CNN
F 1 "SW_DPDT_x2" H 3380 4457 50  0000 C CNN
F 2 "" H 3380 4260 50  0000 C CNN
F 3 "" H 3380 4260 50  0000 C CNN
	2    3380 4260
	1    0    0    -1  
$EndComp
$Comp
L switches:SW_DPDT_x2 SW2
U 2 1 6029BD1C
P 3470 5200
F 0 "SW2" H 3470 5490 50  0000 C CNN
F 1 "SW_DPDT_x2" H 3470 5397 50  0000 C CNN
F 2 "" H 3470 5200 50  0000 C CNN
F 3 "" H 3470 5200 50  0000 C CNN
	2    3470 5200
	1    0    0    -1  
$EndComp
$Comp
L switches:SW_DPDT_x2 SW2
U 1 1 6029C571
P 3460 4740
F 0 "SW2" H 3460 5030 50  0000 C CNN
F 1 "SW_DPDT_x2" H 3460 4937 50  0000 C CNN
F 2 "" H 3460 4740 50  0000 C CNN
F 3 "" H 3460 4740 50  0000 C CNN
	1    3460 4740
	1    0    0    -1  
$EndComp
Text Label 3580 3680 0    50   ~ 0
Jack
Text Label 3180 4260 2    50   ~ 0
Jack
Text Label 3580 4160 0    50   ~ 0
Jack
Text Label 3990 2930 2    50   ~ 0
Entrée
Text Label 3580 3880 0    50   ~ 0
Entrée
$Comp
L Connector:Conn_01x01_Male J5
U 1 1 602AD2C0
P 3780 4360
F 0 "J5" H 3752 4291 50  0000 R CNN
F 1 "Sortie_Vers_Jack" H 3752 4384 50  0000 R CNN
F 2 "misc:PinHeader_1x01_P1.00mm_Vertical_big_pads" H 3780 4360 50  0001 C CNN
F 3 "~" H 3780 4360 50  0001 C CNN
	1    3780 4360
	-1   0    0    1   
$EndComp
Text Label 3260 4740 2    50   ~ 0
9V+
Text Label 4910 2730 2    50   ~ 0
TL071_VCC
Text Label 3660 4640 0    50   ~ 0
TL071_VCC
NoConn ~ 3660 4840
NoConn ~ 3670 5100
NoConn ~ 3670 5300
NoConn ~ 3270 5200
$EndSCHEMATC
