<?xml version="1.0" standalone="no"?>
 <!DOCTYPE svg PUBLIC "-//W3C//DTD SVG 1.1//EN" 
 "http://www.w3.org/Graphics/SVG/1.1/DTD/svg11.dtd"> 
<svg
  xmlns:svg="http://www.w3.org/2000/svg"
  xmlns="http://www.w3.org/2000/svg"
  xmlns:xlink="http://www.w3.org/1999/xlink"
  version="1.1"
  width="29.700220cm" height="21.000720cm" viewBox="0 0 116930 82680">
<title>SVG Picture created as Cazorlita-F_SilkS.svg date 2021/02/14 16:14:09 </title>
  <desc>Picture generated by PCBNEW </desc>
<g style="fill:#000000; fill-opacity:1;stroke:#000000; stroke-opacity:1;
stroke-linecap:round; stroke-linejoin:round;"
 transform="translate(0 0) scale(1 1)">
</g>
<g style="fill:#000000; fill-opacity:0.0; 
stroke:#000000; stroke-width:-0.000393701; stroke-opacity:1; 
stroke-linecap:round; stroke-linejoin:round;">
</g>
<g style="fill:#000000; fill-opacity:0.0; 
stroke:#000000; stroke-width:19.685; stroke-opacity:1; 
stroke-linecap:round; stroke-linejoin:round;">
</g>
<g style="fill:#000000; fill-opacity:0.0; 
stroke:#000000; stroke-width:59.0551; stroke-opacity:1; 
stroke-linecap:round; stroke-linejoin:round;">
<rect x="69685.9" y="65357.2" width="42519.7" height="12598.4" rx="0" />
</g>
<g style="fill:#000000; fill-opacity:0.0; 
stroke:#000000; stroke-width:19.685; stroke-opacity:1; 
stroke-linecap:round; stroke-linejoin:round;">
</g>
<g style="fill:#000000; fill-opacity:0.0; 
stroke:#000000; stroke-width:59.0551; stroke-opacity:1; 
stroke-linecap:round; stroke-linejoin:round;">
<rect x="3937.01" y="3937.01" width="109056" height="74806" rx="0" />
</g>
<g style="fill:#000000; fill-opacity:0.0; 
stroke:#000000; stroke-width:19.685; stroke-opacity:1; 
stroke-linecap:round; stroke-linejoin:round;">
</g>
<g style="fill:#000000; fill-opacity:0.0; 
stroke:#000000; stroke-width:59.0551; stroke-opacity:1; 
stroke-linecap:round; stroke-linejoin:round;">
<rect x="4724.41" y="4724.41" width="107481" height="73231.2" rx="0" />
</g>
<g style="fill:#000000; fill-opacity:0.0; 
stroke:#000000; stroke-width:19.685; stroke-opacity:1; 
stroke-linecap:round; stroke-linejoin:round;">
</g>
<g style="fill:#000000; fill-opacity:0.0; 
stroke:#000000; stroke-width:59.0551; stroke-opacity:1; 
stroke-linecap:round; stroke-linejoin:round;">
<path d="M23622 4724
L23622 3937
" />
</g>
<g style="fill:#000000; fill-opacity:0.0; 
stroke:#000000; stroke-width:19.685; stroke-opacity:1; 
stroke-linecap:round; stroke-linejoin:round;">
</g>
<g style="fill:#000000; fill-opacity:0.0; 
stroke:#000000; stroke-width:59.0551; stroke-opacity:1; 
stroke-linecap:round; stroke-linejoin:round;">
<path d="M43307 4724
L43307 3937
" />
</g>
<g style="fill:#000000; fill-opacity:0.0; 
stroke:#000000; stroke-width:19.685; stroke-opacity:1; 
stroke-linecap:round; stroke-linejoin:round;">
</g>
<g style="fill:#000000; fill-opacity:0.0; 
stroke:#000000; stroke-width:59.0551; stroke-opacity:1; 
stroke-linecap:round; stroke-linejoin:round;">
<path d="M62992 4724
L62992 3937
" />
</g>
<g style="fill:#000000; fill-opacity:0.0; 
stroke:#000000; stroke-width:19.685; stroke-opacity:1; 
stroke-linecap:round; stroke-linejoin:round;">
</g>
<g style="fill:#000000; fill-opacity:0.0; 
stroke:#000000; stroke-width:59.0551; stroke-opacity:1; 
stroke-linecap:round; stroke-linejoin:round;">
<path d="M82677 4724
L82677 3937
" />
</g>
<g style="fill:#000000; fill-opacity:0.0; 
stroke:#000000; stroke-width:19.685; stroke-opacity:1; 
stroke-linecap:round; stroke-linejoin:round;">
</g>
<g style="fill:#000000; fill-opacity:0.0; 
stroke:#000000; stroke-width:59.0551; stroke-opacity:1; 
stroke-linecap:round; stroke-linejoin:round;">
<path d="M102362 4724
L102362 3937
" />
</g>
<g style="fill:#000000; fill-opacity:0.0; 
stroke:#000000; stroke-width:19.685; stroke-opacity:1; 
stroke-linecap:round; stroke-linejoin:round;">
</g>
<g style="fill:#000000; fill-opacity:0.0; 
stroke:#000000; stroke-width:59.0551; stroke-opacity:1; 
stroke-linecap:round; stroke-linejoin:round;">
<text x="13779.5" y="4586.61"
textLength="546.494" font-size="682.415" lengthAdjust="spacingAndGlyphs"
text-anchor="start" opacity="0">1</text>
<path d="M14199 4562
L13906 4562
" />
<path d="M14052 4562
L14052 4050
L14004 4123
L13955 4172
L13906 4196
" />
</g>
<g style="fill:#000000; fill-opacity:0.0; 
stroke:#000000; stroke-width:19.685; stroke-opacity:1; 
stroke-linecap:round; stroke-linejoin:round;">
</g>
<g style="fill:#000000; fill-opacity:0.0; 
stroke:#000000; stroke-width:59.0551; stroke-opacity:1; 
stroke-linecap:round; stroke-linejoin:round;">
<text x="33464.6" y="4586.61"
textLength="546.494" font-size="682.415" lengthAdjust="spacingAndGlyphs"
text-anchor="start" opacity="0">2</text>
<path d="M33591 4099
L33615 4074
L33664 4050
L33786 4050
L33835 4074
L33859 4099
L33884 4147
L33884 4196
L33859 4269
L33567 4562
L33884 4562
" />
</g>
<g style="fill:#000000; fill-opacity:0.0; 
stroke:#000000; stroke-width:19.685; stroke-opacity:1; 
stroke-linecap:round; stroke-linejoin:round;">
</g>
<g style="fill:#000000; fill-opacity:0.0; 
stroke:#000000; stroke-width:59.0551; stroke-opacity:1; 
stroke-linecap:round; stroke-linejoin:round;">
<text x="53149.6" y="4586.61"
textLength="546.494" font-size="682.415" lengthAdjust="spacingAndGlyphs"
text-anchor="start" opacity="0">3</text>
<path d="M53252 4050
L53569 4050
L53398 4245
L53471 4245
L53520 4269
L53544 4294
L53569 4342
L53569 4464
L53544 4513
L53520 4537
L53471 4562
L53325 4562
L53276 4537
L53252 4513
" />
</g>
<g style="fill:#000000; fill-opacity:0.0; 
stroke:#000000; stroke-width:19.685; stroke-opacity:1; 
stroke-linecap:round; stroke-linejoin:round;">
</g>
<g style="fill:#000000; fill-opacity:0.0; 
stroke:#000000; stroke-width:59.0551; stroke-opacity:1; 
stroke-linecap:round; stroke-linejoin:round;">
<text x="72834.6" y="4586.61"
textLength="546.494" font-size="682.415" lengthAdjust="spacingAndGlyphs"
text-anchor="start" opacity="0">4</text>
<path d="M73205 4221
L73205 4562
" />
<path d="M73083 4026
L72961 4391
L73278 4391
" />
</g>
<g style="fill:#000000; fill-opacity:0.0; 
stroke:#000000; stroke-width:19.685; stroke-opacity:1; 
stroke-linecap:round; stroke-linejoin:round;">
</g>
<g style="fill:#000000; fill-opacity:0.0; 
stroke:#000000; stroke-width:59.0551; stroke-opacity:1; 
stroke-linecap:round; stroke-linejoin:round;">
<text x="92519.7" y="4586.61"
textLength="546.494" font-size="682.415" lengthAdjust="spacingAndGlyphs"
text-anchor="start" opacity="0">5</text>
<path d="M92914 4050
L92671 4050
L92646 4294
L92671 4269
L92719 4245
L92841 4245
L92890 4269
L92914 4294
L92939 4342
L92939 4464
L92914 4513
L92890 4537
L92841 4562
L92719 4562
L92671 4537
L92646 4513
" />
</g>
<g style="fill:#000000; fill-opacity:0.0; 
stroke:#000000; stroke-width:19.685; stroke-opacity:1; 
stroke-linecap:round; stroke-linejoin:round;">
</g>
<g style="fill:#000000; fill-opacity:0.0; 
stroke:#000000; stroke-width:59.0551; stroke-opacity:1; 
stroke-linecap:round; stroke-linejoin:round;">
<text x="112205" y="4586.61"
textLength="546.494" font-size="682.415" lengthAdjust="spacingAndGlyphs"
text-anchor="start" opacity="0">6</text>
<path d="M112575 4050
L112477 4050
L112429 4074
L112404 4099
L112356 4172
L112331 4269
L112331 4464
L112356 4513
L112380 4537
L112429 4562
L112526 4562
L112575 4537
L112599 4513
L112624 4464
L112624 4342
L112599 4294
L112575 4269
L112526 4245
L112429 4245
L112380 4269
L112356 4294
L112331 4342
" />
</g>
<g style="fill:#000000; fill-opacity:0.0; 
stroke:#000000; stroke-width:19.685; stroke-opacity:1; 
stroke-linecap:round; stroke-linejoin:round;">
</g>
<g style="fill:#000000; fill-opacity:0.0; 
stroke:#000000; stroke-width:59.0551; stroke-opacity:1; 
stroke-linecap:round; stroke-linejoin:round;">
<path d="M23622 77955
L23622 78742
" />
</g>
<g style="fill:#000000; fill-opacity:0.0; 
stroke:#000000; stroke-width:19.685; stroke-opacity:1; 
stroke-linecap:round; stroke-linejoin:round;">
</g>
<g style="fill:#000000; fill-opacity:0.0; 
stroke:#000000; stroke-width:59.0551; stroke-opacity:1; 
stroke-linecap:round; stroke-linejoin:round;">
<path d="M43307 77955
L43307 78742
" />
</g>
<g style="fill:#000000; fill-opacity:0.0; 
stroke:#000000; stroke-width:19.685; stroke-opacity:1; 
stroke-linecap:round; stroke-linejoin:round;">
</g>
<g style="fill:#000000; fill-opacity:0.0; 
stroke:#000000; stroke-width:59.0551; stroke-opacity:1; 
stroke-linecap:round; stroke-linejoin:round;">
<path d="M62992 77955
L62992 78742
" />
</g>
<g style="fill:#000000; fill-opacity:0.0; 
stroke:#000000; stroke-width:19.685; stroke-opacity:1; 
stroke-linecap:round; stroke-linejoin:round;">
</g>
<g style="fill:#000000; fill-opacity:0.0; 
stroke:#000000; stroke-width:59.0551; stroke-opacity:1; 
stroke-linecap:round; stroke-linejoin:round;">
<path d="M82677 77955
L82677 78742
" />
</g>
<g style="fill:#000000; fill-opacity:0.0; 
stroke:#000000; stroke-width:19.685; stroke-opacity:1; 
stroke-linecap:round; stroke-linejoin:round;">
</g>
<g style="fill:#000000; fill-opacity:0.0; 
stroke:#000000; stroke-width:59.0551; stroke-opacity:1; 
stroke-linecap:round; stroke-linejoin:round;">
<path d="M102362 77955
L102362 78742
" />
</g>
<g style="fill:#000000; fill-opacity:0.0; 
stroke:#000000; stroke-width:19.685; stroke-opacity:1; 
stroke-linecap:round; stroke-linejoin:round;">
</g>
<g style="fill:#000000; fill-opacity:0.0; 
stroke:#000000; stroke-width:59.0551; stroke-opacity:1; 
stroke-linecap:round; stroke-linejoin:round;">
<text x="13779.5" y="78605.2"
textLength="546.494" font-size="682.415" lengthAdjust="spacingAndGlyphs"
text-anchor="start" opacity="0">1</text>
<path d="M14199 78580
L13906 78580
" />
<path d="M14052 78580
L14052 78069
L14004 78142
L13955 78190
L13906 78215
" />
</g>
<g style="fill:#000000; fill-opacity:0.0; 
stroke:#000000; stroke-width:19.685; stroke-opacity:1; 
stroke-linecap:round; stroke-linejoin:round;">
</g>
<g style="fill:#000000; fill-opacity:0.0; 
stroke:#000000; stroke-width:59.0551; stroke-opacity:1; 
stroke-linecap:round; stroke-linejoin:round;">
<text x="33464.6" y="78605.2"
textLength="546.494" font-size="682.415" lengthAdjust="spacingAndGlyphs"
text-anchor="start" opacity="0">2</text>
<path d="M33591 78117
L33615 78093
L33664 78069
L33786 78069
L33835 78093
L33859 78117
L33884 78166
L33884 78215
L33859 78288
L33567 78580
L33884 78580
" />
</g>
<g style="fill:#000000; fill-opacity:0.0; 
stroke:#000000; stroke-width:19.685; stroke-opacity:1; 
stroke-linecap:round; stroke-linejoin:round;">
</g>
<g style="fill:#000000; fill-opacity:0.0; 
stroke:#000000; stroke-width:59.0551; stroke-opacity:1; 
stroke-linecap:round; stroke-linejoin:round;">
<text x="53149.6" y="78605.2"
textLength="546.494" font-size="682.415" lengthAdjust="spacingAndGlyphs"
text-anchor="start" opacity="0">3</text>
<path d="M53252 78069
L53569 78069
L53398 78263
L53471 78263
L53520 78288
L53544 78312
L53569 78361
L53569 78483
L53544 78532
L53520 78556
L53471 78580
L53325 78580
L53276 78556
L53252 78532
" />
</g>
<g style="fill:#000000; fill-opacity:0.0; 
stroke:#000000; stroke-width:19.685; stroke-opacity:1; 
stroke-linecap:round; stroke-linejoin:round;">
</g>
<g style="fill:#000000; fill-opacity:0.0; 
stroke:#000000; stroke-width:59.0551; stroke-opacity:1; 
stroke-linecap:round; stroke-linejoin:round;">
<text x="72834.6" y="78605.2"
textLength="546.494" font-size="682.415" lengthAdjust="spacingAndGlyphs"
text-anchor="start" opacity="0">4</text>
<path d="M73205 78239
L73205 78580
" />
<path d="M73083 78044
L72961 78410
L73278 78410
" />
</g>
<g style="fill:#000000; fill-opacity:0.0; 
stroke:#000000; stroke-width:19.685; stroke-opacity:1; 
stroke-linecap:round; stroke-linejoin:round;">
</g>
<g style="fill:#000000; fill-opacity:0.0; 
stroke:#000000; stroke-width:59.0551; stroke-opacity:1; 
stroke-linecap:round; stroke-linejoin:round;">
<text x="92519.7" y="78605.2"
textLength="546.494" font-size="682.415" lengthAdjust="spacingAndGlyphs"
text-anchor="start" opacity="0">5</text>
<path d="M92914 78069
L92671 78069
L92646 78312
L92671 78288
L92719 78263
L92841 78263
L92890 78288
L92914 78312
L92939 78361
L92939 78483
L92914 78532
L92890 78556
L92841 78580
L92719 78580
L92671 78556
L92646 78532
" />
</g>
<g style="fill:#000000; fill-opacity:0.0; 
stroke:#000000; stroke-width:19.685; stroke-opacity:1; 
stroke-linecap:round; stroke-linejoin:round;">
</g>
<g style="fill:#000000; fill-opacity:0.0; 
stroke:#000000; stroke-width:59.0551; stroke-opacity:1; 
stroke-linecap:round; stroke-linejoin:round;">
<text x="112205" y="78605.2"
textLength="546.494" font-size="682.415" lengthAdjust="spacingAndGlyphs"
text-anchor="start" opacity="0">6</text>
<path d="M112575 78069
L112477 78069
L112429 78093
L112404 78117
L112356 78190
L112331 78288
L112331 78483
L112356 78532
L112380 78556
L112429 78580
L112526 78580
L112575 78556
L112599 78532
L112624 78483
L112624 78361
L112599 78312
L112575 78288
L112526 78263
L112429 78263
L112380 78288
L112356 78312
L112331 78361
" />
</g>
<g style="fill:#000000; fill-opacity:0.0; 
stroke:#000000; stroke-width:19.685; stroke-opacity:1; 
stroke-linecap:round; stroke-linejoin:round;">
</g>
<g style="fill:#000000; fill-opacity:0.0; 
stroke:#000000; stroke-width:59.0551; stroke-opacity:1; 
stroke-linecap:round; stroke-linejoin:round;">
<path d="M3937 23622
L4724 23622
" />
</g>
<g style="fill:#000000; fill-opacity:0.0; 
stroke:#000000; stroke-width:19.685; stroke-opacity:1; 
stroke-linecap:round; stroke-linejoin:round;">
</g>
<g style="fill:#000000; fill-opacity:0.0; 
stroke:#000000; stroke-width:59.0551; stroke-opacity:1; 
stroke-linecap:round; stroke-linejoin:round;">
<path d="M3937 43307
L4724 43307
" />
</g>
<g style="fill:#000000; fill-opacity:0.0; 
stroke:#000000; stroke-width:19.685; stroke-opacity:1; 
stroke-linecap:round; stroke-linejoin:round;">
</g>
<g style="fill:#000000; fill-opacity:0.0; 
stroke:#000000; stroke-width:59.0551; stroke-opacity:1; 
stroke-linecap:round; stroke-linejoin:round;">
<path d="M3937 62992
L4724 62992
" />
</g>
<g style="fill:#000000; fill-opacity:0.0; 
stroke:#000000; stroke-width:19.685; stroke-opacity:1; 
stroke-linecap:round; stroke-linejoin:round;">
</g>
<g style="fill:#000000; fill-opacity:0.0; 
stroke:#000000; stroke-width:59.0551; stroke-opacity:1; 
stroke-linecap:round; stroke-linejoin:round;">
<text x="4330.71" y="14035.4"
textLength="497.75" font-size="682.415" lengthAdjust="spacingAndGlyphs"
text-anchor="middle" opacity="0">A</text>
<path d="M4208 13864
L4452 13864
" />
<path d="M4160 14011
L4330 13499
L4501 14011
" />
</g>
<g style="fill:#000000; fill-opacity:0.0; 
stroke:#000000; stroke-width:19.685; stroke-opacity:1; 
stroke-linecap:round; stroke-linejoin:round;">
</g>
<g style="fill:#000000; fill-opacity:0.0; 
stroke:#000000; stroke-width:59.0551; stroke-opacity:1; 
stroke-linecap:round; stroke-linejoin:round;">
<text x="4330.71" y="33720.5"
textLength="570.866" font-size="682.415" lengthAdjust="spacingAndGlyphs"
text-anchor="middle" opacity="0">B</text>
<path d="M4367 33428
L4440 33452
L4464 33476
L4489 33525
L4489 33598
L4464 33647
L4440 33671
L4391 33696
L4196 33696
L4196 33184
L4367 33184
L4416 33208
L4440 33233
L4464 33281
L4464 33330
L4440 33379
L4416 33403
L4367 33428
L4196 33428
" />
</g>
<g style="fill:#000000; fill-opacity:0.0; 
stroke:#000000; stroke-width:19.685; stroke-opacity:1; 
stroke-linecap:round; stroke-linejoin:round;">
</g>
<g style="fill:#000000; fill-opacity:0.0; 
stroke:#000000; stroke-width:59.0551; stroke-opacity:1; 
stroke-linecap:round; stroke-linejoin:round;">
<text x="4330.71" y="53405.5"
textLength="570.866" font-size="682.415" lengthAdjust="spacingAndGlyphs"
text-anchor="middle" opacity="0">C</text>
<path d="M4489 53332
L4464 53356
L4391 53381
L4342 53381
L4269 53356
L4221 53308
L4196 53259
L4172 53161
L4172 53088
L4196 52991
L4221 52942
L4269 52893
L4342 52869
L4391 52869
L4464 52893
L4489 52918
" />
</g>
<g style="fill:#000000; fill-opacity:0.0; 
stroke:#000000; stroke-width:19.685; stroke-opacity:1; 
stroke-linecap:round; stroke-linejoin:round;">
</g>
<g style="fill:#000000; fill-opacity:0.0; 
stroke:#000000; stroke-width:59.0551; stroke-opacity:1; 
stroke-linecap:round; stroke-linejoin:round;">
<text x="4330.71" y="73090.6"
textLength="570.866" font-size="682.415" lengthAdjust="spacingAndGlyphs"
text-anchor="middle" opacity="0">D</text>
<path d="M4196 73066
L4196 72554
L4318 72554
L4391 72578
L4440 72627
L4464 72676
L4489 72773
L4489 72846
L4464 72944
L4440 72993
L4391 73041
L4318 73066
L4196 73066
" />
</g>
<g style="fill:#000000; fill-opacity:0.0; 
stroke:#000000; stroke-width:19.685; stroke-opacity:1; 
stroke-linecap:round; stroke-linejoin:round;">
</g>
<g style="fill:#000000; fill-opacity:0.0; 
stroke:#000000; stroke-width:59.0551; stroke-opacity:1; 
stroke-linecap:round; stroke-linejoin:round;">
<path d="M112992 23622
L112205 23622
" />
</g>
<g style="fill:#000000; fill-opacity:0.0; 
stroke:#000000; stroke-width:19.685; stroke-opacity:1; 
stroke-linecap:round; stroke-linejoin:round;">
</g>
<g style="fill:#000000; fill-opacity:0.0; 
stroke:#000000; stroke-width:59.0551; stroke-opacity:1; 
stroke-linecap:round; stroke-linejoin:round;">
<path d="M112992 43307
L112205 43307
" />
</g>
<g style="fill:#000000; fill-opacity:0.0; 
stroke:#000000; stroke-width:19.685; stroke-opacity:1; 
stroke-linecap:round; stroke-linejoin:round;">
</g>
<g style="fill:#000000; fill-opacity:0.0; 
stroke:#000000; stroke-width:59.0551; stroke-opacity:1; 
stroke-linecap:round; stroke-linejoin:round;">
<path d="M112992 62992
L112205 62992
" />
</g>
<g style="fill:#000000; fill-opacity:0.0; 
stroke:#000000; stroke-width:19.685; stroke-opacity:1; 
stroke-linecap:round; stroke-linejoin:round;">
</g>
<g style="fill:#000000; fill-opacity:0.0; 
stroke:#000000; stroke-width:59.0551; stroke-opacity:1; 
stroke-linecap:round; stroke-linejoin:round;">
<text x="112599" y="14035.4"
textLength="497.75" font-size="682.415" lengthAdjust="spacingAndGlyphs"
text-anchor="middle" opacity="0">A</text>
<path d="M112477 13864
L112721 13864
" />
<path d="M112428 14011
L112599 13499
L112769 14011
" />
</g>
<g style="fill:#000000; fill-opacity:0.0; 
stroke:#000000; stroke-width:19.685; stroke-opacity:1; 
stroke-linecap:round; stroke-linejoin:round;">
</g>
<g style="fill:#000000; fill-opacity:0.0; 
stroke:#000000; stroke-width:59.0551; stroke-opacity:1; 
stroke-linecap:round; stroke-linejoin:round;">
<text x="112599" y="33720.5"
textLength="570.866" font-size="682.415" lengthAdjust="spacingAndGlyphs"
text-anchor="middle" opacity="0">B</text>
<path d="M112635 33428
L112708 33452
L112733 33476
L112757 33525
L112757 33598
L112733 33647
L112708 33671
L112660 33696
L112465 33696
L112465 33184
L112635 33184
L112684 33208
L112708 33233
L112733 33281
L112733 33330
L112708 33379
L112684 33403
L112635 33428
L112465 33428
" />
</g>
<g style="fill:#000000; fill-opacity:0.0; 
stroke:#000000; stroke-width:19.685; stroke-opacity:1; 
stroke-linecap:round; stroke-linejoin:round;">
</g>
<g style="fill:#000000; fill-opacity:0.0; 
stroke:#000000; stroke-width:59.0551; stroke-opacity:1; 
stroke-linecap:round; stroke-linejoin:round;">
<text x="112599" y="53405.5"
textLength="570.866" font-size="682.415" lengthAdjust="spacingAndGlyphs"
text-anchor="middle" opacity="0">C</text>
<path d="M112757 53332
L112733 53356
L112660 53381
L112611 53381
L112538 53356
L112489 53308
L112465 53259
L112440 53161
L112440 53088
L112465 52991
L112489 52942
L112538 52893
L112611 52869
L112660 52869
L112733 52893
L112757 52918
" />
</g>
<g style="fill:#000000; fill-opacity:0.0; 
stroke:#000000; stroke-width:19.685; stroke-opacity:1; 
stroke-linecap:round; stroke-linejoin:round;">
</g>
<g style="fill:#000000; fill-opacity:0.0; 
stroke:#000000; stroke-width:59.0551; stroke-opacity:1; 
stroke-linecap:round; stroke-linejoin:round;">
<text x="112599" y="73090.6"
textLength="570.866" font-size="682.415" lengthAdjust="spacingAndGlyphs"
text-anchor="middle" opacity="0">D</text>
<path d="M112465 73066
L112465 72554
L112587 72554
L112660 72578
L112708 72627
L112733 72676
L112757 72773
L112757 72846
L112733 72944
L112708 72993
L112660 73041
L112587 73066
L112465 73066
" />
</g>
<g style="fill:#000000; fill-opacity:0.0; 
stroke:#000000; stroke-width:19.685; stroke-opacity:1; 
stroke-linecap:round; stroke-linejoin:round;">
</g>
<g style="fill:#000000; fill-opacity:0.0; 
stroke:#000000; stroke-width:59.0551; stroke-opacity:1; 
stroke-linecap:round; stroke-linejoin:round;">
<text x="78741" y="76321.7"
textLength="8720.47" font-size="787.402" lengthAdjust="spacingAndGlyphs"
text-anchor="start" opacity="0">Date: 2021-02-14</text>
<path d="M78911 76293
L78911 75703
L79051 75703
L79136 75731
L79192 75787
L79220 75843
L79248 75956
L79248 76040
L79220 76153
L79192 76209
L79136 76265
L79051 76293
L78911 76293
" />
<path d="M79754 76293
L79754 75984
L79726 75928
L79670 75899
L79557 75899
L79501 75928
" />
<path d="M79754 76265
L79698 76293
L79557 76293
L79501 76265
L79473 76209
L79473 76153
L79501 76096
L79557 76068
L79698 76068
L79754 76040
" />
<path d="M79951 75899
L80176 75899
" />
<path d="M80036 75703
L80036 76209
L80064 76265
L80120 76293
L80176 76293
" />
<path d="M80598 76265
L80542 76293
L80429 76293
L80373 76265
L80345 76209
L80345 75984
L80373 75928
L80429 75899
L80542 75899
L80598 75928
L80626 75984
L80626 76040
L80345 76096
" />
<path d="M80879 76237
L80907 76265
L80879 76293
L80851 76265
L80879 76237
L80879 76293
" />
<path d="M80879 75928
L80907 75956
L80879 75984
L80851 75956
L80879 75928
L80879 75984
" />
<path d="M81582 75759
L81610 75731
L81667 75703
L81807 75703
L81863 75731
L81892 75759
L81920 75815
L81920 75871
L81892 75956
L81554 76293
L81920 76293
" />
<path d="M82285 75703
L82341 75703
L82398 75731
L82426 75759
L82454 75815
L82482 75928
L82482 76068
L82454 76181
L82426 76237
L82398 76265
L82341 76293
L82285 76293
L82229 76265
L82201 76237
L82173 76181
L82145 76068
L82145 75928
L82173 75815
L82201 75759
L82229 75731
L82285 75703
" />
<path d="M82707 75759
L82735 75731
L82791 75703
L82932 75703
L82988 75731
L83016 75759
L83045 75815
L83045 75871
L83016 75956
L82679 76293
L83045 76293
" />
<path d="M83607 76293
L83269 76293
" />
<path d="M83438 76293
L83438 75703
L83382 75787
L83326 75843
L83269 75871
" />
<path d="M83860 76068
L84310 76068
" />
<path d="M84704 75703
L84760 75703
L84816 75731
L84844 75759
L84872 75815
L84901 75928
L84901 76068
L84872 76181
L84844 76237
L84816 76265
L84760 76293
L84704 76293
L84647 76265
L84619 76237
L84591 76181
L84563 76068
L84563 75928
L84591 75815
L84619 75759
L84647 75731
L84704 75703
" />
<path d="M85126 75759
L85154 75731
L85210 75703
L85350 75703
L85407 75731
L85435 75759
L85463 75815
L85463 75871
L85435 75956
L85097 76293
L85463 76293
" />
<path d="M85716 76068
L86166 76068
" />
<path d="M86757 76293
L86419 76293
" />
<path d="M86588 76293
L86588 75703
L86532 75787
L86475 75843
L86419 75871
" />
<path d="M87263 75899
L87263 76293
" />
<path d="M87122 75674
L86982 76096
L87347 76096
" />
</g>
<g style="fill:#000000; fill-opacity:0.0; 
stroke:#000000; stroke-width:19.685; stroke-opacity:1; 
stroke-linecap:round; stroke-linejoin:round;">
</g>
<g style="fill:#000000; fill-opacity:0.0; 
stroke:#000000; stroke-width:59.0551; stroke-opacity:1; 
stroke-linecap:round; stroke-linejoin:round;">
<path d="M69685 76577
L112205 76577
" />
</g>
<g style="fill:#000000; fill-opacity:0.0; 
stroke:#000000; stroke-width:19.685; stroke-opacity:1; 
stroke-linecap:round; stroke-linejoin:round;">
</g>
<g style="fill:#000000; fill-opacity:0.0; 
stroke:#000000; stroke-width:59.0551; stroke-opacity:1; 
stroke-linecap:round; stroke-linejoin:round;">
<text x="70079.6" y="77424.1"
textLength="25171.5" font-size="787.402" lengthAdjust="spacingAndGlyphs"
text-anchor="start" opacity="0">KiCad E.D.A.  kicad 5.1.9-73d0e3b20d~88~ubuntu18.04.1</text>
<path d="M70249 77395
L70249 76805
" />
<path d="M70587 77395
L70334 77058
" />
<path d="M70587 76805
L70249 77142
" />
<path d="M70840 77395
L70840 77002
" />
<path d="M70840 76805
L70812 76833
L70840 76861
L70868 76833
L70840 76805
L70840 76861
" />
<path d="M71458 77339
L71430 77367
L71346 77395
L71290 77395
L71205 77367
L71149 77311
L71121 77255
L71093 77142
L71093 77058
L71121 76946
L71149 76889
L71205 76833
L71290 76805
L71346 76805
L71430 76833
L71458 76861
" />
<path d="M71965 77395
L71965 77086
L71937 77030
L71880 77002
L71768 77002
L71712 77030
" />
<path d="M71965 77367
L71908 77395
L71768 77395
L71712 77367
L71683 77311
L71683 77255
L71712 77199
L71768 77171
L71908 77171
L71965 77142
" />
<path d="M72499 77395
L72499 76805
" />
<path d="M72499 77367
L72443 77395
L72330 77395
L72274 77367
L72246 77339
L72218 77283
L72218 77114
L72246 77058
L72274 77030
L72330 77002
L72443 77002
L72499 77030
" />
<path d="M73230 77086
L73427 77086
" />
<path d="M73511 77395
L73230 77395
L73230 76805
L73511 76805
" />
<path d="M73764 77339
L73793 77367
L73764 77395
L73736 77367
L73764 77339
L73764 77395
" />
<path d="M74046 77395
L74046 76805
L74186 76805
L74271 76833
L74327 76889
L74355 76946
L74383 77058
L74383 77142
L74355 77255
L74327 77311
L74271 77367
L74186 77395
L74046 77395
" />
<path d="M74636 77339
L74664 77367
L74636 77395
L74608 77367
L74636 77339
L74636 77395
" />
<path d="M74889 77227
L75171 77227
" />
<path d="M74833 77395
L75030 76805
L75227 77395
" />
<path d="M75424 77339
L75452 77367
L75424 77395
L75395 77367
L75424 77339
L75424 77395
" />
<path d="M76605 77395
L76605 76805
" />
<path d="M76661 77171
L76830 77395
" />
<path d="M76830 77002
L76605 77227
" />
<path d="M77083 77395
L77083 77002
" />
<path d="M77083 76805
L77055 76833
L77083 76861
L77111 76833
L77083 76805
L77083 76861
" />
<path d="M77617 77367
L77561 77395
L77448 77395
L77392 77367
L77364 77339
L77336 77283
L77336 77114
L77364 77058
L77392 77030
L77448 77002
L77561 77002
L77617 77030
" />
<path d="M78123 77395
L78123 77086
L78095 77030
L78039 77002
L77926 77002
L77870 77030
" />
<path d="M78123 77367
L78067 77395
L77926 77395
L77870 77367
L77842 77311
L77842 77255
L77870 77199
L77926 77171
L78067 77171
L78123 77142
" />
<path d="M78658 77395
L78658 76805
" />
<path d="M78658 77367
L78601 77395
L78489 77395
L78433 77367
L78404 77339
L78376 77283
L78376 77114
L78404 77058
L78433 77030
L78489 77002
L78601 77002
L78658 77030
" />
<path d="M79670 76805
L79389 76805
L79361 77086
L79389 77058
L79445 77030
L79586 77030
L79642 77058
L79670 77086
L79698 77142
L79698 77283
L79670 77339
L79642 77367
L79586 77395
L79445 77395
L79389 77367
L79361 77339
" />
<path d="M79951 77339
L79979 77367
L79951 77395
L79923 77367
L79951 77339
L79951 77395
" />
<path d="M80542 77395
L80204 77395
" />
<path d="M80373 77395
L80373 76805
L80317 76889
L80260 76946
L80204 76974
" />
<path d="M80795 77339
L80823 77367
L80795 77395
L80767 77367
L80795 77339
L80795 77395
" />
<path d="M81104 77395
L81217 77395
L81273 77367
L81301 77339
L81357 77255
L81385 77142
L81385 76917
L81357 76861
L81329 76833
L81273 76805
L81160 76805
L81104 76833
L81076 76861
L81048 76917
L81048 77058
L81076 77114
L81104 77142
L81160 77171
L81273 77171
L81329 77142
L81357 77114
L81385 77058
" />
<path d="M81638 77171
L82088 77171
" />
<path d="M82313 76805
L82707 76805
L82454 77395
" />
<path d="M82876 76805
L83241 76805
L83045 77030
L83129 77030
L83185 77058
L83213 77086
L83241 77142
L83241 77283
L83213 77339
L83185 77367
L83129 77395
L82960 77395
L82904 77367
L82876 77339
" />
<path d="M83748 77395
L83748 76805
" />
<path d="M83748 77367
L83691 77395
L83579 77395
L83523 77367
L83494 77339
L83466 77283
L83466 77114
L83494 77058
L83523 77030
L83579 77002
L83691 77002
L83748 77030
" />
<path d="M84141 76805
L84197 76805
L84254 76833
L84282 76861
L84310 76917
L84338 77030
L84338 77171
L84310 77283
L84282 77339
L84254 77367
L84197 77395
L84141 77395
L84085 77367
L84057 77339
L84029 77283
L84001 77171
L84001 77030
L84029 76917
L84057 76861
L84085 76833
L84141 76805
" />
<path d="M84816 77367
L84760 77395
L84647 77395
L84591 77367
L84563 77311
L84563 77086
L84591 77030
L84647 77002
L84760 77002
L84816 77030
L84844 77086
L84844 77142
L84563 77199
" />
<path d="M85041 76805
L85407 76805
L85210 77030
L85294 77030
L85350 77058
L85379 77086
L85407 77142
L85407 77283
L85379 77339
L85350 77367
L85294 77395
L85126 77395
L85069 77367
L85041 77339
" />
<path d="M85660 77395
L85660 76805
" />
<path d="M85660 77030
L85716 77002
L85829 77002
L85885 77030
L85913 77058
L85941 77114
L85941 77283
L85913 77339
L85885 77367
L85829 77395
L85716 77395
L85660 77367
" />
<path d="M86166 76861
L86194 76833
L86250 76805
L86391 76805
L86447 76833
L86475 76861
L86503 76917
L86503 76974
L86475 77058
L86138 77395
L86503 77395
" />
<path d="M86869 76805
L86925 76805
L86982 76833
L87010 76861
L87038 76917
L87066 77030
L87066 77171
L87038 77283
L87010 77339
L86982 77367
L86925 77395
L86869 77395
L86813 77367
L86785 77339
L86757 77283
L86728 77171
L86728 77030
L86757 76917
L86785 76861
L86813 76833
L86869 76805
" />
<path d="M87572 77395
L87572 76805
" />
<path d="M87572 77367
L87516 77395
L87403 77395
L87347 77367
L87319 77339
L87291 77283
L87291 77114
L87319 77058
L87347 77030
L87403 77002
L87516 77002
L87572 77030
" />
<path d="M87713 76644
L88275 76644
" />
<path d="M87938 77058
L87881 77030
L87853 77002
L87825 76946
L87825 76917
L87853 76861
L87881 76833
L87938 76805
L88050 76805
L88106 76833
L88135 76861
L88163 76917
L88163 76946
L88135 77002
L88106 77030
L88050 77058
L87938 77058
L87881 77086
L87853 77114
L87825 77171
L87825 77283
L87853 77339
L87881 77367
L87938 77395
L88050 77395
L88106 77367
L88135 77339
L88163 77283
L88163 77171
L88135 77114
L88106 77086
L88050 77058
" />
<path d="M88275 76644
L88838 76644
" />
<path d="M88500 77058
L88444 77030
L88416 77002
L88388 76946
L88388 76917
L88416 76861
L88444 76833
L88500 76805
L88613 76805
L88669 76833
L88697 76861
L88725 76917
L88725 76946
L88697 77002
L88669 77030
L88613 77058
L88500 77058
L88444 77086
L88416 77114
L88388 77171
L88388 77283
L88416 77339
L88444 77367
L88500 77395
L88613 77395
L88669 77367
L88697 77339
L88725 77283
L88725 77171
L88697 77114
L88669 77086
L88613 77058
" />
<path d="M89231 77002
L89231 77395
" />
<path d="M88978 77002
L88978 77311
L89006 77367
L89063 77395
L89147 77395
L89203 77367
L89231 77339
" />
<path d="M89512 77395
L89512 76805
" />
<path d="M89512 77030
L89569 77002
L89681 77002
L89737 77030
L89766 77058
L89794 77114
L89794 77283
L89766 77339
L89737 77367
L89681 77395
L89569 77395
L89512 77367
" />
<path d="M90300 77002
L90300 77395
" />
<path d="M90047 77002
L90047 77311
L90075 77367
L90131 77395
L90215 77395
L90272 77367
L90300 77339
" />
<path d="M90581 77002
L90581 77395
" />
<path d="M90581 77058
L90609 77030
L90665 77002
L90750 77002
L90806 77030
L90834 77086
L90834 77395
" />
<path d="M91031 77002
L91256 77002
" />
<path d="M91115 76805
L91115 77311
L91144 77367
L91200 77395
L91256 77395
" />
<path d="M91706 77002
L91706 77395
" />
<path d="M91453 77002
L91453 77311
L91481 77367
L91537 77395
L91622 77395
L91678 77367
L91706 77339
" />
<path d="M92296 77395
L91959 77395
" />
<path d="M92128 77395
L92128 76805
L92072 76889
L92015 76946
L91959 76974
" />
<path d="M92634 77058
L92578 77030
L92550 77002
L92521 76946
L92521 76917
L92550 76861
L92578 76833
L92634 76805
L92746 76805
L92803 76833
L92831 76861
L92859 76917
L92859 76946
L92831 77002
L92803 77030
L92746 77058
L92634 77058
L92578 77086
L92550 77114
L92521 77171
L92521 77283
L92550 77339
L92578 77367
L92634 77395
L92746 77395
L92803 77367
L92831 77339
L92859 77283
L92859 77171
L92831 77114
L92803 77086
L92746 77058
" />
<path d="M93112 77339
L93140 77367
L93112 77395
L93084 77367
L93112 77339
L93112 77395
" />
<path d="M93506 76805
L93562 76805
L93618 76833
L93646 76861
L93674 76917
L93703 77030
L93703 77171
L93674 77283
L93646 77339
L93618 77367
L93562 77395
L93506 77395
L93449 77367
L93421 77339
L93393 77283
L93365 77171
L93365 77030
L93393 76917
L93421 76861
L93449 76833
L93506 76805
" />
<path d="M94209 77002
L94209 77395
" />
<path d="M94068 76777
L93928 77199
L94293 77199
" />
<path d="M94518 77339
L94546 77367
L94518 77395
L94490 77367
L94518 77339
L94518 77395
" />
<path d="M95109 77395
L94771 77395
" />
<path d="M94940 77395
L94940 76805
L94884 76889
L94827 76946
L94771 76974
" />
</g>
<g style="fill:#000000; fill-opacity:0.0; 
stroke:#000000; stroke-width:19.685; stroke-opacity:1; 
stroke-linecap:round; stroke-linejoin:round;">
</g>
<g style="fill:#000000; fill-opacity:0.0; 
stroke:#000000; stroke-width:59.0551; stroke-opacity:1; 
stroke-linecap:round; stroke-linejoin:round;">
<path d="M69685 75396
L112205 75396
" />
</g>
<g style="fill:#000000; fill-opacity:0.0; 
stroke:#000000; stroke-width:19.685; stroke-opacity:1; 
stroke-linecap:round; stroke-linejoin:round;">
</g>
<g style="fill:#000000; fill-opacity:0.0; 
stroke:#000000; stroke-width:118.11; stroke-opacity:1; 
stroke-linecap:round; stroke-linejoin:round;">
<text x="103544" y="76321.7"
textLength="2899.33" font-size="787.402" lengthAdjust="spacingAndGlyphs"
text-anchor="start" opacity="0">Rev: 0</text>
<path d="M104099 76293
L103902 76012
" />
<path d="M103761 76293
L103761 75703
L103986 75703
L104042 75731
L104070 75759
L104099 75815
L104099 75899
L104070 75956
L104042 75984
L103986 76012
L103761 76012
" />
<path d="M104577 76265
L104520 76293
L104408 76293
L104352 76265
L104323 76209
L104323 75984
L104352 75928
L104408 75899
L104520 75899
L104577 75928
L104605 75984
L104605 76040
L104323 76096
" />
<path d="M104802 75899
L104942 76293
L105083 75899
" />
<path d="M105308 76237
L105336 76265
L105308 76293
L105280 76265
L105308 76237
L105308 76293
" />
<path d="M105308 75928
L105336 75956
L105308 75984
L105280 75956
L105308 75928
L105308 75984
" />
<path d="M106151 75703
L106208 75703
L106264 75731
L106292 75759
L106320 75815
L106348 75928
L106348 76068
L106320 76181
L106292 76237
L106264 76265
L106208 76293
L106151 76293
L106095 76265
L106067 76237
L106039 76181
L106011 76068
L106011 75928
L106039 75815
L106067 75759
L106095 75731
L106151 75703
" />
</g>
<g style="fill:#000000; fill-opacity:0.0; 
stroke:#000000; stroke-width:19.685; stroke-opacity:1; 
stroke-linecap:round; stroke-linejoin:round;">
</g>
<g style="fill:#000000; fill-opacity:0.0; 
stroke:#000000; stroke-width:59.0551; stroke-opacity:1; 
stroke-linecap:round; stroke-linejoin:round;">
<text x="70079.6" y="76321.7"
textLength="3781.21" font-size="787.402" lengthAdjust="spacingAndGlyphs"
text-anchor="start" opacity="0">Size: A4</text>
<path d="M70221 76265
L70305 76293
L70446 76293
L70502 76265
L70530 76237
L70559 76181
L70559 76124
L70530 76068
L70502 76040
L70446 76012
L70334 75984
L70277 75956
L70249 75928
L70221 75871
L70221 75815
L70249 75759
L70277 75731
L70334 75703
L70474 75703
L70559 75731
" />
<path d="M70812 76293
L70812 75899
" />
<path d="M70812 75703
L70784 75731
L70812 75759
L70840 75731
L70812 75703
L70812 75759
" />
<path d="M71037 75899
L71346 75899
L71037 76293
L71346 76293
" />
<path d="M71796 76265
L71740 76293
L71627 76293
L71571 76265
L71543 76209
L71543 75984
L71571 75928
L71627 75899
L71740 75899
L71796 75928
L71824 75984
L71824 76040
L71543 76096
" />
<path d="M72077 76237
L72105 76265
L72077 76293
L72049 76265
L72077 76237
L72077 76293
" />
<path d="M72077 75928
L72105 75956
L72077 75984
L72049 75956
L72077 75928
L72077 75984
" />
<path d="M72780 76124
L73061 76124
" />
<path d="M72724 76293
L72921 75703
L73118 76293
" />
<path d="M73568 75899
L73568 76293
" />
<path d="M73427 75674
L73286 76096
L73652 76096
" />
</g>
<g style="fill:#000000; fill-opacity:0.0; 
stroke:#000000; stroke-width:19.685; stroke-opacity:1; 
stroke-linecap:round; stroke-linejoin:round;">
</g>
<g style="fill:#000000; fill-opacity:0.0; 
stroke:#000000; stroke-width:59.0551; stroke-opacity:1; 
stroke-linecap:round; stroke-linejoin:round;">
<text x="103544" y="77424.1"
textLength="3349.27" font-size="787.402" lengthAdjust="spacingAndGlyphs"
text-anchor="start" opacity="0">Id: 1/1</text>
<path d="M103714 77395
L103714 76805
" />
<path d="M104248 77395
L104248 76805
" />
<path d="M104248 77367
L104192 77395
L104079 77395
L104023 77367
L103995 77339
L103967 77283
L103967 77114
L103995 77058
L104023 77030
L104079 77002
L104192 77002
L104248 77030
" />
<path d="M104529 77339
L104557 77367
L104529 77395
L104501 77367
L104529 77339
L104529 77395
" />
<path d="M104529 77030
L104557 77058
L104529 77086
L104501 77058
L104529 77030
L104529 77086
" />
<path d="M105570 77395
L105232 77395
" />
<path d="M105401 77395
L105401 76805
L105345 76889
L105289 76946
L105232 76974
" />
<path d="M106245 76777
L105739 77536
" />
<path d="M106751 77395
L106413 77395
" />
<path d="M106582 77395
L106582 76805
L106526 76889
L106470 76946
L106413 76974
" />
</g>
<g style="fill:#000000; fill-opacity:0.0; 
stroke:#000000; stroke-width:19.685; stroke-opacity:1; 
stroke-linecap:round; stroke-linejoin:round;">
</g>
<g style="fill:#000000; fill-opacity:0.0; 
stroke:#000000; stroke-width:59.0551; stroke-opacity:1; 
stroke-linecap:round; stroke-linejoin:round;">
<path d="M69685 73821
L112205 73821
" />
</g>
<g style="fill:#000000; fill-opacity:0.0; 
stroke:#000000; stroke-width:19.685; stroke-opacity:1; 
stroke-linecap:round; stroke-linejoin:round;">
</g>
<g style="fill:#000000; fill-opacity:0.0; 
stroke:#000000; stroke-width:157.48; stroke-opacity:1; 
stroke-linecap:round; stroke-linejoin:round;">
<text x="70079.6" y="74924.1"
textLength="16112.1" font-size="1049.87" lengthAdjust="spacingAndGlyphs"
text-anchor="start" opacity="0">Title: Cazorlita Buffer PCB</text>
<path d="M70360 74099
L70810 74099
" />
<path d="M70486 74886
L70585 74099
" />
<path d="M70974 74886
L71039 74361
" />
<path d="M71072 74099
L71030 74136
L71063 74174
L71105 74136
L71072 74099
L71063 74174
" />
<path d="M71302 74361
L71602 74361
" />
<path d="M71447 74099
L71363 74774
L71391 74849
L71461 74886
L71536 74886
" />
<path d="M71911 74886
L71841 74849
L71813 74774
L71897 74099
" />
<path d="M72516 74849
L72436 74886
L72286 74886
L72216 74849
L72187 74774
L72225 74474
L72272 74399
L72352 74361
L72501 74361
L72572 74399
L72600 74474
L72591 74549
L72206 74624
" />
<path d="M72895 74811
L72928 74849
L72886 74886
L72853 74849
L72895 74811
L72886 74886
" />
<path d="M72947 74399
L72980 74436
L72937 74474
L72905 74436
L72947 74399
L72937 74474
" />
<path d="M74320 74811
L74278 74849
L74161 74886
L74086 74886
L73978 74849
L73912 74774
L73884 74699
L73865 74549
L73879 74436
L73936 74286
L73983 74211
L74067 74136
L74184 74099
L74259 74099
L74367 74136
L74400 74174
" />
<path d="M74986 74886
L75037 74474
L75009 74399
L74939 74361
L74789 74361
L74709 74399
" />
<path d="M74990 74849
L74911 74886
L74723 74886
L74653 74849
L74625 74774
L74634 74699
L74681 74624
L74761 74586
L74948 74586
L75028 74549
" />
<path d="M75351 74361
L75764 74361
L75286 74886
L75698 74886
" />
<path d="M76110 74886
L76040 74849
L76007 74811
L75979 74736
L76007 74511
L76054 74436
L76096 74399
L76176 74361
L76289 74361
L76359 74399
L76392 74436
L76420 74511
L76392 74736
L76345 74811
L76303 74849
L76223 74886
L76110 74886
" />
<path d="M76710 74886
L76776 74361
" />
<path d="M76757 74511
L76804 74436
L76846 74399
L76926 74361
L77001 74361
" />
<path d="M77310 74886
L77240 74849
L77212 74774
L77296 74099
" />
<path d="M77610 74886
L77676 74361
" />
<path d="M77709 74099
L77666 74136
L77699 74174
L77741 74136
L77709 74099
L77699 74174
" />
<path d="M77938 74361
L78238 74361
" />
<path d="M78084 74099
L77999 74774
L78027 74849
L78098 74886
L78173 74886
" />
<path d="M78773 74886
L78824 74474
L78796 74399
L78726 74361
L78576 74361
L78496 74399
" />
<path d="M78777 74849
L78698 74886
L78510 74886
L78440 74849
L78412 74774
L78421 74699
L78468 74624
L78548 74586
L78735 74586
L78815 74549
" />
<path d="M80061 74474
L80169 74511
L80202 74549
L80230 74624
L80216 74736
L80169 74811
L80127 74849
L80047 74886
L79747 74886
L79846 74099
L80108 74099
L80179 74136
L80211 74174
L80240 74249
L80230 74324
L80183 74399
L80141 74436
L80061 74474
L79799 74474
" />
<path d="M80938 74361
L80872 74886
" />
<path d="M80600 74361
L80549 74774
L80577 74849
L80647 74886
L80760 74886
L80840 74849
L80882 74811
" />
<path d="M81200 74361
L81500 74361
" />
<path d="M81247 74886
L81332 74211
L81379 74136
L81458 74099
L81533 74099
" />
<path d="M81650 74361
L81950 74361
" />
<path d="M81697 74886
L81782 74211
L81828 74136
L81908 74099
L81983 74099
" />
<path d="M82452 74849
L82372 74886
L82222 74886
L82152 74849
L82124 74774
L82161 74474
L82208 74399
L82288 74361
L82438 74361
L82508 74399
L82536 74474
L82527 74549
L82142 74624
" />
<path d="M82822 74886
L82888 74361
" />
<path d="M82869 74511
L82916 74436
L82958 74399
L83038 74361
L83113 74361
" />
<path d="M83909 74886
L84008 74099
L84308 74099
L84378 74136
L84411 74174
L84439 74249
L84425 74361
L84378 74436
L84336 74474
L84256 74511
L83956 74511
" />
<path d="M85156 74811
L85114 74849
L84997 74886
L84922 74886
L84814 74849
L84748 74774
L84720 74699
L84702 74549
L84716 74436
L84772 74286
L84819 74211
L84903 74136
L85020 74099
L85095 74099
L85203 74136
L85236 74174
" />
<path d="M85798 74474
L85906 74511
L85939 74549
L85967 74624
L85953 74736
L85906 74811
L85864 74849
L85784 74886
L85484 74886
L85583 74099
L85845 74099
L85915 74136
L85948 74174
L85976 74249
L85967 74324
L85920 74399
L85878 74436
L85798 74474
L85536 74474
" />
</g>
<g style="fill:#000000; fill-opacity:0.0; 
stroke:#000000; stroke-width:19.685; stroke-opacity:1; 
stroke-linecap:round; stroke-linejoin:round;">
</g>
<g style="fill:#000000; fill-opacity:0.0; 
stroke:#000000; stroke-width:59.0551; stroke-opacity:1; 
stroke-linecap:round; stroke-linejoin:round;">
<text x="70079.6" y="73408.3"
textLength="11144" font-size="787.402" lengthAdjust="spacingAndGlyphs"
text-anchor="start" opacity="0">File: Cazorlita.kicad_pcb</text>
<path d="M70446 73070
L70249 73070
" />
<path d="M70249 73380
L70249 72789
L70530 72789
" />
<path d="M70755 73380
L70755 72986
" />
<path d="M70755 72789
L70727 72817
L70755 72845
L70784 72817
L70755 72789
L70755 72845
" />
<path d="M71121 73380
L71065 73352
L71037 73295
L71037 72789
" />
<path d="M71571 73352
L71515 73380
L71402 73380
L71346 73352
L71318 73295
L71318 73070
L71346 73014
L71402 72986
L71515 72986
L71571 73014
L71599 73070
L71599 73127
L71318 73183
" />
<path d="M71852 73323
L71880 73352
L71852 73380
L71824 73352
L71852 73323
L71852 73380
" />
<path d="M71852 73014
L71880 73042
L71852 73070
L71824 73042
L71852 73014
L71852 73070
" />
<path d="M72921 73323
L72893 73352
L72808 73380
L72752 73380
L72668 73352
L72611 73295
L72583 73239
L72555 73127
L72555 73042
L72583 72930
L72611 72874
L72668 72817
L72752 72789
L72808 72789
L72893 72817
L72921 72845
" />
<path d="M73427 73380
L73427 73070
L73399 73014
L73343 72986
L73230 72986
L73174 73014
" />
<path d="M73427 73352
L73371 73380
L73230 73380
L73174 73352
L73146 73295
L73146 73239
L73174 73183
L73230 73155
L73371 73155
L73427 73127
" />
<path d="M73652 72986
L73961 72986
L73652 73380
L73961 73380
" />
<path d="M74271 73380
L74214 73352
L74186 73323
L74158 73267
L74158 73099
L74186 73042
L74214 73014
L74271 72986
L74355 72986
L74411 73014
L74439 73042
L74467 73099
L74467 73267
L74439 73323
L74411 73352
L74355 73380
L74271 73380
" />
<path d="M74721 73380
L74721 72986
" />
<path d="M74721 73099
L74749 73042
L74777 73014
L74833 72986
L74889 72986
" />
<path d="M75171 73380
L75114 73352
L75086 73295
L75086 72789
" />
<path d="M75395 73380
L75395 72986
" />
<path d="M75395 72789
L75367 72817
L75395 72845
L75424 72817
L75395 72789
L75395 72845
" />
<path d="M75592 72986
L75817 72986
" />
<path d="M75677 72789
L75677 73295
L75705 73352
L75761 73380
L75817 73380
" />
<path d="M76267 73380
L76267 73070
L76239 73014
L76183 72986
L76070 72986
L76014 73014
" />
<path d="M76267 73352
L76211 73380
L76070 73380
L76014 73352
L75986 73295
L75986 73239
L76014 73183
L76070 73155
L76211 73155
L76267 73127
" />
<path d="M76548 73323
L76577 73352
L76548 73380
L76520 73352
L76548 73323
L76548 73380
" />
<path d="M76830 73380
L76830 72789
" />
<path d="M76886 73155
L77055 73380
" />
<path d="M77055 72986
L76830 73211
" />
<path d="M77308 73380
L77308 72986
" />
<path d="M77308 72789
L77280 72817
L77308 72845
L77336 72817
L77308 72789
L77308 72845
" />
<path d="M77842 73352
L77786 73380
L77673 73380
L77617 73352
L77589 73323
L77561 73267
L77561 73099
L77589 73042
L77617 73014
L77673 72986
L77786 72986
L77842 73014
" />
<path d="M78348 73380
L78348 73070
L78320 73014
L78264 72986
L78151 72986
L78095 73014
" />
<path d="M78348 73352
L78292 73380
L78151 73380
L78095 73352
L78067 73295
L78067 73239
L78095 73183
L78151 73155
L78292 73155
L78348 73127
" />
<path d="M78883 73380
L78883 72789
" />
<path d="M78883 73352
L78826 73380
L78714 73380
L78658 73352
L78629 73323
L78601 73267
L78601 73099
L78629 73042
L78658 73014
L78714 72986
L78826 72986
L78883 73014
" />
<path d="M79023 73436
L79473 73436
" />
<path d="M79614 72986
L79614 73577
" />
<path d="M79614 73014
L79670 72986
L79782 72986
L79839 73014
L79867 73042
L79895 73099
L79895 73267
L79867 73323
L79839 73352
L79782 73380
L79670 73380
L79614 73352
" />
<path d="M80401 73352
L80345 73380
L80232 73380
L80176 73352
L80148 73323
L80120 73267
L80120 73099
L80148 73042
L80176 73014
L80232 72986
L80345 72986
L80401 73014
" />
<path d="M80654 73380
L80654 72789
" />
<path d="M80654 73014
L80710 72986
L80823 72986
L80879 73014
L80907 73042
L80935 73099
L80935 73267
L80907 73323
L80879 73352
L80823 73380
L80710 73380
L80654 73352
" />
</g>
<g style="fill:#000000; fill-opacity:0.0; 
stroke:#000000; stroke-width:19.685; stroke-opacity:1; 
stroke-linecap:round; stroke-linejoin:round;">
</g>
<g style="fill:#000000; fill-opacity:0.0; 
stroke:#000000; stroke-width:59.0551; stroke-opacity:1; 
stroke-linecap:round; stroke-linejoin:round;">
<path d="M69685 71459
L112205 71459
" />
</g>
<g style="fill:#000000; fill-opacity:0.0; 
stroke:#000000; stroke-width:19.685; stroke-opacity:1; 
stroke-linecap:round; stroke-linejoin:round;">
</g>
<g style="fill:#000000; fill-opacity:0.0; 
stroke:#000000; stroke-width:59.0551; stroke-opacity:1; 
stroke-linecap:round; stroke-linejoin:round;">
<text x="70079.6" y="72345.4"
textLength="3236.78" font-size="787.402" lengthAdjust="spacingAndGlyphs"
text-anchor="start" opacity="0">Sheet: </text>
<path d="M70221 72289
L70305 72317
L70446 72317
L70502 72289
L70530 72260
L70559 72204
L70559 72148
L70530 72092
L70502 72064
L70446 72036
L70334 72007
L70277 71979
L70249 71951
L70221 71895
L70221 71839
L70249 71782
L70277 71754
L70334 71726
L70474 71726
L70559 71754
" />
<path d="M70812 72317
L70812 71726
" />
<path d="M71065 72317
L71065 72007
L71037 71951
L70980 71923
L70896 71923
L70840 71951
L70812 71979
" />
<path d="M71571 72289
L71515 72317
L71402 72317
L71346 72289
L71318 72232
L71318 72007
L71346 71951
L71402 71923
L71515 71923
L71571 71951
L71599 72007
L71599 72064
L71318 72120
" />
<path d="M72077 72289
L72021 72317
L71908 72317
L71852 72289
L71824 72232
L71824 72007
L71852 71951
L71908 71923
L72021 71923
L72077 71951
L72105 72007
L72105 72064
L71824 72120
" />
<path d="M72274 71923
L72499 71923
" />
<path d="M72358 71726
L72358 72232
L72386 72289
L72443 72317
L72499 72317
" />
<path d="M72696 72260
L72724 72289
L72696 72317
L72668 72289
L72696 72260
L72696 72317
" />
<path d="M72696 71951
L72724 71979
L72696 72007
L72668 71979
L72696 71951
L72696 72007
" />
</g>
<g style="fill:#000000; fill-opacity:0.0; 
stroke:#000000; stroke-width:19.685; stroke-opacity:1; 
stroke-linecap:round; stroke-linejoin:round;">
</g>
<g style="fill:#000000; fill-opacity:0.0; 
stroke:#000000; stroke-width:59.0551; stroke-opacity:1; 
stroke-linecap:round; stroke-linejoin:round;">
<path d="M77559 75396
L77559 76577
" />
</g>
<g style="fill:#000000; fill-opacity:0.0; 
stroke:#000000; stroke-width:19.685; stroke-opacity:1; 
stroke-linecap:round; stroke-linejoin:round;">
</g>
<g style="fill:#000000; fill-opacity:0.0; 
stroke:#000000; stroke-width:59.0551; stroke-opacity:1; 
stroke-linecap:round; stroke-linejoin:round;">
<path d="M102756 75396
L102756 77955
" />
</g>
<g style="fill:#008484; fill-opacity:0.0; 
stroke:#008484; stroke-width:59.0551; stroke-opacity:1; 
stroke-linecap:round; stroke-linejoin:round;">
<text x="40290" y="44996.9"
textLength="1840.08" font-size="524.934" lengthAdjust="spacingAndGlyphs"
text-anchor="middle" opacity="0">Masse</text>
<path d="M39493 44978
L39493 44584
L39624 44865
L39755 44584
L39755 44978
" />
<path d="M40111 44978
L40111 44771
L40093 44734
L40055 44715
L39980 44715
L39943 44734
" />
<path d="M40111 44959
L40074 44978
L39980 44978
L39943 44959
L39924 44921
L39924 44884
L39943 44846
L39980 44828
L40074 44828
L40111 44809
" />
<path d="M40280 44959
L40318 44978
L40393 44978
L40430 44959
L40449 44921
L40449 44903
L40430 44865
L40393 44846
L40336 44846
L40299 44828
L40280 44790
L40280 44771
L40299 44734
L40336 44715
L40393 44715
L40430 44734
" />
<path d="M40599 44959
L40636 44978
L40711 44978
L40749 44959
L40768 44921
L40768 44903
L40749 44865
L40711 44846
L40655 44846
L40618 44828
L40599 44790
L40599 44771
L40618 44734
L40655 44715
L40711 44715
L40749 44734
" />
<path d="M41086 44959
L41049 44978
L40974 44978
L40936 44959
L40918 44921
L40918 44771
L40936 44734
L40974 44715
L41049 44715
L41086 44734
L41105 44771
L41105 44809
L40918 44846
" />
<text x="40340" y="49466.9"
textLength="1932.79" font-size="524.934" lengthAdjust="spacingAndGlyphs"
text-anchor="middle" opacity="0">Entrée</text>
<path d="M39505 49241
L39636 49241
" />
<path d="M39693 49448
L39505 49448
L39505 49054
L39693 49054
" />
<path d="M39861 49185
L39861 49448
" />
<path d="M39861 49223
L39880 49204
L39918 49185
L39974 49185
L40011 49204
L40030 49241
L40030 49448
" />
<path d="M40161 49185
L40311 49185
" />
<path d="M40218 49054
L40218 49391
L40236 49429
L40274 49448
L40311 49448
" />
<path d="M40443 49448
L40443 49185
" />
<path d="M40443 49260
L40461 49223
L40480 49204
L40518 49185
L40555 49185
" />
<path d="M40836 49429
L40799 49448
L40724 49448
L40686 49429
L40668 49391
L40668 49241
L40686 49204
L40724 49185
L40799 49185
L40836 49204
L40855 49241
L40855 49279
L40668 49316
" />
<path d="M40799 49035
L40743 49091
" />
<path d="M41174 49429
L41136 49448
L41061 49448
L41024 49429
L41005 49391
L41005 49241
L41024 49204
L41061 49185
L41136 49185
L41174 49204
L41193 49241
L41193 49279
L41005 49316
" />
<text x="51610" y="49316.9"
textLength="1801.56" font-size="524.934" lengthAdjust="spacingAndGlyphs"
text-anchor="middle" opacity="0">Sortie</text>
<path d="M50822 49279
L50878 49298
L50972 49298
L51010 49279
L51028 49260
L51047 49223
L51047 49185
L51028 49148
L51010 49129
L50972 49110
L50897 49091
L50860 49073
L50841 49054
L50822 49016
L50822 48979
L50841 48941
L50860 48923
L50897 48904
L50991 48904
L51047 48923
" />
<path d="M51272 49298
L51235 49279
L51216 49260
L51197 49223
L51197 49110
L51216 49073
L51235 49054
L51272 49035
L51328 49035
L51366 49054
L51385 49073
L51403 49110
L51403 49223
L51385 49260
L51366 49279
L51328 49298
L51272 49298
" />
<path d="M51572 49298
L51572 49035
" />
<path d="M51572 49110
L51591 49073
L51610 49054
L51647 49035
L51684 49035
" />
<path d="M51759 49035
L51909 49035
" />
<path d="M51816 48904
L51816 49241
L51834 49279
L51872 49298
L51909 49298
" />
<path d="M52041 49298
L52041 49035
" />
<path d="M52041 48904
L52022 48923
L52041 48941
L52059 48923
L52041 48904
L52041 48941
" />
<path d="M52378 49279
L52341 49298
L52266 49298
L52228 49279
L52209 49241
L52209 49091
L52228 49054
L52266 49035
L52341 49035
L52378 49054
L52397 49091
L52397 49129
L52209 49166
" />
<text x="47040" y="44876.9"
textLength="3038.9" font-size="524.934" lengthAdjust="spacingAndGlyphs"
text-anchor="middle" opacity="0">+9v  GND</text>
<path d="M45652 44708
L45952 44708
" />
<path d="M45802 44858
L45802 44558
" />
<path d="M46158 44858
L46233 44858
L46271 44839
L46290 44820
L46327 44764
L46346 44689
L46346 44539
L46327 44501
L46308 44483
L46271 44464
L46196 44464
L46158 44483
L46140 44501
L46121 44539
L46121 44633
L46140 44670
L46158 44689
L46196 44708
L46271 44708
L46308 44689
L46327 44670
L46346 44633
" />
<path d="M46477 44595
L46571 44858
L46665 44595
" />
<path d="M47621 44483
L47583 44464
L47527 44464
L47471 44483
L47433 44520
L47414 44558
L47396 44633
L47396 44689
L47414 44764
L47433 44801
L47471 44839
L47527 44858
L47564 44858
L47621 44839
L47639 44820
L47639 44689
L47564 44689
" />
<path d="M47808 44858
L47808 44464
L48033 44858
L48033 44464
" />
<path d="M48221 44858
L48221 44464
L48314 44464
L48371 44483
L48408 44520
L48427 44558
L48446 44633
L48446 44689
L48427 44764
L48408 44801
L48371 44839
L48314 44858
L48221 44858
" />
<text x="51070" y="45182"
textLength="2720.19" font-size="524.934" lengthAdjust="spacingAndGlyphs"
text-anchor="middle" opacity="0">Cazorlita</text>
<path d="M50067 45125
L50048 45144
L49992 45163
L49954 45163
L49898 45144
L49860 45107
L49842 45069
L49823 44994
L49823 44938
L49842 44863
L49860 44825
L49898 44788
L49954 44769
L49992 44769
L50048 44788
L50067 44807
" />
<path d="M50404 45163
L50404 44957
L50385 44919
L50348 44900
L50273 44900
L50235 44919
" />
<path d="M50404 45144
L50366 45163
L50273 45163
L50235 45144
L50216 45107
L50216 45069
L50235 45032
L50273 45013
L50366 45013
L50404 44994
" />
<path d="M50554 44900
L50760 44900
L50554 45163
L50760 45163
" />
<path d="M50966 45163
L50929 45144
L50910 45125
L50891 45088
L50891 44975
L50910 44938
L50929 44919
L50966 44900
L51023 44900
L51060 44919
L51079 44938
L51098 44975
L51098 45088
L51079 45125
L51060 45144
L51023 45163
L50966 45163
" />
<path d="M51266 45163
L51266 44900
" />
<path d="M51266 44975
L51285 44938
L51304 44919
L51341 44900
L51379 44900
" />
<path d="M51566 45163
L51529 45144
L51510 45107
L51510 44769
" />
<path d="M51716 45163
L51716 44900
" />
<path d="M51716 44769
L51698 44788
L51716 44807
L51735 44788
L51716 44769
L51716 44807
" />
<path d="M51848 44900
L51998 44900
" />
<path d="M51904 44769
L51904 45107
L51923 45144
L51960 45163
L51998 45163
" />
<path d="M52297 45163
L52297 44957
L52279 44919
L52241 44900
L52166 44900
L52129 44919
" />
<path d="M52297 45144
L52260 45163
L52166 45163
L52129 45144
L52110 45107
L52110 45069
L52129 45032
L52166 45013
L52260 45013
L52297 44994
" />
<text x="51070" y="45831.7"
textLength="1857.8" font-size="524.934" lengthAdjust="spacingAndGlyphs"
text-anchor="middle" opacity="0">Buffer</text>
<path d="M50404 45606
L50460 45625
L50479 45644
L50498 45681
L50498 45737
L50479 45775
L50460 45794
L50423 45812
L50273 45812
L50273 45419
L50404 45419
L50441 45437
L50460 45456
L50479 45494
L50479 45531
L50460 45569
L50441 45587
L50404 45606
L50273 45606
" />
<path d="M50835 45550
L50835 45812
" />
<path d="M50666 45550
L50666 45756
L50685 45794
L50723 45812
L50779 45812
L50816 45794
L50835 45775
" />
<path d="M50966 45550
L51116 45550
" />
<path d="M51023 45812
L51023 45475
L51041 45437
L51079 45419
L51116 45419
" />
<path d="M51191 45550
L51341 45550
" />
<path d="M51248 45812
L51248 45475
L51266 45437
L51304 45419
L51341 45419
" />
<path d="M51623 45794
L51585 45812
L51510 45812
L51473 45794
L51454 45756
L51454 45606
L51473 45569
L51510 45550
L51585 45550
L51623 45569
L51641 45606
L51641 45644
L51454 45681
" />
<path d="M51810 45812
L51810 45550
" />
<path d="M51810 45625
L51829 45587
L51848 45569
L51885 45550
L51923 45550
" />
</g>
<g style="fill:#008484; fill-opacity:0.0; 
stroke:#008484; stroke-width:47.2441; stroke-opacity:1; 
stroke-linecap:round; stroke-linejoin:round;">
<path d="M43435 49767
L42940 49767
" />
<path d="M43435 50492
L42940 50492
" />
<path d="M49104 46687
L49599 46687
" />
<path d="M49104 47412
L49599 47412
" />
<path d="M48506 48730
L48506 48927
" />
<path d="M48407 48829
L48604 48829
" />
<path d="M50536 49298
L50536 49521
" />
<path d="M50520 49206
L50520 49613
" />
<path d="M50504 49143
L50504 49676
" />
<path d="M50488 49093
L50488 49726
" />
<path d="M50473 49049
L50473 49770
" />
<path d="M50457 49011
L50457 49808
" />
<path d="M50441 48977
L50441 49842
" />
<path d="M50425 48946
L50425 49873
" />
<path d="M50410 49819
L50410 49902
" />
<path d="M50410 48917
L50410 49000
" />
<path d="M50394 49819
L50394 49929
" />
<path d="M50394 48890
L50394 49000
" />
<path d="M50378 49819
L50378 49954
" />
<path d="M50378 48865
L50378 49000
" />
<path d="M50362 49819
L50362 49978
" />
<path d="M50362 48841
L50362 49000
" />
<path d="M50347 49819
L50347 50000
" />
<path d="M50347 48819
L50347 49000
" />
<path d="M50331 49819
L50331 50021
" />
<path d="M50331 48798
L50331 49000
" />
<path d="M50315 49819
L50315 50041
" />
<path d="M50315 48778
L50315 49000
" />
<path d="M50299 49819
L50299 50060
" />
<path d="M50299 48759
L50299 49000
" />
<path d="M50284 49819
L50284 50078
" />
<path d="M50284 48741
L50284 49000
" />
<path d="M50268 49819
L50268 50096
" />
<path d="M50268 48723
L50268 49000
" />
<path d="M50252 49819
L50252 50112
" />
<path d="M50252 48707
L50252 49000
" />
<path d="M50236 49819
L50236 50128
" />
<path d="M50236 48691
L50236 49000
" />
<path d="M50221 49819
L50221 50143
" />
<path d="M50221 48676
L50221 49000
" />
<path d="M50205 49819
L50205 50158
" />
<path d="M50205 48661
L50205 49000
" />
<path d="M50189 49819
L50189 50172
" />
<path d="M50189 48647
L50189 49000
" />
<path d="M50173 49819
L50173 50185
" />
<path d="M50173 48634
L50173 49000
" />
<path d="M50158 49819
L50158 50198
" />
<path d="M50158 48621
L50158 49000
" />
<path d="M50142 49819
L50142 50211
" />
<path d="M50142 48608
L50142 49000
" />
<path d="M50126 49819
L50126 50222
" />
<path d="M50126 48597
L50126 49000
" />
<path d="M50110 49819
L50110 50234
" />
<path d="M50110 48585
L50110 49000
" />
<path d="M50095 49819
L50095 50245
" />
<path d="M50095 48574
L50095 49000
" />
<path d="M50079 49819
L50079 50256
" />
<path d="M50079 48563
L50079 49000
" />
<path d="M50063 49819
L50063 50266
" />
<path d="M50063 48553
L50063 49000
" />
<path d="M50047 49819
L50047 50276
" />
<path d="M50047 48543
L50047 49000
" />
<path d="M50032 49819
L50032 50285
" />
<path d="M50032 48534
L50032 49000
" />
<path d="M50016 49819
L50016 50294
" />
<path d="M50016 48525
L50016 49000
" />
<path d="M50000 49819
L50000 50302
" />
<path d="M50000 48517
L50000 49000
" />
<path d="M49984 49819
L49984 50311
" />
<path d="M49984 48508
L49984 49000
" />
<path d="M49969 49819
L49969 50319
" />
<path d="M49969 48500
L49969 49000
" />
<path d="M49953 49819
L49953 50326
" />
<path d="M49953 48493
L49953 49000
" />
<path d="M49937 49819
L49937 50334
" />
<path d="M49937 48485
L49937 49000
" />
<path d="M49921 49819
L49921 50341
" />
<path d="M49921 48478
L49921 49000
" />
<path d="M49906 49819
L49906 50347
" />
<path d="M49906 48472
L49906 49000
" />
<path d="M49890 49819
L49890 50354
" />
<path d="M49890 48465
L49890 49000
" />
<path d="M49874 49819
L49874 50360
" />
<path d="M49874 48459
L49874 49000
" />
<path d="M49858 49819
L49858 50365
" />
<path d="M49858 48454
L49858 49000
" />
<path d="M49843 49819
L49843 50371
" />
<path d="M49843 48448
L49843 49000
" />
<path d="M49827 49819
L49827 50376
" />
<path d="M49827 48443
L49827 49000
" />
<path d="M49811 49819
L49811 50381
" />
<path d="M49811 48438
L49811 49000
" />
<path d="M49795 49819
L49795 50386
" />
<path d="M49795 48433
L49795 49000
" />
<path d="M49779 49819
L49779 50390
" />
<path d="M49779 48429
L49779 49000
" />
<path d="M49764 49819
L49764 50394
" />
<path d="M49764 48425
L49764 49000
" />
<path d="M49748 49819
L49748 50398
" />
<path d="M49748 48421
L49748 49000
" />
<path d="M49732 49819
L49732 50402
" />
<path d="M49732 48417
L49732 49000
" />
<path d="M49716 49819
L49716 50405
" />
<path d="M49716 48414
L49716 49000
" />
<path d="M49701 49819
L49701 50408
" />
<path d="M49701 48411
L49701 49000
" />
<path d="M49685 49819
L49685 50411
" />
<path d="M49685 48408
L49685 49000
" />
<path d="M49669 49819
L49669 50413
" />
<path d="M49669 48406
L49669 49000
" />
<path d="M49653 49819
L49653 50416
" />
<path d="M49653 48403
L49653 49000
" />
<path d="M49638 49819
L49638 50418
" />
<path d="M49638 48401
L49638 49000
" />
<path d="M49622 49819
L49622 50419
" />
<path d="M49622 48400
L49622 49000
" />
<path d="M49606 49819
L49606 50421
" />
<path d="M49606 48398
L49606 49000
" />
<path d="M49590 48397
L49590 50422
" />
<path d="M49575 48395
L49575 50424
" />
<path d="M49559 48395
L49559 50424
" />
<path d="M49543 48394
L49543 50425
" />
<path d="M49527 48394
L49527 50425
" />
<path d="M49512 48394
L49512 50425
" />
<circle cx="49512.1" cy="49410" r="1031.5" /> 
<path d="M40036 50399
L40583 50399
" />
<path d="M40036 50399
L40036 50350
" />
<path d="M40583 50399
L40583 50350
" />
<path d="M40036 50399
L40070 50399
" />
<path d="M40549 50399
L40583 50399
" />
<path d="M40036 50130
L40036 49860
" />
<path d="M40036 49860
L40310 49860
" />
<path d="M40036 45500
L40310 45500
" />
<path d="M40036 45770
L40036 45500
" />
<path d="M40549 46039
L40583 46039
" />
<path d="M40036 46039
L40070 46039
" />
<path d="M40583 46039
L40583 45990
" />
<path d="M40036 46039
L40036 45990
" />
<path d="M40036 46039
L40583 46039
" />
<path d="M51316 50319
L51863 50319
" />
<path d="M51316 50319
L51316 50270
" />
<path d="M51863 50319
L51863 50270
" />
<path d="M51316 50319
L51350 50319
" />
<path d="M51829 50319
L51863 50319
" />
<path d="M51316 50050
L51316 49780
" />
<path d="M51316 49780
L51590 49780
" />
</g>
<g style="fill:#008484; fill-opacity:0.0; 
stroke:#008484; stroke-width:59.0551; stroke-opacity:1; 
stroke-linecap:round; stroke-linejoin:round;">
<path d="M43100 46290
L44100 46290
" />
<path d="M43100 48290
L43100 46290
" />
<path d="M44100 48290
L43100 48290
" />
<path d="M44100 46290
L44100 48290
" />
<path d="M41830 48260
L41830 46260
" />
<path d="M41830 46260
L42830 46260
" />
<path d="M42830 46260
L42830 48260
" />
<path d="M42830 48260
L41830 48260
" />
</g>
<g style="fill:#008484; fill-opacity:0.0; 
stroke:#008484; stroke-width:47.2441; stroke-opacity:1; 
stroke-linecap:round; stroke-linejoin:round;">
<path d="M48223 46263
L48223 45216
" />
<path d="M47200 46263
L48223 46263
" />
<path d="M47200 45216
L48223 45216
" />
<path d="M47200 46263
L47200 45216
" />
<path d="M46700 46263
L46176 46263
" />
<path d="M46176 46263
L46176 45740
" />
<path d="M45946 46576
L45296 46576
" />
<path d="M45296 46576
L45296 50623
" />
<path d="M45296 50623
L47383 50623
" />
<path d="M47383 50623
L47383 46576
" />
<path d="M47383 46576
L46733 46576
" />
<path d="M45946.3 46576.4 A393.701 393.701 0.0 0 0 46733.7 46576.4" />
</g>
<g style="fill:#008484; fill-opacity:0.0; 
stroke:#008484; stroke-width:59.0551; stroke-opacity:1; 
stroke-linecap:round; stroke-linejoin:round;">
<text x="43270" y="49666.9"
textLength="1895.29" font-size="524.934" lengthAdjust="spacingAndGlyphs"
text-anchor="middle" opacity="0">100nF</text>
<path d="M42660 49648
L42435 49648
" />
<path d="M42548 49648
L42548 49254
L42510 49310
L42473 49348
L42435 49366
" />
<path d="M42904 49254
L42941 49254
L42979 49273
L42998 49291
L43016 49329
L43035 49404
L43035 49498
L43016 49573
L42998 49610
L42979 49629
L42941 49648
L42904 49648
L42866 49629
L42848 49610
L42829 49573
L42810 49498
L42810 49404
L42829 49329
L42848 49291
L42866 49273
L42904 49254
" />
<path d="M43279 49254
L43316 49254
L43354 49273
L43373 49291
L43391 49329
L43410 49404
L43410 49498
L43391 49573
L43373 49610
L43354 49629
L43316 49648
L43279 49648
L43241 49629
L43223 49610
L43204 49573
L43185 49498
L43185 49404
L43204 49329
L43223 49291
L43241 49273
L43279 49254
" />
<path d="M43579 49385
L43579 49648
" />
<path d="M43579 49423
L43598 49404
L43635 49385
L43691 49385
L43729 49404
L43748 49441
L43748 49648
" />
<path d="M44066 49441
L43935 49441
" />
<path d="M43935 49648
L43935 49254
L44123 49254
" />
<text x="49350" y="46556.9"
textLength="1895.29" font-size="524.934" lengthAdjust="spacingAndGlyphs"
text-anchor="middle" opacity="0">100nF</text>
<path d="M48740 46538
L48515 46538
" />
<path d="M48628 46538
L48628 46144
L48590 46200
L48553 46238
L48515 46256
" />
<path d="M48984 46144
L49021 46144
L49059 46163
L49078 46181
L49096 46219
L49115 46294
L49115 46388
L49096 46463
L49078 46500
L49059 46519
L49021 46538
L48984 46538
L48946 46519
L48928 46500
L48909 46463
L48890 46388
L48890 46294
L48909 46219
L48928 46181
L48946 46163
L48984 46144
" />
<path d="M49359 46144
L49396 46144
L49434 46163
L49453 46181
L49471 46219
L49490 46294
L49490 46388
L49471 46463
L49453 46500
L49434 46519
L49396 46538
L49359 46538
L49321 46519
L49303 46500
L49284 46463
L49265 46388
L49265 46294
L49284 46219
L49303 46181
L49321 46163
L49359 46144
" />
<path d="M49659 46275
L49659 46538
" />
<path d="M49659 46313
L49678 46294
L49715 46275
L49771 46275
L49809 46294
L49828 46331
L49828 46538
" />
<path d="M50146 46331
L50015 46331
" />
<path d="M50015 46538
L50015 46144
L50203 46144
" />
<text x="49410" y="48256.9"
textLength="1576.58" font-size="524.934" lengthAdjust="spacingAndGlyphs"
text-anchor="middle" opacity="0">10µF</text>
<path d="M48960 48238
L48735 48238
" />
<path d="M48847 48238
L48847 47844
L48810 47900
L48772 47938
L48735 47956
" />
<path d="M49203 47844
L49241 47844
L49278 47863
L49297 47881
L49316 47919
L49335 47994
L49335 48088
L49316 48163
L49297 48200
L49278 48219
L49241 48238
L49203 48238
L49166 48219
L49147 48200
L49128 48163
L49110 48088
L49110 47994
L49128 47919
L49147 47881
L49166 47863
L49203 47844
" />
<path d="M49503 47975
L49503 48369
" />
<path d="M49691 48181
L49709 48219
L49747 48238
" />
<path d="M49503 48181
L49522 48219
L49559 48238
L49634 48238
L49672 48219
L49691 48181
L49691 47975
" />
<path d="M50047 48031
L49916 48031
" />
<path d="M49916 48238
L49916 47844
L50103 47844
" />
<g transform="rotate(-90 43620 47270)">
<text x="43620" y="47466.9"
textLength="901.669" font-size="524.934" lengthAdjust="spacingAndGlyphs"
text-anchor="middle" opacity="0">1M</text>
</g>
<path d="M43798 47382
L43798 47607
" />
<path d="M43798 47494
L43404 47494
L43460 47532
L43498 47569
L43516 47607
" />
<path d="M43798 47213
L43404 47213
L43685 47082
L43404 46951
L43798 46951
" />
<g transform="rotate(-90 42340 47280)">
<text x="42340" y="47476.9"
textLength="901.669" font-size="524.934" lengthAdjust="spacingAndGlyphs"
text-anchor="middle" opacity="0">1M</text>
</g>
<path d="M42518 47392
L42518 47617
" />
<path d="M42518 47504
L42124 47504
L42180 47542
L42218 47579
L42236 47617
" />
<path d="M42518 47223
L42124 47223
L42405 47092
L42124 46961
L42518 46961
" />
<g transform="rotate(-90 46410 48540)">
<text x="46410" y="48736.9"
textLength="2214" font-size="524.934" lengthAdjust="spacingAndGlyphs"
text-anchor="middle" opacity="0">TL071P</text>
</g>
<path d="M46194 49571
L46194 49346
" />
<path d="M46588 49458
L46194 49458
" />
<path d="M46588 49027
L46588 49214
L46194 49214
" />
<path d="M46194 48821
L46194 48783
L46213 48746
L46231 48727
L46269 48708
L46344 48689
L46438 48689
L46513 48708
L46550 48727
L46569 48746
L46588 48783
L46588 48821
L46569 48858
L46550 48877
L46513 48896
L46438 48914
L46344 48914
L46269 48896
L46231 48877
L46213 48858
L46194 48821
" />
<path d="M46194 48558
L46194 48296
L46588 48465
" />
<path d="M46588 47940
L46588 48165
" />
<path d="M46588 48052
L46194 48052
L46250 48090
L46288 48127
L46306 48165
" />
<path d="M46588 47771
L46194 47771
L46194 47621
L46213 47583
L46231 47565
L46269 47546
L46325 47546
L46363 47565
L46381 47583
L46400 47621
L46400 47771
" />
<g >
</g>
</g>
<g style="fill:#000000; fill-opacity:0.0; 
stroke:#000000; stroke-width:59.0551; stroke-opacity:1; 
stroke-linecap:round; stroke-linejoin:round;">
</g>
<g style="fill:#C2C200; fill-opacity:0.0; 
stroke:#C2C200; stroke-width:59.0551; stroke-opacity:1; 
stroke-linecap:round; stroke-linejoin:round;">
</g>
<g style="fill:#C2C200; fill-opacity:0.0; 
stroke:#C2C200; stroke-width:39.3701; stroke-opacity:1; 
stroke-linecap:round; stroke-linejoin:round;">
<path d="M52680 44370
L52680 50990
" />
<path d="M39180 44370
L52680 44370
" />
<path d="M39180 50990
L39180 44370
" />
<path d="M52680 50990
L39180 50990
" />
<g >
</g>
<g >
</g>
<g >
</g>
<g >
</g>
<g >
</g>
<g >
</g>
<g >
</g>
<g >
</g>
<g >
</g>
<g >
</g>
<g >
</g>
<g >
</g>
<g >
</g>
</g> 
</svg>
