<?xml version="1.0" standalone="no"?>
 <!DOCTYPE svg PUBLIC "-//W3C//DTD SVG 1.1//EN" 
 "http://www.w3.org/Graphics/SVG/1.1/DTD/svg11.dtd"> 
<svg
  xmlns:svg="http://www.w3.org/2000/svg"
  xmlns="http://www.w3.org/2000/svg"
  xmlns:xlink="http://www.w3.org/1999/xlink"
  version="1.1"
  width="29.700220cm" height="21.000720cm" viewBox="0 0 116930 82680">
<title>SVG Picture created as TigerBuffer-B_Fab.svg date 2021/04/04 20:10:21 </title>
  <desc>Picture generated by PCBNEW </desc>
<g style="fill:#000000; fill-opacity:1;stroke:#000000; stroke-opacity:1;
stroke-linecap:round; stroke-linejoin:round;"
 transform="translate(0 0) scale(1 1)">
</g>
<g style="fill:#000000; fill-opacity:0.0; 
stroke:#000000; stroke-width:-0.000393701; stroke-opacity:1; 
stroke-linecap:round; stroke-linejoin:round;">
</g>
<g style="fill:#000000; fill-opacity:0.0; 
stroke:#000000; stroke-width:19.685; stroke-opacity:1; 
stroke-linecap:round; stroke-linejoin:round;">
</g>
<g style="fill:#000000; fill-opacity:0.0; 
stroke:#000000; stroke-width:59.0551; stroke-opacity:1; 
stroke-linecap:round; stroke-linejoin:round;">
<rect x="69685.9" y="65357.2" width="42519.7" height="12598.4" rx="0" />
</g>
<g style="fill:#000000; fill-opacity:0.0; 
stroke:#000000; stroke-width:19.685; stroke-opacity:1; 
stroke-linecap:round; stroke-linejoin:round;">
</g>
<g style="fill:#000000; fill-opacity:0.0; 
stroke:#000000; stroke-width:59.0551; stroke-opacity:1; 
stroke-linecap:round; stroke-linejoin:round;">
<rect x="3937.01" y="3937.01" width="109056" height="74806" rx="0" />
</g>
<g style="fill:#000000; fill-opacity:0.0; 
stroke:#000000; stroke-width:19.685; stroke-opacity:1; 
stroke-linecap:round; stroke-linejoin:round;">
</g>
<g style="fill:#000000; fill-opacity:0.0; 
stroke:#000000; stroke-width:59.0551; stroke-opacity:1; 
stroke-linecap:round; stroke-linejoin:round;">
<rect x="4724.41" y="4724.41" width="107481" height="73231.2" rx="0" />
</g>
<g style="fill:#000000; fill-opacity:0.0; 
stroke:#000000; stroke-width:19.685; stroke-opacity:1; 
stroke-linecap:round; stroke-linejoin:round;">
</g>
<g style="fill:#000000; fill-opacity:0.0; 
stroke:#000000; stroke-width:59.0551; stroke-opacity:1; 
stroke-linecap:round; stroke-linejoin:round;">
<path d="M23622 4724
L23622 3937
" />
</g>
<g style="fill:#000000; fill-opacity:0.0; 
stroke:#000000; stroke-width:19.685; stroke-opacity:1; 
stroke-linecap:round; stroke-linejoin:round;">
</g>
<g style="fill:#000000; fill-opacity:0.0; 
stroke:#000000; stroke-width:59.0551; stroke-opacity:1; 
stroke-linecap:round; stroke-linejoin:round;">
<path d="M43307 4724
L43307 3937
" />
</g>
<g style="fill:#000000; fill-opacity:0.0; 
stroke:#000000; stroke-width:19.685; stroke-opacity:1; 
stroke-linecap:round; stroke-linejoin:round;">
</g>
<g style="fill:#000000; fill-opacity:0.0; 
stroke:#000000; stroke-width:59.0551; stroke-opacity:1; 
stroke-linecap:round; stroke-linejoin:round;">
<path d="M62992 4724
L62992 3937
" />
</g>
<g style="fill:#000000; fill-opacity:0.0; 
stroke:#000000; stroke-width:19.685; stroke-opacity:1; 
stroke-linecap:round; stroke-linejoin:round;">
</g>
<g style="fill:#000000; fill-opacity:0.0; 
stroke:#000000; stroke-width:59.0551; stroke-opacity:1; 
stroke-linecap:round; stroke-linejoin:round;">
<path d="M82677 4724
L82677 3937
" />
</g>
<g style="fill:#000000; fill-opacity:0.0; 
stroke:#000000; stroke-width:19.685; stroke-opacity:1; 
stroke-linecap:round; stroke-linejoin:round;">
</g>
<g style="fill:#000000; fill-opacity:0.0; 
stroke:#000000; stroke-width:59.0551; stroke-opacity:1; 
stroke-linecap:round; stroke-linejoin:round;">
<path d="M102362 4724
L102362 3937
" />
</g>
<g style="fill:#000000; fill-opacity:0.0; 
stroke:#000000; stroke-width:19.685; stroke-opacity:1; 
stroke-linecap:round; stroke-linejoin:round;">
</g>
<g style="fill:#000000; fill-opacity:0.0; 
stroke:#000000; stroke-width:59.0551; stroke-opacity:1; 
stroke-linecap:round; stroke-linejoin:round;">
<text x="13779.5" y="4586.61"
textLength="546.494" font-size="682.415" lengthAdjust="spacingAndGlyphs"
text-anchor="start" opacity="0">1</text>
<path d="M14199 4562
L13906 4562
" />
<path d="M14052 4562
L14052 4050
L14004 4123
L13955 4172
L13906 4196
" />
</g>
<g style="fill:#000000; fill-opacity:0.0; 
stroke:#000000; stroke-width:19.685; stroke-opacity:1; 
stroke-linecap:round; stroke-linejoin:round;">
</g>
<g style="fill:#000000; fill-opacity:0.0; 
stroke:#000000; stroke-width:59.0551; stroke-opacity:1; 
stroke-linecap:round; stroke-linejoin:round;">
<text x="33464.6" y="4586.61"
textLength="546.494" font-size="682.415" lengthAdjust="spacingAndGlyphs"
text-anchor="start" opacity="0">2</text>
<path d="M33591 4099
L33615 4074
L33664 4050
L33786 4050
L33835 4074
L33859 4099
L33884 4147
L33884 4196
L33859 4269
L33567 4562
L33884 4562
" />
</g>
<g style="fill:#000000; fill-opacity:0.0; 
stroke:#000000; stroke-width:19.685; stroke-opacity:1; 
stroke-linecap:round; stroke-linejoin:round;">
</g>
<g style="fill:#000000; fill-opacity:0.0; 
stroke:#000000; stroke-width:59.0551; stroke-opacity:1; 
stroke-linecap:round; stroke-linejoin:round;">
<text x="53149.6" y="4586.61"
textLength="546.494" font-size="682.415" lengthAdjust="spacingAndGlyphs"
text-anchor="start" opacity="0">3</text>
<path d="M53252 4050
L53569 4050
L53398 4245
L53471 4245
L53520 4269
L53544 4294
L53569 4342
L53569 4464
L53544 4513
L53520 4537
L53471 4562
L53325 4562
L53276 4537
L53252 4513
" />
</g>
<g style="fill:#000000; fill-opacity:0.0; 
stroke:#000000; stroke-width:19.685; stroke-opacity:1; 
stroke-linecap:round; stroke-linejoin:round;">
</g>
<g style="fill:#000000; fill-opacity:0.0; 
stroke:#000000; stroke-width:59.0551; stroke-opacity:1; 
stroke-linecap:round; stroke-linejoin:round;">
<text x="72834.6" y="4586.61"
textLength="546.494" font-size="682.415" lengthAdjust="spacingAndGlyphs"
text-anchor="start" opacity="0">4</text>
<path d="M73205 4221
L73205 4562
" />
<path d="M73083 4026
L72961 4391
L73278 4391
" />
</g>
<g style="fill:#000000; fill-opacity:0.0; 
stroke:#000000; stroke-width:19.685; stroke-opacity:1; 
stroke-linecap:round; stroke-linejoin:round;">
</g>
<g style="fill:#000000; fill-opacity:0.0; 
stroke:#000000; stroke-width:59.0551; stroke-opacity:1; 
stroke-linecap:round; stroke-linejoin:round;">
<text x="92519.7" y="4586.61"
textLength="546.494" font-size="682.415" lengthAdjust="spacingAndGlyphs"
text-anchor="start" opacity="0">5</text>
<path d="M92914 4050
L92671 4050
L92646 4294
L92671 4269
L92719 4245
L92841 4245
L92890 4269
L92914 4294
L92939 4342
L92939 4464
L92914 4513
L92890 4537
L92841 4562
L92719 4562
L92671 4537
L92646 4513
" />
</g>
<g style="fill:#000000; fill-opacity:0.0; 
stroke:#000000; stroke-width:19.685; stroke-opacity:1; 
stroke-linecap:round; stroke-linejoin:round;">
</g>
<g style="fill:#000000; fill-opacity:0.0; 
stroke:#000000; stroke-width:59.0551; stroke-opacity:1; 
stroke-linecap:round; stroke-linejoin:round;">
<text x="112205" y="4586.61"
textLength="546.494" font-size="682.415" lengthAdjust="spacingAndGlyphs"
text-anchor="start" opacity="0">6</text>
<path d="M112575 4050
L112477 4050
L112429 4074
L112404 4099
L112356 4172
L112331 4269
L112331 4464
L112356 4513
L112380 4537
L112429 4562
L112526 4562
L112575 4537
L112599 4513
L112624 4464
L112624 4342
L112599 4294
L112575 4269
L112526 4245
L112429 4245
L112380 4269
L112356 4294
L112331 4342
" />
</g>
<g style="fill:#000000; fill-opacity:0.0; 
stroke:#000000; stroke-width:19.685; stroke-opacity:1; 
stroke-linecap:round; stroke-linejoin:round;">
</g>
<g style="fill:#000000; fill-opacity:0.0; 
stroke:#000000; stroke-width:59.0551; stroke-opacity:1; 
stroke-linecap:round; stroke-linejoin:round;">
<path d="M23622 77955
L23622 78742
" />
</g>
<g style="fill:#000000; fill-opacity:0.0; 
stroke:#000000; stroke-width:19.685; stroke-opacity:1; 
stroke-linecap:round; stroke-linejoin:round;">
</g>
<g style="fill:#000000; fill-opacity:0.0; 
stroke:#000000; stroke-width:59.0551; stroke-opacity:1; 
stroke-linecap:round; stroke-linejoin:round;">
<path d="M43307 77955
L43307 78742
" />
</g>
<g style="fill:#000000; fill-opacity:0.0; 
stroke:#000000; stroke-width:19.685; stroke-opacity:1; 
stroke-linecap:round; stroke-linejoin:round;">
</g>
<g style="fill:#000000; fill-opacity:0.0; 
stroke:#000000; stroke-width:59.0551; stroke-opacity:1; 
stroke-linecap:round; stroke-linejoin:round;">
<path d="M62992 77955
L62992 78742
" />
</g>
<g style="fill:#000000; fill-opacity:0.0; 
stroke:#000000; stroke-width:19.685; stroke-opacity:1; 
stroke-linecap:round; stroke-linejoin:round;">
</g>
<g style="fill:#000000; fill-opacity:0.0; 
stroke:#000000; stroke-width:59.0551; stroke-opacity:1; 
stroke-linecap:round; stroke-linejoin:round;">
<path d="M82677 77955
L82677 78742
" />
</g>
<g style="fill:#000000; fill-opacity:0.0; 
stroke:#000000; stroke-width:19.685; stroke-opacity:1; 
stroke-linecap:round; stroke-linejoin:round;">
</g>
<g style="fill:#000000; fill-opacity:0.0; 
stroke:#000000; stroke-width:59.0551; stroke-opacity:1; 
stroke-linecap:round; stroke-linejoin:round;">
<path d="M102362 77955
L102362 78742
" />
</g>
<g style="fill:#000000; fill-opacity:0.0; 
stroke:#000000; stroke-width:19.685; stroke-opacity:1; 
stroke-linecap:round; stroke-linejoin:round;">
</g>
<g style="fill:#000000; fill-opacity:0.0; 
stroke:#000000; stroke-width:59.0551; stroke-opacity:1; 
stroke-linecap:round; stroke-linejoin:round;">
<text x="13779.5" y="78605.2"
textLength="546.494" font-size="682.415" lengthAdjust="spacingAndGlyphs"
text-anchor="start" opacity="0">1</text>
<path d="M14199 78580
L13906 78580
" />
<path d="M14052 78580
L14052 78069
L14004 78142
L13955 78190
L13906 78215
" />
</g>
<g style="fill:#000000; fill-opacity:0.0; 
stroke:#000000; stroke-width:19.685; stroke-opacity:1; 
stroke-linecap:round; stroke-linejoin:round;">
</g>
<g style="fill:#000000; fill-opacity:0.0; 
stroke:#000000; stroke-width:59.0551; stroke-opacity:1; 
stroke-linecap:round; stroke-linejoin:round;">
<text x="33464.6" y="78605.2"
textLength="546.494" font-size="682.415" lengthAdjust="spacingAndGlyphs"
text-anchor="start" opacity="0">2</text>
<path d="M33591 78117
L33615 78093
L33664 78069
L33786 78069
L33835 78093
L33859 78117
L33884 78166
L33884 78215
L33859 78288
L33567 78580
L33884 78580
" />
</g>
<g style="fill:#000000; fill-opacity:0.0; 
stroke:#000000; stroke-width:19.685; stroke-opacity:1; 
stroke-linecap:round; stroke-linejoin:round;">
</g>
<g style="fill:#000000; fill-opacity:0.0; 
stroke:#000000; stroke-width:59.0551; stroke-opacity:1; 
stroke-linecap:round; stroke-linejoin:round;">
<text x="53149.6" y="78605.2"
textLength="546.494" font-size="682.415" lengthAdjust="spacingAndGlyphs"
text-anchor="start" opacity="0">3</text>
<path d="M53252 78069
L53569 78069
L53398 78263
L53471 78263
L53520 78288
L53544 78312
L53569 78361
L53569 78483
L53544 78532
L53520 78556
L53471 78580
L53325 78580
L53276 78556
L53252 78532
" />
</g>
<g style="fill:#000000; fill-opacity:0.0; 
stroke:#000000; stroke-width:19.685; stroke-opacity:1; 
stroke-linecap:round; stroke-linejoin:round;">
</g>
<g style="fill:#000000; fill-opacity:0.0; 
stroke:#000000; stroke-width:59.0551; stroke-opacity:1; 
stroke-linecap:round; stroke-linejoin:round;">
<text x="72834.6" y="78605.2"
textLength="546.494" font-size="682.415" lengthAdjust="spacingAndGlyphs"
text-anchor="start" opacity="0">4</text>
<path d="M73205 78239
L73205 78580
" />
<path d="M73083 78044
L72961 78410
L73278 78410
" />
</g>
<g style="fill:#000000; fill-opacity:0.0; 
stroke:#000000; stroke-width:19.685; stroke-opacity:1; 
stroke-linecap:round; stroke-linejoin:round;">
</g>
<g style="fill:#000000; fill-opacity:0.0; 
stroke:#000000; stroke-width:59.0551; stroke-opacity:1; 
stroke-linecap:round; stroke-linejoin:round;">
<text x="92519.7" y="78605.2"
textLength="546.494" font-size="682.415" lengthAdjust="spacingAndGlyphs"
text-anchor="start" opacity="0">5</text>
<path d="M92914 78069
L92671 78069
L92646 78312
L92671 78288
L92719 78263
L92841 78263
L92890 78288
L92914 78312
L92939 78361
L92939 78483
L92914 78532
L92890 78556
L92841 78580
L92719 78580
L92671 78556
L92646 78532
" />
</g>
<g style="fill:#000000; fill-opacity:0.0; 
stroke:#000000; stroke-width:19.685; stroke-opacity:1; 
stroke-linecap:round; stroke-linejoin:round;">
</g>
<g style="fill:#000000; fill-opacity:0.0; 
stroke:#000000; stroke-width:59.0551; stroke-opacity:1; 
stroke-linecap:round; stroke-linejoin:round;">
<text x="112205" y="78605.2"
textLength="546.494" font-size="682.415" lengthAdjust="spacingAndGlyphs"
text-anchor="start" opacity="0">6</text>
<path d="M112575 78069
L112477 78069
L112429 78093
L112404 78117
L112356 78190
L112331 78288
L112331 78483
L112356 78532
L112380 78556
L112429 78580
L112526 78580
L112575 78556
L112599 78532
L112624 78483
L112624 78361
L112599 78312
L112575 78288
L112526 78263
L112429 78263
L112380 78288
L112356 78312
L112331 78361
" />
</g>
<g style="fill:#000000; fill-opacity:0.0; 
stroke:#000000; stroke-width:19.685; stroke-opacity:1; 
stroke-linecap:round; stroke-linejoin:round;">
</g>
<g style="fill:#000000; fill-opacity:0.0; 
stroke:#000000; stroke-width:59.0551; stroke-opacity:1; 
stroke-linecap:round; stroke-linejoin:round;">
<path d="M3937 23622
L4724 23622
" />
</g>
<g style="fill:#000000; fill-opacity:0.0; 
stroke:#000000; stroke-width:19.685; stroke-opacity:1; 
stroke-linecap:round; stroke-linejoin:round;">
</g>
<g style="fill:#000000; fill-opacity:0.0; 
stroke:#000000; stroke-width:59.0551; stroke-opacity:1; 
stroke-linecap:round; stroke-linejoin:round;">
<path d="M3937 43307
L4724 43307
" />
</g>
<g style="fill:#000000; fill-opacity:0.0; 
stroke:#000000; stroke-width:19.685; stroke-opacity:1; 
stroke-linecap:round; stroke-linejoin:round;">
</g>
<g style="fill:#000000; fill-opacity:0.0; 
stroke:#000000; stroke-width:59.0551; stroke-opacity:1; 
stroke-linecap:round; stroke-linejoin:round;">
<path d="M3937 62992
L4724 62992
" />
</g>
<g style="fill:#000000; fill-opacity:0.0; 
stroke:#000000; stroke-width:19.685; stroke-opacity:1; 
stroke-linecap:round; stroke-linejoin:round;">
</g>
<g style="fill:#000000; fill-opacity:0.0; 
stroke:#000000; stroke-width:59.0551; stroke-opacity:1; 
stroke-linecap:round; stroke-linejoin:round;">
<text x="4330.71" y="14035.4"
textLength="497.75" font-size="682.415" lengthAdjust="spacingAndGlyphs"
text-anchor="middle" opacity="0">A</text>
<path d="M4208 13864
L4452 13864
" />
<path d="M4160 14011
L4330 13499
L4501 14011
" />
</g>
<g style="fill:#000000; fill-opacity:0.0; 
stroke:#000000; stroke-width:19.685; stroke-opacity:1; 
stroke-linecap:round; stroke-linejoin:round;">
</g>
<g style="fill:#000000; fill-opacity:0.0; 
stroke:#000000; stroke-width:59.0551; stroke-opacity:1; 
stroke-linecap:round; stroke-linejoin:round;">
<text x="4330.71" y="33720.5"
textLength="570.866" font-size="682.415" lengthAdjust="spacingAndGlyphs"
text-anchor="middle" opacity="0">B</text>
<path d="M4367 33428
L4440 33452
L4464 33476
L4489 33525
L4489 33598
L4464 33647
L4440 33671
L4391 33696
L4196 33696
L4196 33184
L4367 33184
L4416 33208
L4440 33233
L4464 33281
L4464 33330
L4440 33379
L4416 33403
L4367 33428
L4196 33428
" />
</g>
<g style="fill:#000000; fill-opacity:0.0; 
stroke:#000000; stroke-width:19.685; stroke-opacity:1; 
stroke-linecap:round; stroke-linejoin:round;">
</g>
<g style="fill:#000000; fill-opacity:0.0; 
stroke:#000000; stroke-width:59.0551; stroke-opacity:1; 
stroke-linecap:round; stroke-linejoin:round;">
<text x="4330.71" y="53405.5"
textLength="570.866" font-size="682.415" lengthAdjust="spacingAndGlyphs"
text-anchor="middle" opacity="0">C</text>
<path d="M4489 53332
L4464 53356
L4391 53381
L4342 53381
L4269 53356
L4221 53308
L4196 53259
L4172 53161
L4172 53088
L4196 52991
L4221 52942
L4269 52893
L4342 52869
L4391 52869
L4464 52893
L4489 52918
" />
</g>
<g style="fill:#000000; fill-opacity:0.0; 
stroke:#000000; stroke-width:19.685; stroke-opacity:1; 
stroke-linecap:round; stroke-linejoin:round;">
</g>
<g style="fill:#000000; fill-opacity:0.0; 
stroke:#000000; stroke-width:59.0551; stroke-opacity:1; 
stroke-linecap:round; stroke-linejoin:round;">
<text x="4330.71" y="73090.6"
textLength="570.866" font-size="682.415" lengthAdjust="spacingAndGlyphs"
text-anchor="middle" opacity="0">D</text>
<path d="M4196 73066
L4196 72554
L4318 72554
L4391 72578
L4440 72627
L4464 72676
L4489 72773
L4489 72846
L4464 72944
L4440 72993
L4391 73041
L4318 73066
L4196 73066
" />
</g>
<g style="fill:#000000; fill-opacity:0.0; 
stroke:#000000; stroke-width:19.685; stroke-opacity:1; 
stroke-linecap:round; stroke-linejoin:round;">
</g>
<g style="fill:#000000; fill-opacity:0.0; 
stroke:#000000; stroke-width:59.0551; stroke-opacity:1; 
stroke-linecap:round; stroke-linejoin:round;">
<path d="M112992 23622
L112205 23622
" />
</g>
<g style="fill:#000000; fill-opacity:0.0; 
stroke:#000000; stroke-width:19.685; stroke-opacity:1; 
stroke-linecap:round; stroke-linejoin:round;">
</g>
<g style="fill:#000000; fill-opacity:0.0; 
stroke:#000000; stroke-width:59.0551; stroke-opacity:1; 
stroke-linecap:round; stroke-linejoin:round;">
<path d="M112992 43307
L112205 43307
" />
</g>
<g style="fill:#000000; fill-opacity:0.0; 
stroke:#000000; stroke-width:19.685; stroke-opacity:1; 
stroke-linecap:round; stroke-linejoin:round;">
</g>
<g style="fill:#000000; fill-opacity:0.0; 
stroke:#000000; stroke-width:59.0551; stroke-opacity:1; 
stroke-linecap:round; stroke-linejoin:round;">
<path d="M112992 62992
L112205 62992
" />
</g>
<g style="fill:#000000; fill-opacity:0.0; 
stroke:#000000; stroke-width:19.685; stroke-opacity:1; 
stroke-linecap:round; stroke-linejoin:round;">
</g>
<g style="fill:#000000; fill-opacity:0.0; 
stroke:#000000; stroke-width:59.0551; stroke-opacity:1; 
stroke-linecap:round; stroke-linejoin:round;">
<text x="112599" y="14035.4"
textLength="497.75" font-size="682.415" lengthAdjust="spacingAndGlyphs"
text-anchor="middle" opacity="0">A</text>
<path d="M112477 13864
L112721 13864
" />
<path d="M112428 14011
L112599 13499
L112769 14011
" />
</g>
<g style="fill:#000000; fill-opacity:0.0; 
stroke:#000000; stroke-width:19.685; stroke-opacity:1; 
stroke-linecap:round; stroke-linejoin:round;">
</g>
<g style="fill:#000000; fill-opacity:0.0; 
stroke:#000000; stroke-width:59.0551; stroke-opacity:1; 
stroke-linecap:round; stroke-linejoin:round;">
<text x="112599" y="33720.5"
textLength="570.866" font-size="682.415" lengthAdjust="spacingAndGlyphs"
text-anchor="middle" opacity="0">B</text>
<path d="M112635 33428
L112708 33452
L112733 33476
L112757 33525
L112757 33598
L112733 33647
L112708 33671
L112660 33696
L112465 33696
L112465 33184
L112635 33184
L112684 33208
L112708 33233
L112733 33281
L112733 33330
L112708 33379
L112684 33403
L112635 33428
L112465 33428
" />
</g>
<g style="fill:#000000; fill-opacity:0.0; 
stroke:#000000; stroke-width:19.685; stroke-opacity:1; 
stroke-linecap:round; stroke-linejoin:round;">
</g>
<g style="fill:#000000; fill-opacity:0.0; 
stroke:#000000; stroke-width:59.0551; stroke-opacity:1; 
stroke-linecap:round; stroke-linejoin:round;">
<text x="112599" y="53405.5"
textLength="570.866" font-size="682.415" lengthAdjust="spacingAndGlyphs"
text-anchor="middle" opacity="0">C</text>
<path d="M112757 53332
L112733 53356
L112660 53381
L112611 53381
L112538 53356
L112489 53308
L112465 53259
L112440 53161
L112440 53088
L112465 52991
L112489 52942
L112538 52893
L112611 52869
L112660 52869
L112733 52893
L112757 52918
" />
</g>
<g style="fill:#000000; fill-opacity:0.0; 
stroke:#000000; stroke-width:19.685; stroke-opacity:1; 
stroke-linecap:round; stroke-linejoin:round;">
</g>
<g style="fill:#000000; fill-opacity:0.0; 
stroke:#000000; stroke-width:59.0551; stroke-opacity:1; 
stroke-linecap:round; stroke-linejoin:round;">
<text x="112599" y="73090.6"
textLength="570.866" font-size="682.415" lengthAdjust="spacingAndGlyphs"
text-anchor="middle" opacity="0">D</text>
<path d="M112465 73066
L112465 72554
L112587 72554
L112660 72578
L112708 72627
L112733 72676
L112757 72773
L112757 72846
L112733 72944
L112708 72993
L112660 73041
L112587 73066
L112465 73066
" />
</g>
<g style="fill:#000000; fill-opacity:0.0; 
stroke:#000000; stroke-width:19.685; stroke-opacity:1; 
stroke-linecap:round; stroke-linejoin:round;">
</g>
<g style="fill:#000000; fill-opacity:0.0; 
stroke:#000000; stroke-width:59.0551; stroke-opacity:1; 
stroke-linecap:round; stroke-linejoin:round;">
<text x="78741" y="76321.7"
textLength="8720.47" font-size="787.402" lengthAdjust="spacingAndGlyphs"
text-anchor="start" opacity="0">Date: 2021-04-04</text>
<path d="M78911 76293
L78911 75703
L79051 75703
L79136 75731
L79192 75787
L79220 75843
L79248 75956
L79248 76040
L79220 76153
L79192 76209
L79136 76265
L79051 76293
L78911 76293
" />
<path d="M79754 76293
L79754 75984
L79726 75928
L79670 75899
L79557 75899
L79501 75928
" />
<path d="M79754 76265
L79698 76293
L79557 76293
L79501 76265
L79473 76209
L79473 76153
L79501 76096
L79557 76068
L79698 76068
L79754 76040
" />
<path d="M79951 75899
L80176 75899
" />
<path d="M80036 75703
L80036 76209
L80064 76265
L80120 76293
L80176 76293
" />
<path d="M80598 76265
L80542 76293
L80429 76293
L80373 76265
L80345 76209
L80345 75984
L80373 75928
L80429 75899
L80542 75899
L80598 75928
L80626 75984
L80626 76040
L80345 76096
" />
<path d="M80879 76237
L80907 76265
L80879 76293
L80851 76265
L80879 76237
L80879 76293
" />
<path d="M80879 75928
L80907 75956
L80879 75984
L80851 75956
L80879 75928
L80879 75984
" />
<path d="M81582 75759
L81610 75731
L81667 75703
L81807 75703
L81863 75731
L81892 75759
L81920 75815
L81920 75871
L81892 75956
L81554 76293
L81920 76293
" />
<path d="M82285 75703
L82341 75703
L82398 75731
L82426 75759
L82454 75815
L82482 75928
L82482 76068
L82454 76181
L82426 76237
L82398 76265
L82341 76293
L82285 76293
L82229 76265
L82201 76237
L82173 76181
L82145 76068
L82145 75928
L82173 75815
L82201 75759
L82229 75731
L82285 75703
" />
<path d="M82707 75759
L82735 75731
L82791 75703
L82932 75703
L82988 75731
L83016 75759
L83045 75815
L83045 75871
L83016 75956
L82679 76293
L83045 76293
" />
<path d="M83607 76293
L83269 76293
" />
<path d="M83438 76293
L83438 75703
L83382 75787
L83326 75843
L83269 75871
" />
<path d="M83860 76068
L84310 76068
" />
<path d="M84704 75703
L84760 75703
L84816 75731
L84844 75759
L84872 75815
L84901 75928
L84901 76068
L84872 76181
L84844 76237
L84816 76265
L84760 76293
L84704 76293
L84647 76265
L84619 76237
L84591 76181
L84563 76068
L84563 75928
L84591 75815
L84619 75759
L84647 75731
L84704 75703
" />
<path d="M85407 75899
L85407 76293
" />
<path d="M85266 75674
L85126 76096
L85491 76096
" />
<path d="M85716 76068
L86166 76068
" />
<path d="M86560 75703
L86616 75703
L86672 75731
L86700 75759
L86728 75815
L86757 75928
L86757 76068
L86728 76181
L86700 76237
L86672 76265
L86616 76293
L86560 76293
L86503 76265
L86475 76237
L86447 76181
L86419 76068
L86419 75928
L86447 75815
L86475 75759
L86503 75731
L86560 75703
" />
<path d="M87263 75899
L87263 76293
" />
<path d="M87122 75674
L86982 76096
L87347 76096
" />
</g>
<g style="fill:#000000; fill-opacity:0.0; 
stroke:#000000; stroke-width:19.685; stroke-opacity:1; 
stroke-linecap:round; stroke-linejoin:round;">
</g>
<g style="fill:#000000; fill-opacity:0.0; 
stroke:#000000; stroke-width:59.0551; stroke-opacity:1; 
stroke-linecap:round; stroke-linejoin:round;">
<path d="M69685 76577
L112205 76577
" />
</g>
<g style="fill:#000000; fill-opacity:0.0; 
stroke:#000000; stroke-width:19.685; stroke-opacity:1; 
stroke-linecap:round; stroke-linejoin:round;">
</g>
<g style="fill:#000000; fill-opacity:0.0; 
stroke:#000000; stroke-width:59.0551; stroke-opacity:1; 
stroke-linecap:round; stroke-linejoin:round;">
<text x="70079.6" y="77424.1"
textLength="25171.5" font-size="787.402" lengthAdjust="spacingAndGlyphs"
text-anchor="start" opacity="0">KiCad E.D.A.  kicad 5.1.9-73d0e3b20d~88~ubuntu18.04.1</text>
<path d="M70249 77395
L70249 76805
" />
<path d="M70587 77395
L70334 77058
" />
<path d="M70587 76805
L70249 77142
" />
<path d="M70840 77395
L70840 77002
" />
<path d="M70840 76805
L70812 76833
L70840 76861
L70868 76833
L70840 76805
L70840 76861
" />
<path d="M71458 77339
L71430 77367
L71346 77395
L71290 77395
L71205 77367
L71149 77311
L71121 77255
L71093 77142
L71093 77058
L71121 76946
L71149 76889
L71205 76833
L71290 76805
L71346 76805
L71430 76833
L71458 76861
" />
<path d="M71965 77395
L71965 77086
L71937 77030
L71880 77002
L71768 77002
L71712 77030
" />
<path d="M71965 77367
L71908 77395
L71768 77395
L71712 77367
L71683 77311
L71683 77255
L71712 77199
L71768 77171
L71908 77171
L71965 77142
" />
<path d="M72499 77395
L72499 76805
" />
<path d="M72499 77367
L72443 77395
L72330 77395
L72274 77367
L72246 77339
L72218 77283
L72218 77114
L72246 77058
L72274 77030
L72330 77002
L72443 77002
L72499 77030
" />
<path d="M73230 77086
L73427 77086
" />
<path d="M73511 77395
L73230 77395
L73230 76805
L73511 76805
" />
<path d="M73764 77339
L73793 77367
L73764 77395
L73736 77367
L73764 77339
L73764 77395
" />
<path d="M74046 77395
L74046 76805
L74186 76805
L74271 76833
L74327 76889
L74355 76946
L74383 77058
L74383 77142
L74355 77255
L74327 77311
L74271 77367
L74186 77395
L74046 77395
" />
<path d="M74636 77339
L74664 77367
L74636 77395
L74608 77367
L74636 77339
L74636 77395
" />
<path d="M74889 77227
L75171 77227
" />
<path d="M74833 77395
L75030 76805
L75227 77395
" />
<path d="M75424 77339
L75452 77367
L75424 77395
L75395 77367
L75424 77339
L75424 77395
" />
<path d="M76605 77395
L76605 76805
" />
<path d="M76661 77171
L76830 77395
" />
<path d="M76830 77002
L76605 77227
" />
<path d="M77083 77395
L77083 77002
" />
<path d="M77083 76805
L77055 76833
L77083 76861
L77111 76833
L77083 76805
L77083 76861
" />
<path d="M77617 77367
L77561 77395
L77448 77395
L77392 77367
L77364 77339
L77336 77283
L77336 77114
L77364 77058
L77392 77030
L77448 77002
L77561 77002
L77617 77030
" />
<path d="M78123 77395
L78123 77086
L78095 77030
L78039 77002
L77926 77002
L77870 77030
" />
<path d="M78123 77367
L78067 77395
L77926 77395
L77870 77367
L77842 77311
L77842 77255
L77870 77199
L77926 77171
L78067 77171
L78123 77142
" />
<path d="M78658 77395
L78658 76805
" />
<path d="M78658 77367
L78601 77395
L78489 77395
L78433 77367
L78404 77339
L78376 77283
L78376 77114
L78404 77058
L78433 77030
L78489 77002
L78601 77002
L78658 77030
" />
<path d="M79670 76805
L79389 76805
L79361 77086
L79389 77058
L79445 77030
L79586 77030
L79642 77058
L79670 77086
L79698 77142
L79698 77283
L79670 77339
L79642 77367
L79586 77395
L79445 77395
L79389 77367
L79361 77339
" />
<path d="M79951 77339
L79979 77367
L79951 77395
L79923 77367
L79951 77339
L79951 77395
" />
<path d="M80542 77395
L80204 77395
" />
<path d="M80373 77395
L80373 76805
L80317 76889
L80260 76946
L80204 76974
" />
<path d="M80795 77339
L80823 77367
L80795 77395
L80767 77367
L80795 77339
L80795 77395
" />
<path d="M81104 77395
L81217 77395
L81273 77367
L81301 77339
L81357 77255
L81385 77142
L81385 76917
L81357 76861
L81329 76833
L81273 76805
L81160 76805
L81104 76833
L81076 76861
L81048 76917
L81048 77058
L81076 77114
L81104 77142
L81160 77171
L81273 77171
L81329 77142
L81357 77114
L81385 77058
" />
<path d="M81638 77171
L82088 77171
" />
<path d="M82313 76805
L82707 76805
L82454 77395
" />
<path d="M82876 76805
L83241 76805
L83045 77030
L83129 77030
L83185 77058
L83213 77086
L83241 77142
L83241 77283
L83213 77339
L83185 77367
L83129 77395
L82960 77395
L82904 77367
L82876 77339
" />
<path d="M83748 77395
L83748 76805
" />
<path d="M83748 77367
L83691 77395
L83579 77395
L83523 77367
L83494 77339
L83466 77283
L83466 77114
L83494 77058
L83523 77030
L83579 77002
L83691 77002
L83748 77030
" />
<path d="M84141 76805
L84197 76805
L84254 76833
L84282 76861
L84310 76917
L84338 77030
L84338 77171
L84310 77283
L84282 77339
L84254 77367
L84197 77395
L84141 77395
L84085 77367
L84057 77339
L84029 77283
L84001 77171
L84001 77030
L84029 76917
L84057 76861
L84085 76833
L84141 76805
" />
<path d="M84816 77367
L84760 77395
L84647 77395
L84591 77367
L84563 77311
L84563 77086
L84591 77030
L84647 77002
L84760 77002
L84816 77030
L84844 77086
L84844 77142
L84563 77199
" />
<path d="M85041 76805
L85407 76805
L85210 77030
L85294 77030
L85350 77058
L85379 77086
L85407 77142
L85407 77283
L85379 77339
L85350 77367
L85294 77395
L85126 77395
L85069 77367
L85041 77339
" />
<path d="M85660 77395
L85660 76805
" />
<path d="M85660 77030
L85716 77002
L85829 77002
L85885 77030
L85913 77058
L85941 77114
L85941 77283
L85913 77339
L85885 77367
L85829 77395
L85716 77395
L85660 77367
" />
<path d="M86166 76861
L86194 76833
L86250 76805
L86391 76805
L86447 76833
L86475 76861
L86503 76917
L86503 76974
L86475 77058
L86138 77395
L86503 77395
" />
<path d="M86869 76805
L86925 76805
L86982 76833
L87010 76861
L87038 76917
L87066 77030
L87066 77171
L87038 77283
L87010 77339
L86982 77367
L86925 77395
L86869 77395
L86813 77367
L86785 77339
L86757 77283
L86728 77171
L86728 77030
L86757 76917
L86785 76861
L86813 76833
L86869 76805
" />
<path d="M87572 77395
L87572 76805
" />
<path d="M87572 77367
L87516 77395
L87403 77395
L87347 77367
L87319 77339
L87291 77283
L87291 77114
L87319 77058
L87347 77030
L87403 77002
L87516 77002
L87572 77030
" />
<path d="M87713 76644
L88275 76644
" />
<path d="M87938 77058
L87881 77030
L87853 77002
L87825 76946
L87825 76917
L87853 76861
L87881 76833
L87938 76805
L88050 76805
L88106 76833
L88135 76861
L88163 76917
L88163 76946
L88135 77002
L88106 77030
L88050 77058
L87938 77058
L87881 77086
L87853 77114
L87825 77171
L87825 77283
L87853 77339
L87881 77367
L87938 77395
L88050 77395
L88106 77367
L88135 77339
L88163 77283
L88163 77171
L88135 77114
L88106 77086
L88050 77058
" />
<path d="M88275 76644
L88838 76644
" />
<path d="M88500 77058
L88444 77030
L88416 77002
L88388 76946
L88388 76917
L88416 76861
L88444 76833
L88500 76805
L88613 76805
L88669 76833
L88697 76861
L88725 76917
L88725 76946
L88697 77002
L88669 77030
L88613 77058
L88500 77058
L88444 77086
L88416 77114
L88388 77171
L88388 77283
L88416 77339
L88444 77367
L88500 77395
L88613 77395
L88669 77367
L88697 77339
L88725 77283
L88725 77171
L88697 77114
L88669 77086
L88613 77058
" />
<path d="M89231 77002
L89231 77395
" />
<path d="M88978 77002
L88978 77311
L89006 77367
L89063 77395
L89147 77395
L89203 77367
L89231 77339
" />
<path d="M89512 77395
L89512 76805
" />
<path d="M89512 77030
L89569 77002
L89681 77002
L89737 77030
L89766 77058
L89794 77114
L89794 77283
L89766 77339
L89737 77367
L89681 77395
L89569 77395
L89512 77367
" />
<path d="M90300 77002
L90300 77395
" />
<path d="M90047 77002
L90047 77311
L90075 77367
L90131 77395
L90215 77395
L90272 77367
L90300 77339
" />
<path d="M90581 77002
L90581 77395
" />
<path d="M90581 77058
L90609 77030
L90665 77002
L90750 77002
L90806 77030
L90834 77086
L90834 77395
" />
<path d="M91031 77002
L91256 77002
" />
<path d="M91115 76805
L91115 77311
L91144 77367
L91200 77395
L91256 77395
" />
<path d="M91706 77002
L91706 77395
" />
<path d="M91453 77002
L91453 77311
L91481 77367
L91537 77395
L91622 77395
L91678 77367
L91706 77339
" />
<path d="M92296 77395
L91959 77395
" />
<path d="M92128 77395
L92128 76805
L92072 76889
L92015 76946
L91959 76974
" />
<path d="M92634 77058
L92578 77030
L92550 77002
L92521 76946
L92521 76917
L92550 76861
L92578 76833
L92634 76805
L92746 76805
L92803 76833
L92831 76861
L92859 76917
L92859 76946
L92831 77002
L92803 77030
L92746 77058
L92634 77058
L92578 77086
L92550 77114
L92521 77171
L92521 77283
L92550 77339
L92578 77367
L92634 77395
L92746 77395
L92803 77367
L92831 77339
L92859 77283
L92859 77171
L92831 77114
L92803 77086
L92746 77058
" />
<path d="M93112 77339
L93140 77367
L93112 77395
L93084 77367
L93112 77339
L93112 77395
" />
<path d="M93506 76805
L93562 76805
L93618 76833
L93646 76861
L93674 76917
L93703 77030
L93703 77171
L93674 77283
L93646 77339
L93618 77367
L93562 77395
L93506 77395
L93449 77367
L93421 77339
L93393 77283
L93365 77171
L93365 77030
L93393 76917
L93421 76861
L93449 76833
L93506 76805
" />
<path d="M94209 77002
L94209 77395
" />
<path d="M94068 76777
L93928 77199
L94293 77199
" />
<path d="M94518 77339
L94546 77367
L94518 77395
L94490 77367
L94518 77339
L94518 77395
" />
<path d="M95109 77395
L94771 77395
" />
<path d="M94940 77395
L94940 76805
L94884 76889
L94827 76946
L94771 76974
" />
</g>
<g style="fill:#000000; fill-opacity:0.0; 
stroke:#000000; stroke-width:19.685; stroke-opacity:1; 
stroke-linecap:round; stroke-linejoin:round;">
</g>
<g style="fill:#000000; fill-opacity:0.0; 
stroke:#000000; stroke-width:59.0551; stroke-opacity:1; 
stroke-linecap:round; stroke-linejoin:round;">
<path d="M69685 75396
L112205 75396
" />
</g>
<g style="fill:#000000; fill-opacity:0.0; 
stroke:#000000; stroke-width:19.685; stroke-opacity:1; 
stroke-linecap:round; stroke-linejoin:round;">
</g>
<g style="fill:#000000; fill-opacity:0.0; 
stroke:#000000; stroke-width:118.11; stroke-opacity:1; 
stroke-linecap:round; stroke-linejoin:round;">
<text x="103544" y="76321.7"
textLength="3742.97" font-size="787.402" lengthAdjust="spacingAndGlyphs"
text-anchor="start" opacity="0">Rev: 2.0</text>
<path d="M104099 76293
L103902 76012
" />
<path d="M103761 76293
L103761 75703
L103986 75703
L104042 75731
L104070 75759
L104099 75815
L104099 75899
L104070 75956
L104042 75984
L103986 76012
L103761 76012
" />
<path d="M104577 76265
L104520 76293
L104408 76293
L104352 76265
L104323 76209
L104323 75984
L104352 75928
L104408 75899
L104520 75899
L104577 75928
L104605 75984
L104605 76040
L104323 76096
" />
<path d="M104802 75899
L104942 76293
L105083 75899
" />
<path d="M105308 76237
L105336 76265
L105308 76293
L105280 76265
L105308 76237
L105308 76293
" />
<path d="M105308 75928
L105336 75956
L105308 75984
L105280 75956
L105308 75928
L105308 75984
" />
<path d="M106011 75759
L106039 75731
L106095 75703
L106236 75703
L106292 75731
L106320 75759
L106348 75815
L106348 75871
L106320 75956
L105983 76293
L106348 76293
" />
<path d="M106601 76237
L106629 76265
L106601 76293
L106573 76265
L106601 76237
L106601 76293
" />
<path d="M106995 75703
L107051 75703
L107108 75731
L107136 75759
L107164 75815
L107192 75928
L107192 76068
L107164 76181
L107136 76237
L107108 76265
L107051 76293
L106995 76293
L106939 76265
L106911 76237
L106883 76181
L106854 76068
L106854 75928
L106883 75815
L106911 75759
L106939 75731
L106995 75703
" />
</g>
<g style="fill:#000000; fill-opacity:0.0; 
stroke:#000000; stroke-width:19.685; stroke-opacity:1; 
stroke-linecap:round; stroke-linejoin:round;">
</g>
<g style="fill:#000000; fill-opacity:0.0; 
stroke:#000000; stroke-width:59.0551; stroke-opacity:1; 
stroke-linecap:round; stroke-linejoin:round;">
<text x="70079.6" y="76321.7"
textLength="3781.21" font-size="787.402" lengthAdjust="spacingAndGlyphs"
text-anchor="start" opacity="0">Size: A4</text>
<path d="M70221 76265
L70305 76293
L70446 76293
L70502 76265
L70530 76237
L70559 76181
L70559 76124
L70530 76068
L70502 76040
L70446 76012
L70334 75984
L70277 75956
L70249 75928
L70221 75871
L70221 75815
L70249 75759
L70277 75731
L70334 75703
L70474 75703
L70559 75731
" />
<path d="M70812 76293
L70812 75899
" />
<path d="M70812 75703
L70784 75731
L70812 75759
L70840 75731
L70812 75703
L70812 75759
" />
<path d="M71037 75899
L71346 75899
L71037 76293
L71346 76293
" />
<path d="M71796 76265
L71740 76293
L71627 76293
L71571 76265
L71543 76209
L71543 75984
L71571 75928
L71627 75899
L71740 75899
L71796 75928
L71824 75984
L71824 76040
L71543 76096
" />
<path d="M72077 76237
L72105 76265
L72077 76293
L72049 76265
L72077 76237
L72077 76293
" />
<path d="M72077 75928
L72105 75956
L72077 75984
L72049 75956
L72077 75928
L72077 75984
" />
<path d="M72780 76124
L73061 76124
" />
<path d="M72724 76293
L72921 75703
L73118 76293
" />
<path d="M73568 75899
L73568 76293
" />
<path d="M73427 75674
L73286 76096
L73652 76096
" />
</g>
<g style="fill:#000000; fill-opacity:0.0; 
stroke:#000000; stroke-width:19.685; stroke-opacity:1; 
stroke-linecap:round; stroke-linejoin:round;">
</g>
<g style="fill:#000000; fill-opacity:0.0; 
stroke:#000000; stroke-width:59.0551; stroke-opacity:1; 
stroke-linecap:round; stroke-linejoin:round;">
<text x="103544" y="77424.1"
textLength="3349.27" font-size="787.402" lengthAdjust="spacingAndGlyphs"
text-anchor="start" opacity="0">Id: 1/1</text>
<path d="M103714 77395
L103714 76805
" />
<path d="M104248 77395
L104248 76805
" />
<path d="M104248 77367
L104192 77395
L104079 77395
L104023 77367
L103995 77339
L103967 77283
L103967 77114
L103995 77058
L104023 77030
L104079 77002
L104192 77002
L104248 77030
" />
<path d="M104529 77339
L104557 77367
L104529 77395
L104501 77367
L104529 77339
L104529 77395
" />
<path d="M104529 77030
L104557 77058
L104529 77086
L104501 77058
L104529 77030
L104529 77086
" />
<path d="M105570 77395
L105232 77395
" />
<path d="M105401 77395
L105401 76805
L105345 76889
L105289 76946
L105232 76974
" />
<path d="M106245 76777
L105739 77536
" />
<path d="M106751 77395
L106413 77395
" />
<path d="M106582 77395
L106582 76805
L106526 76889
L106470 76946
L106413 76974
" />
</g>
<g style="fill:#000000; fill-opacity:0.0; 
stroke:#000000; stroke-width:19.685; stroke-opacity:1; 
stroke-linecap:round; stroke-linejoin:round;">
</g>
<g style="fill:#000000; fill-opacity:0.0; 
stroke:#000000; stroke-width:59.0551; stroke-opacity:1; 
stroke-linecap:round; stroke-linejoin:round;">
<path d="M69685 73821
L112205 73821
" />
</g>
<g style="fill:#000000; fill-opacity:0.0; 
stroke:#000000; stroke-width:19.685; stroke-opacity:1; 
stroke-linecap:round; stroke-linejoin:round;">
</g>
<g style="fill:#000000; fill-opacity:0.0; 
stroke:#000000; stroke-width:157.48; stroke-opacity:1; 
stroke-linecap:round; stroke-linejoin:round;">
<text x="70079.6" y="74924.1"
textLength="27885.6" font-size="1049.87" lengthAdjust="spacingAndGlyphs"
text-anchor="start" opacity="0">Title: Jerry Garcia - Séb Cazorla Tiger Buffer</text>
<path d="M70360 74099
L70810 74099
" />
<path d="M70486 74886
L70585 74099
" />
<path d="M70974 74886
L71039 74361
" />
<path d="M71072 74099
L71030 74136
L71063 74174
L71105 74136
L71072 74099
L71063 74174
" />
<path d="M71302 74361
L71602 74361
" />
<path d="M71447 74099
L71363 74774
L71391 74849
L71461 74886
L71536 74886
" />
<path d="M71911 74886
L71841 74849
L71813 74774
L71897 74099
" />
<path d="M72516 74849
L72436 74886
L72286 74886
L72216 74849
L72187 74774
L72225 74474
L72272 74399
L72352 74361
L72501 74361
L72572 74399
L72600 74474
L72591 74549
L72206 74624
" />
<path d="M72895 74811
L72928 74849
L72886 74886
L72853 74849
L72895 74811
L72886 74886
" />
<path d="M72947 74399
L72980 74436
L72937 74474
L72905 74436
L72947 74399
L72937 74474
" />
<path d="M74184 74099
L74114 74661
L74062 74774
L73978 74849
L73861 74886
L73786 74886
" />
<path d="M74765 74849
L74686 74886
L74536 74886
L74465 74849
L74437 74774
L74475 74474
L74522 74399
L74601 74361
L74751 74361
L74822 74399
L74850 74474
L74840 74549
L74456 74624
" />
<path d="M75136 74886
L75201 74361
" />
<path d="M75182 74511
L75229 74436
L75271 74399
L75351 74361
L75426 74361
" />
<path d="M75623 74886
L75689 74361
" />
<path d="M75670 74511
L75717 74436
L75759 74399
L75839 74361
L75914 74361
" />
<path d="M76101 74361
L76223 74886
" />
<path d="M76476 74361
L76223 74886
L76124 75074
L76082 75111
L76003 75149
" />
<path d="M77816 74136
L77746 74099
L77634 74099
L77516 74136
L77432 74211
L77385 74286
L77329 74436
L77315 74549
L77334 74699
L77362 74774
L77427 74849
L77535 74886
L77610 74886
L77727 74849
L77770 74811
L77802 74549
L77652 74549
" />
<path d="M78435 74886
L78487 74474
L78459 74399
L78388 74361
L78238 74361
L78159 74399
" />
<path d="M78440 74849
L78360 74886
L78173 74886
L78102 74849
L78074 74774
L78084 74699
L78130 74624
L78210 74586
L78398 74586
L78477 74549
" />
<path d="M78810 74886
L78876 74361
" />
<path d="M78857 74511
L78904 74436
L78946 74399
L79026 74361
L79101 74361
" />
<path d="M79640 74849
L79560 74886
L79410 74886
L79340 74849
L79307 74811
L79279 74736
L79307 74511
L79354 74436
L79396 74399
L79476 74361
L79626 74361
L79696 74399
" />
<path d="M79972 74886
L80038 74361
" />
<path d="M80071 74099
L80029 74136
L80061 74174
L80104 74136
L80071 74099
L80061 74174
" />
<path d="M80685 74886
L80736 74474
L80708 74399
L80638 74361
L80488 74361
L80408 74399
" />
<path d="M80690 74849
L80610 74886
L80422 74886
L80352 74849
L80324 74774
L80333 74699
L80380 74624
L80460 74586
L80647 74586
L80727 74549
" />
<path d="M81697 74586
L82297 74586
" />
<path d="M83202 74849
L83310 74886
L83497 74886
L83577 74849
L83619 74811
L83666 74736
L83675 74661
L83647 74586
L83614 74549
L83544 74511
L83399 74474
L83328 74436
L83295 74399
L83267 74324
L83277 74249
L83324 74174
L83366 74136
L83445 74099
L83633 74099
L83741 74136
" />
<path d="M84289 74849
L84209 74886
L84059 74886
L83989 74849
L83961 74774
L83998 74474
L84045 74399
L84125 74361
L84275 74361
L84345 74399
L84373 74474
L84364 74549
L83980 74624
" />
<path d="M84313 74061
L84186 74174
" />
<path d="M84659 74886
L84758 74099
" />
<path d="M84720 74399
L84800 74361
L84950 74361
L85020 74399
L85053 74436
L85081 74511
L85053 74736
L85006 74811
L84964 74849
L84884 74886
L84734 74886
L84664 74849
" />
<path d="M86431 74811
L86389 74849
L86272 74886
L86197 74886
L86089 74849
L86023 74774
L85995 74699
L85976 74549
L85990 74436
L86047 74286
L86094 74211
L86178 74136
L86295 74099
L86370 74099
L86478 74136
L86511 74174
" />
<path d="M87097 74886
L87148 74474
L87120 74399
L87050 74361
L86900 74361
L86820 74399
" />
<path d="M87101 74849
L87022 74886
L86834 74886
L86764 74849
L86736 74774
L86745 74699
L86792 74624
L86872 74586
L87059 74586
L87139 74549
" />
<path d="M87462 74361
L87875 74361
L87397 74886
L87809 74886
" />
<path d="M88221 74886
L88151 74849
L88118 74811
L88090 74736
L88118 74511
L88165 74436
L88207 74399
L88287 74361
L88400 74361
L88470 74399
L88503 74436
L88531 74511
L88503 74736
L88456 74811
L88414 74849
L88334 74886
L88221 74886
" />
<path d="M88821 74886
L88887 74361
" />
<path d="M88868 74511
L88915 74436
L88957 74399
L89037 74361
L89112 74361
" />
<path d="M89421 74886
L89351 74849
L89323 74774
L89407 74099
" />
<path d="M90059 74886
L90110 74474
L90082 74399
L90012 74361
L89862 74361
L89782 74399
" />
<path d="M90063 74849
L89984 74886
L89796 74886
L89726 74849
L89698 74774
L89707 74699
L89754 74624
L89834 74586
L90021 74586
L90101 74549
" />
<path d="M91019 74099
L91469 74099
" />
<path d="M91146 74886
L91244 74099
" />
<path d="M91633 74886
L91699 74361
" />
<path d="M91732 74099
L91690 74136
L91723 74174
L91765 74136
L91732 74099
L91723 74174
" />
<path d="M92412 74361
L92332 74999
L92285 75074
L92243 75111
L92163 75149
L92051 75149
L91980 75111
" />
<path d="M92351 74849
L92271 74886
L92121 74886
L92051 74849
L92018 74811
L91990 74736
L92018 74511
L92065 74436
L92107 74399
L92187 74361
L92337 74361
L92407 74399
" />
<path d="M93025 74849
L92946 74886
L92796 74886
L92726 74849
L92697 74774
L92735 74474
L92782 74399
L92861 74361
L93011 74361
L93082 74399
L93110 74474
L93100 74549
L92716 74624
" />
<path d="M93396 74886
L93461 74361
" />
<path d="M93443 74511
L93489 74436
L93532 74399
L93611 74361
L93686 74361
" />
<path d="M94797 74474
L94905 74511
L94938 74549
L94966 74624
L94952 74736
L94905 74811
L94863 74849
L94783 74886
L94483 74886
L94582 74099
L94844 74099
L94914 74136
L94947 74174
L94975 74249
L94966 74324
L94919 74399
L94877 74436
L94797 74474
L94535 74474
" />
<path d="M95674 74361
L95608 74886
" />
<path d="M95336 74361
L95285 74774
L95313 74849
L95383 74886
L95495 74886
L95575 74849
L95617 74811
" />
<path d="M95936 74361
L96236 74361
" />
<path d="M95983 74886
L96067 74211
L96114 74136
L96194 74099
L96269 74099
" />
<path d="M96386 74361
L96686 74361
" />
<path d="M96433 74886
L96517 74211
L96564 74136
L96644 74099
L96719 74099
" />
<path d="M97187 74849
L97108 74886
L96958 74886
L96888 74849
L96859 74774
L96897 74474
L96944 74399
L97023 74361
L97173 74361
L97244 74399
L97272 74474
L97262 74549
L96878 74624
" />
<path d="M97558 74886
L97623 74361
" />
<path d="M97605 74511
L97651 74436
L97694 74399
L97773 74361
L97848 74361
" />
</g>
<g style="fill:#000000; fill-opacity:0.0; 
stroke:#000000; stroke-width:19.685; stroke-opacity:1; 
stroke-linecap:round; stroke-linejoin:round;">
</g>
<g style="fill:#000000; fill-opacity:0.0; 
stroke:#000000; stroke-width:59.0551; stroke-opacity:1; 
stroke-linecap:round; stroke-linejoin:round;">
<text x="70079.6" y="73408.3"
textLength="11987.6" font-size="787.402" lengthAdjust="spacingAndGlyphs"
text-anchor="start" opacity="0">File: TigerBuffer.kicad_pcb</text>
<path d="M70446 73070
L70249 73070
" />
<path d="M70249 73380
L70249 72789
L70530 72789
" />
<path d="M70755 73380
L70755 72986
" />
<path d="M70755 72789
L70727 72817
L70755 72845
L70784 72817
L70755 72789
L70755 72845
" />
<path d="M71121 73380
L71065 73352
L71037 73295
L71037 72789
" />
<path d="M71571 73352
L71515 73380
L71402 73380
L71346 73352
L71318 73295
L71318 73070
L71346 73014
L71402 72986
L71515 72986
L71571 73014
L71599 73070
L71599 73127
L71318 73183
" />
<path d="M71852 73323
L71880 73352
L71852 73380
L71824 73352
L71852 73323
L71852 73380
" />
<path d="M71852 73014
L71880 73042
L71852 73070
L71824 73042
L71852 73014
L71852 73070
" />
<path d="M72499 72789
L72836 72789
" />
<path d="M72668 73380
L72668 72789
" />
<path d="M73033 73380
L73033 72986
" />
<path d="M73033 72789
L73005 72817
L73033 72845
L73061 72817
L73033 72789
L73033 72845
" />
<path d="M73568 72986
L73568 73464
L73539 73520
L73511 73548
L73455 73577
L73371 73577
L73314 73548
" />
<path d="M73568 73352
L73511 73380
L73399 73380
L73343 73352
L73314 73323
L73286 73267
L73286 73099
L73314 73042
L73343 73014
L73399 72986
L73511 72986
L73568 73014
" />
<path d="M74074 73352
L74018 73380
L73905 73380
L73849 73352
L73821 73295
L73821 73070
L73849 73014
L73905 72986
L74018 72986
L74074 73014
L74102 73070
L74102 73127
L73821 73183
" />
<path d="M74355 73380
L74355 72986
" />
<path d="M74355 73099
L74383 73042
L74411 73014
L74467 72986
L74524 72986
" />
<path d="M74917 73070
L75002 73099
L75030 73127
L75058 73183
L75058 73267
L75030 73323
L75002 73352
L74946 73380
L74721 73380
L74721 72789
L74917 72789
L74974 72817
L75002 72845
L75030 72902
L75030 72958
L75002 73014
L74974 73042
L74917 73070
L74721 73070
" />
<path d="M75564 72986
L75564 73380
" />
<path d="M75311 72986
L75311 73295
L75339 73352
L75395 73380
L75480 73380
L75536 73352
L75564 73323
" />
<path d="M75761 72986
L75986 72986
" />
<path d="M75845 73380
L75845 72874
L75874 72817
L75930 72789
L75986 72789
" />
<path d="M76099 72986
L76323 72986
" />
<path d="M76183 73380
L76183 72874
L76211 72817
L76267 72789
L76323 72789
" />
<path d="M76745 73352
L76689 73380
L76577 73380
L76520 73352
L76492 73295
L76492 73070
L76520 73014
L76577 72986
L76689 72986
L76745 73014
L76773 73070
L76773 73127
L76492 73183
" />
<path d="M77027 73380
L77027 72986
" />
<path d="M77027 73099
L77055 73042
L77083 73014
L77139 72986
L77195 72986
" />
<path d="M77392 73323
L77420 73352
L77392 73380
L77364 73352
L77392 73323
L77392 73380
" />
<path d="M77673 73380
L77673 72789
" />
<path d="M77730 73155
L77898 73380
" />
<path d="M77898 72986
L77673 73211
" />
<path d="M78151 73380
L78151 72986
" />
<path d="M78151 72789
L78123 72817
L78151 72845
L78180 72817
L78151 72789
L78151 72845
" />
<path d="M78686 73352
L78629 73380
L78517 73380
L78461 73352
L78433 73323
L78404 73267
L78404 73099
L78433 73042
L78461 73014
L78517 72986
L78629 72986
L78686 73014
" />
<path d="M79192 73380
L79192 73070
L79164 73014
L79108 72986
L78995 72986
L78939 73014
" />
<path d="M79192 73352
L79136 73380
L78995 73380
L78939 73352
L78911 73295
L78911 73239
L78939 73183
L78995 73155
L79136 73155
L79192 73127
" />
<path d="M79726 73380
L79726 72789
" />
<path d="M79726 73352
L79670 73380
L79557 73380
L79501 73352
L79473 73323
L79445 73267
L79445 73099
L79473 73042
L79501 73014
L79557 72986
L79670 72986
L79726 73014
" />
<path d="M79867 73436
L80317 73436
" />
<path d="M80457 72986
L80457 73577
" />
<path d="M80457 73014
L80514 72986
L80626 72986
L80682 73014
L80710 73042
L80739 73099
L80739 73267
L80710 73323
L80682 73352
L80626 73380
L80514 73380
L80457 73352
" />
<path d="M81245 73352
L81188 73380
L81076 73380
L81020 73352
L80992 73323
L80964 73267
L80964 73099
L80992 73042
L81020 73014
L81076 72986
L81188 72986
L81245 73014
" />
<path d="M81498 73380
L81498 72789
" />
<path d="M81498 73014
L81554 72986
L81667 72986
L81723 73014
L81751 73042
L81779 73099
L81779 73267
L81751 73323
L81723 73352
L81667 73380
L81554 73380
L81498 73352
" />
</g>
<g style="fill:#000000; fill-opacity:0.0; 
stroke:#000000; stroke-width:19.685; stroke-opacity:1; 
stroke-linecap:round; stroke-linejoin:round;">
</g>
<g style="fill:#000000; fill-opacity:0.0; 
stroke:#000000; stroke-width:59.0551; stroke-opacity:1; 
stroke-linecap:round; stroke-linejoin:round;">
<path d="M69685 71459
L112205 71459
" />
</g>
<g style="fill:#000000; fill-opacity:0.0; 
stroke:#000000; stroke-width:19.685; stroke-opacity:1; 
stroke-linecap:round; stroke-linejoin:round;">
</g>
<g style="fill:#000000; fill-opacity:0.0; 
stroke:#000000; stroke-width:59.0551; stroke-opacity:1; 
stroke-linecap:round; stroke-linejoin:round;">
<text x="70079.6" y="72345.4"
textLength="3236.78" font-size="787.402" lengthAdjust="spacingAndGlyphs"
text-anchor="start" opacity="0">Sheet: </text>
<path d="M70221 72289
L70305 72317
L70446 72317
L70502 72289
L70530 72260
L70559 72204
L70559 72148
L70530 72092
L70502 72064
L70446 72036
L70334 72007
L70277 71979
L70249 71951
L70221 71895
L70221 71839
L70249 71782
L70277 71754
L70334 71726
L70474 71726
L70559 71754
" />
<path d="M70812 72317
L70812 71726
" />
<path d="M71065 72317
L71065 72007
L71037 71951
L70980 71923
L70896 71923
L70840 71951
L70812 71979
" />
<path d="M71571 72289
L71515 72317
L71402 72317
L71346 72289
L71318 72232
L71318 72007
L71346 71951
L71402 71923
L71515 71923
L71571 71951
L71599 72007
L71599 72064
L71318 72120
" />
<path d="M72077 72289
L72021 72317
L71908 72317
L71852 72289
L71824 72232
L71824 72007
L71852 71951
L71908 71923
L72021 71923
L72077 71951
L72105 72007
L72105 72064
L71824 72120
" />
<path d="M72274 71923
L72499 71923
" />
<path d="M72358 71726
L72358 72232
L72386 72289
L72443 72317
L72499 72317
" />
<path d="M72696 72260
L72724 72289
L72696 72317
L72668 72289
L72696 72260
L72696 72317
" />
<path d="M72696 71951
L72724 71979
L72696 72007
L72668 71979
L72696 71951
L72696 72007
" />
</g>
<g style="fill:#000000; fill-opacity:0.0; 
stroke:#000000; stroke-width:19.685; stroke-opacity:1; 
stroke-linecap:round; stroke-linejoin:round;">
</g>
<g style="fill:#000000; fill-opacity:0.0; 
stroke:#000000; stroke-width:118.11; stroke-opacity:1; 
stroke-linecap:round; stroke-linejoin:round;">
<text x="70079.6" y="71164.3"
textLength="7005.06" font-size="787.402" lengthAdjust="spacingAndGlyphs"
text-anchor="start" opacity="0">gratefulfrog.org</text>
<path d="M70550 70742
L70550 71220
L70521 71276
L70493 71304
L70437 71332
L70353 71332
L70296 71304
" />
<path d="M70550 71108
L70493 71136
L70381 71136
L70325 71108
L70296 71079
L70268 71023
L70268 70854
L70296 70798
L70325 70770
L70381 70742
L70493 70742
L70550 70770
" />
<path d="M70831 71136
L70831 70742
" />
<path d="M70831 70854
L70859 70798
L70887 70770
L70943 70742
L71000 70742
" />
<path d="M71449 71136
L71449 70826
L71421 70770
L71365 70742
L71253 70742
L71196 70770
" />
<path d="M71449 71108
L71393 71136
L71253 71136
L71196 71108
L71168 71051
L71168 70995
L71196 70939
L71253 70911
L71393 70911
L71449 70883
" />
<path d="M71646 70742
L71871 70742
" />
<path d="M71731 70545
L71731 71051
L71759 71108
L71815 71136
L71871 71136
" />
<path d="M72293 71108
L72237 71136
L72124 71136
L72068 71108
L72040 71051
L72040 70826
L72068 70770
L72124 70742
L72237 70742
L72293 70770
L72321 70826
L72321 70883
L72040 70939
" />
<path d="M72490 70742
L72715 70742
" />
<path d="M72574 71136
L72574 70629
L72602 70573
L72659 70545
L72715 70545
" />
<path d="M73165 70742
L73165 71136
" />
<path d="M72912 70742
L72912 71051
L72940 71108
L72996 71136
L73081 71136
L73137 71108
L73165 71079
" />
<path d="M73530 71136
L73474 71108
L73446 71051
L73446 70545
" />
<path d="M73671 70742
L73896 70742
" />
<path d="M73755 71136
L73755 70629
L73784 70573
L73840 70545
L73896 70545
" />
<path d="M74093 71136
L74093 70742
" />
<path d="M74093 70854
L74121 70798
L74149 70770
L74205 70742
L74262 70742
" />
<path d="M74543 71136
L74487 71108
L74458 71079
L74430 71023
L74430 70854
L74458 70798
L74487 70770
L74543 70742
L74627 70742
L74683 70770
L74712 70798
L74740 70854
L74740 71023
L74712 71079
L74683 71108
L74627 71136
L74543 71136
" />
<path d="M75246 70742
L75246 71220
L75218 71276
L75190 71304
L75133 71332
L75049 71332
L74993 71304
" />
<path d="M75246 71108
L75190 71136
L75077 71136
L75021 71108
L74993 71079
L74965 71023
L74965 70854
L74993 70798
L75021 70770
L75077 70742
L75190 70742
L75246 70770
" />
<path d="M75527 71079
L75555 71108
L75527 71136
L75499 71108
L75527 71079
L75527 71136
" />
<path d="M75893 71136
L75836 71108
L75808 71079
L75780 71023
L75780 70854
L75808 70798
L75836 70770
L75893 70742
L75977 70742
L76033 70770
L76061 70798
L76090 70854
L76090 71023
L76061 71079
L76033 71108
L75977 71136
L75893 71136
" />
<path d="M76343 71136
L76343 70742
" />
<path d="M76343 70854
L76371 70798
L76399 70770
L76455 70742
L76511 70742
" />
<path d="M76961 70742
L76961 71220
L76933 71276
L76905 71304
L76849 71332
L76764 71332
L76708 71304
" />
<path d="M76961 71108
L76905 71136
L76793 71136
L76736 71108
L76708 71079
L76680 71023
L76680 70854
L76708 70798
L76736 70770
L76793 70742
L76905 70742
L76961 70770
" />
</g>
<g style="fill:#000000; fill-opacity:0.0; 
stroke:#000000; stroke-width:19.685; stroke-opacity:1; 
stroke-linecap:round; stroke-linejoin:round;">
</g>
<g style="fill:#000000; fill-opacity:0.0; 
stroke:#000000; stroke-width:59.0551; stroke-opacity:1; 
stroke-linecap:round; stroke-linejoin:round;">
<text x="70079.6" y="69983.1"
textLength="7661.98" font-size="787.402" lengthAdjust="spacingAndGlyphs"
text-anchor="start" opacity="0">added 4PDT PCB</text>
<path d="M70502 69955
L70502 69645
L70474 69589
L70418 69561
L70305 69561
L70249 69589
" />
<path d="M70502 69926
L70446 69955
L70305 69955
L70249 69926
L70221 69870
L70221 69814
L70249 69758
L70305 69730
L70446 69730
L70502 69701
" />
<path d="M71037 69955
L71037 69364
" />
<path d="M71037 69926
L70980 69955
L70868 69955
L70812 69926
L70784 69898
L70755 69842
L70755 69673
L70784 69617
L70812 69589
L70868 69561
L70980 69561
L71037 69589
" />
<path d="M71571 69955
L71571 69364
" />
<path d="M71571 69926
L71515 69955
L71402 69955
L71346 69926
L71318 69898
L71290 69842
L71290 69673
L71318 69617
L71346 69589
L71402 69561
L71515 69561
L71571 69589
" />
<path d="M72077 69926
L72021 69955
L71908 69955
L71852 69926
L71824 69870
L71824 69645
L71852 69589
L71908 69561
L72021 69561
L72077 69589
L72105 69645
L72105 69701
L71824 69758
" />
<path d="M72611 69955
L72611 69364
" />
<path d="M72611 69926
L72555 69955
L72443 69955
L72386 69926
L72358 69898
L72330 69842
L72330 69673
L72358 69617
L72386 69589
L72443 69561
L72555 69561
L72611 69589
" />
<path d="M73596 69561
L73596 69955
" />
<path d="M73455 69336
L73314 69758
L73680 69758
" />
<path d="M73905 69955
L73905 69364
L74130 69364
L74186 69392
L74214 69420
L74242 69476
L74242 69561
L74214 69617
L74186 69645
L74130 69673
L73905 69673
" />
<path d="M74496 69955
L74496 69364
L74636 69364
L74721 69392
L74777 69448
L74805 69505
L74833 69617
L74833 69701
L74805 69814
L74777 69870
L74721 69926
L74636 69955
L74496 69955
" />
<path d="M75002 69364
L75339 69364
" />
<path d="M75171 69955
L75171 69364
" />
<path d="M75986 69955
L75986 69364
L76211 69364
L76267 69392
L76295 69420
L76323 69476
L76323 69561
L76295 69617
L76267 69645
L76211 69673
L75986 69673
" />
<path d="M76914 69898
L76886 69926
L76802 69955
L76745 69955
L76661 69926
L76605 69870
L76577 69814
L76548 69701
L76548 69617
L76577 69505
L76605 69448
L76661 69392
L76745 69364
L76802 69364
L76886 69392
L76914 69420
" />
<path d="M77364 69645
L77448 69673
L77476 69701
L77505 69758
L77505 69842
L77476 69898
L77448 69926
L77392 69955
L77167 69955
L77167 69364
L77364 69364
L77420 69392
L77448 69420
L77476 69476
L77476 69533
L77448 69589
L77420 69617
L77364 69645
L77167 69645
" />
</g>
<g style="fill:#000000; fill-opacity:0.0; 
stroke:#000000; stroke-width:19.685; stroke-opacity:1; 
stroke-linecap:round; stroke-linejoin:round;">
</g>
<g style="fill:#000000; fill-opacity:0.0; 
stroke:#000000; stroke-width:59.0551; stroke-opacity:1; 
stroke-linecap:round; stroke-linejoin:round;">
<path d="M77559 75396
L77559 76577
" />
</g>
<g style="fill:#000000; fill-opacity:0.0; 
stroke:#000000; stroke-width:19.685; stroke-opacity:1; 
stroke-linecap:round; stroke-linejoin:round;">
</g>
<g style="fill:#000000; fill-opacity:0.0; 
stroke:#000000; stroke-width:59.0551; stroke-opacity:1; 
stroke-linecap:round; stroke-linejoin:round;">
<path d="M102756 75396
L102756 77955
" />
<g >
</g>
<g >
</g>
<g >
</g>
<g >
</g>
<g >
</g>
<g >
</g>
<g >
</g>
<g >
</g>
<g >
</g>
<g >
</g>
<g >
</g>
<g >
</g>
<g >
</g>
<g >
</g>
<g >
</g>
<g >
</g>
<g >
</g>
<g >
</g>
<g >
</g>
<g >
</g>
<g >
</g>
<g >
</g>
<g >
</g>
<g >
</g>
<g >
</g>
<g >
</g>
</g>
<g style="fill:#000000; fill-opacity:0.0; 
stroke:#000000; stroke-width:59.0551; stroke-opacity:1; 
stroke-linecap:round; stroke-linejoin:round;">
</g>
<g style="fill:#C2C200; fill-opacity:0.0; 
stroke:#C2C200; stroke-width:59.0551; stroke-opacity:1; 
stroke-linecap:round; stroke-linejoin:round;">
</g>
<g style="fill:#C2C200; fill-opacity:0.0; 
stroke:#C2C200; stroke-width:19.685; stroke-opacity:1; 
stroke-linecap:round; stroke-linejoin:round;">
<path d="M39690 43060
L39690 51770
" />
<path d="M52290 43060
L39690 43060
" />
<path d="M52290 51770
L52290 43060
" />
<path d="M39690 51770
L52290 51770
" />
</g>
<g style="fill:#C2C200; fill-opacity:0.0; 
stroke:#C2C200; stroke-width:59.0551; stroke-opacity:1; 
stroke-linecap:round; stroke-linejoin:round;">
<path d="M55200 30580
L55200 35990
" />
<path d="M40030 30580
L55200 30580
" />
<path d="M40030 35990
L40030 30580
" />
<path d="M55200 35990
L40030 35990
" />
<g >
</g>
<g >
</g>
<g >
</g>
<g >
</g>
<g >
</g>
<g >
</g>
<g >
</g>
<g >
</g>
<g >
</g>
<g >
</g>
<g >
</g>
<g >
</g>
<g >
</g>
<g >
</g>
<g >
</g>
<g >
</g>
<g >
</g>
<g >
</g>
<g >
</g>
<g >
</g>
<g >
</g>
<g >
</g>
<g >
</g>
<g >
</g>
<g >
</g>
<g >
</g>
</g> 
</svg>
